Suite/Test/Step Name,Browser,Description,Tag,Start time,End time,Duration,Status
StudentPortal_Check,Chrome 115.0.0.0,,,2023-08-04 13:56:36,2023-08-04 13:57:49,1m - 13.079s,FAILED
,,,,,,,
Test Cases/StudentPortal_Check,Chrome 115.0.0.0,,,2023-08-04 13:56:36,2023-08-04 13:57:49,1m - 12.870s,FAILED
"openBrowser("""")",Chrome 115.0.0.0,,,2023-08-04 13:56:36,2023-08-04 13:56:38,2.273s,PASSED
maximizeWindow(),Chrome 115.0.0.0,,,2023-08-04 13:56:38,2023-08-04 13:56:38,0.137s,PASSED
"navigateToUrl(""https://intranet.babson.edu/user/login"")",Chrome 115.0.0.0,,,2023-08-04 13:56:38,2023-08-04 13:56:40,1.472s,PASSED
"setText(findTestObject(""Object Repository/drupal/input_Username_name""), ""test_stude"")",Chrome 115.0.0.0,,,2023-08-04 13:56:40,2023-08-04 13:56:41,1.052s,PASSED
"setEncryptedText(findTestObject(""Object Repository/drupal/input_Password_pass""), ""lazf3NoY6jXdF6AuwmRd3g=="")",Chrome 115.0.0.0,,,2023-08-04 13:56:41,2023-08-04 13:56:41,0.409s,PASSED
"click(findTestObject(""Object Repository/drupal/input_Federated login_op""))",Chrome 115.0.0.0,,,2023-08-04 13:56:41,2023-08-04 13:56:43,1.952s,PASSED
"click(findTestObject(""Object Repository/path_Babson College logo_myLogoText""))",Chrome 115.0.0.0,,,2023-08-04 13:56:43,2023-08-04 13:57:49,1m - 5.305s,FAILED
