Suite/Test/Step Name,Browser,Description,Tag,Start time,End time,Duration,Status
Graduate152,,,,2024-02-28 11:25:27,2024-02-28 11:25:31,3.649s,FAILED
,,,,,,,
Test Cases/BDD/Forms/152,,,,2024-02-28 11:25:31,2024-02-28 11:25:31,0.537s,FAILED
"runFeatureFile(""Include/features/Forms/152Graduate/GradCertAdvMgmt.feature"")",,,,2024-02-28 11:25:31,2024-02-28 11:25:31,0.463s,FAILED
Start listener action : sampleAfterTestCase,,,,2024-02-28 11:25:31,2024-02-28 11:25:31,0.003s,PASSED
Start listener action : sampleAfterTestCase,,,,2024-02-28 11:25:31,2024-02-28 11:25:31,0.002s,PASSED
