[
  {
    "line": 2,
    "elements": [
      {
        "line": 25,
        "name": "Submit Certificate Management Form",
        "description": "",
        "id": "admission/graduate-school/certificate-in-advanced-management/;submit-certificate-management-form;;2",
        "type": "scenario",
        "keyword": "Scenario Outline",
        "steps": [
          {
            "result": {
              "error_message": "com.kms.katalon.core.webui.exception.BrowserNotOpenedException: Browser is not opened\nBuild info: version: \u00273.141.59\u0027, revision: \u0027e82be7d358\u0027, time: \u00272018-11-14T08:25:53\u0027\nSystem info: host: \u0027L18-0032\u0027, ip: \u002710.0.0.226\u0027, os.name: \u0027Windows 10\u0027, os.arch: \u0027amd64\u0027, os.version: \u002710.0\u0027, java.version: \u00271.8.0_181\u0027\nDriver info: driver.version: DriverFactory$getWebDriver\r\n\tat com.kms.katalon.core.webui.driver.DriverFactory.verifyWebDriverIsOpen(DriverFactory.java:985)\r\n\tat com.kms.katalon.core.webui.driver.DriverFactory.verifyWebDriver(DriverFactory.java:970)\r\n\tat com.kms.katalon.core.webui.driver.DriverFactory.getWebDriver(DriverFactory.java:956)\r\n\tat com.kms.katalon.core.webui.driver.DriverFactory$getWebDriver.call(Unknown Source)\r\n\tat forms.Graduate152.Homepage(Graduate152.groovy:50)\r\n\tat ✽.I am on the homepage(C:/Users/rkeough/git/babson-automation/Include/features/Forms/152Graduate/Graduate152.feature:7)\r\n",
              "duration": 1998648100,
              "status": "failed"
            },
            "line": 7,
            "name": "I am on the homepage",
            "match": {
              "location": "Graduate152.Homepage()"
            },
            "keyword": "Given "
          },
          {
            "result": {
              "status": "skipped"
            },
            "line": 8,
            "name": "I am on the form \"https://www.babson.edu/academics/graduate-school/\" page",
            "match": {
              "arguments": [
                {
                  "val": "\"https://www.babson.edu/academics/graduate-school/\"",
                  "offset": 17
                }
              ],
              "location": "Graduate152.FormPage(String)"
            },
            "keyword": "When "
          },
          {
            "result": {
              "status": "skipped"
            },
            "line": 9,
            "name": "I input the first and last name on the form",
            "match": {
              "location": "Graduate152.FirstLastName()"
            },
            "keyword": "And "
          },
          {
            "result": {
              "status": "skipped"
            },
            "line": 10,
            "name": "I input an email address",
            "match": {
              "location": "Graduate152.inputEmail()"
            },
            "keyword": "And "
          },
          {
            "result": {
              "status": "skipped"
            },
            "line": 11,
            "name": "I select a program \"tfa_1184\"",
            "match": {
              "arguments": [
                {
                  "val": "\"tfa_1184\"",
                  "offset": 19
                }
              ],
              "location": "Graduate152.SelectAProgramOfInterest(String)"
            },
            "keyword": "And "
          },
          {
            "result": {
              "status": "skipped"
            },
            "line": 12,
            "name": "I select a term \"tfa_1186\"",
            "match": {
              "arguments": [
                {
                  "val": "\"tfa_1186\"",
                  "offset": 16
                }
              ],
              "location": "Graduate152.SelectATermOfEnrollment(String)"
            },
            "keyword": "And "
          },
          {
            "result": {
              "status": "skipped"
            },
            "line": 13,
            "name": "I input a phone number",
            "match": {
              "location": "Graduate152.inputPhoneNumber()"
            },
            "keyword": "And "
          },
          {
            "result": {
              "status": "skipped"
            },
            "line": 14,
            "name": "I select a country",
            "match": {
              "location": "Graduate152.SelectACountry()"
            },
            "keyword": "And "
          },
          {
            "result": {
              "status": "skipped"
            },
            "line": 15,
            "name": "I input a state",
            "match": {
              "location": "Graduate152.inputState()"
            },
            "keyword": "And "
          },
          {
            "result": {
              "status": "skipped"
            },
            "line": 16,
            "name": "I input a city",
            "match": {
              "location": "Graduate152.inputCity()"
            },
            "keyword": "And "
          },
          {
            "result": {
              "status": "skipped"
            },
            "line": 17,
            "name": "I input the postal code",
            "match": {
              "location": "Graduate152.inputPostalZode()"
            },
            "keyword": "And "
          },
          {
            "result": {
              "status": "skipped"
            },
            "line": 18,
            "name": "I click the submit button",
            "match": {
              "location": "Graduate152.clickSubmit()"
            },
            "keyword": "And "
          },
          {
            "result": {
              "status": "skipped"
            },
            "line": 19,
            "name": "I am on the correct \"https://www.babson.edu/graduate/admissions/thank-you/\" page",
            "match": {
              "arguments": [
                {
                  "val": "\"https://www.babson.edu/graduate/admissions/thank-you/\"",
                  "offset": 20
                }
              ],
              "location": "Graduate152.thankYouPage(String)"
            },
            "keyword": "And "
          },
          {
            "result": {
              "status": "skipped"
            },
            "line": 20,
            "name": "I get the submit request",
            "match": {
              "location": "Graduate152.submitRequest()"
            },
            "keyword": "And "
          },
          {
            "result": {
              "status": "skipped"
            },
            "line": 21,
            "name": "I delete the form record",
            "match": {
              "location": "Graduate152.deleteRequest()"
            },
            "keyword": "Then "
          }
        ],
        "tags": [
          {
            "name": "@Form"
          },
          {
            "name": "@152"
          },
          {
            "name": "@Graduate"
          },
          {
            "name": "@Grad"
          },
          {
            "name": "@152"
          },
          {
            "name": "@smoke"
          }
        ]
      },
      {
        "line": 26,
        "name": "Submit Certificate Management Form",
        "description": "",
        "id": "admission/graduate-school/certificate-in-advanced-management/;submit-certificate-management-form;;3",
        "type": "scenario",
        "keyword": "Scenario Outline",
        "steps": [
          {
            "result": {
              "error_message": "com.kms.katalon.core.webui.exception.BrowserNotOpenedException: Browser is not opened\nBuild info: version: \u00273.141.59\u0027, revision: \u0027e82be7d358\u0027, time: \u00272018-11-14T08:25:53\u0027\nSystem info: host: \u0027L18-0032\u0027, ip: \u002710.0.0.226\u0027, os.name: \u0027Windows 10\u0027, os.arch: \u0027amd64\u0027, os.version: \u002710.0\u0027, java.version: \u00271.8.0_181\u0027\nDriver info: driver.version: DriverFactory$getWebDriver\r\n\tat com.kms.katalon.core.webui.driver.DriverFactory.verifyWebDriverIsOpen(DriverFactory.java:985)\r\n\tat com.kms.katalon.core.webui.driver.DriverFactory.verifyWebDriver(DriverFactory.java:970)\r\n\tat com.kms.katalon.core.webui.driver.DriverFactory.getWebDriver(DriverFactory.java:956)\r\n\tat com.kms.katalon.core.webui.driver.DriverFactory$getWebDriver.call(Unknown Source)\r\n\tat forms.Graduate152.Homepage(Graduate152.groovy:50)\r\n\tat ✽.I am on the homepage(C:/Users/rkeough/git/babson-automation/Include/features/Forms/152Graduate/Graduate152.feature:7)\r\n",
              "duration": 2322126100,
              "status": "failed"
            },
            "line": 7,
            "name": "I am on the homepage",
            "match": {
              "location": "Graduate152.Homepage()"
            },
            "keyword": "Given "
          },
          {
            "result": {
              "status": "skipped"
            },
            "line": 8,
            "name": "I am on the form \"https://www.babson.edu/academics/graduate-school/mba/full-time-mba/\" page",
            "match": {
              "arguments": [
                {
                  "val": "\"https://www.babson.edu/academics/graduate-school/mba/full-time-mba/\"",
                  "offset": 17
                }
              ],
              "location": "Graduate152.FormPage(String)"
            },
            "keyword": "When "
          },
          {
            "result": {
              "status": "skipped"
            },
            "line": 9,
            "name": "I input the first and last name on the form",
            "match": {
              "location": "Graduate152.FirstLastName()"
            },
            "keyword": "And "
          },
          {
            "result": {
              "status": "skipped"
            },
            "line": 10,
            "name": "I input an email address",
            "match": {
              "location": "Graduate152.inputEmail()"
            },
            "keyword": "And "
          },
          {
            "result": {
              "status": "skipped"
            },
            "line": 11,
            "name": "I select a program \"tfa_1184\"",
            "match": {
              "arguments": [
                {
                  "val": "\"tfa_1184\"",
                  "offset": 19
                }
              ],
              "location": "Graduate152.SelectAProgramOfInterest(String)"
            },
            "keyword": "And "
          },
          {
            "result": {
              "status": "skipped"
            },
            "line": 12,
            "name": "I select a term \"tfa_1257\"",
            "match": {
              "arguments": [
                {
                  "val": "\"tfa_1257\"",
                  "offset": 16
                }
              ],
              "location": "Graduate152.SelectATermOfEnrollment(String)"
            },
            "keyword": "And "
          },
          {
            "result": {
              "status": "skipped"
            },
            "line": 13,
            "name": "I input a phone number",
            "match": {
              "location": "Graduate152.inputPhoneNumber()"
            },
            "keyword": "And "
          },
          {
            "result": {
              "status": "skipped"
            },
            "line": 14,
            "name": "I select a country",
            "match": {
              "location": "Graduate152.SelectACountry()"
            },
            "keyword": "And "
          },
          {
            "result": {
              "status": "skipped"
            },
            "line": 15,
            "name": "I input a state",
            "match": {
              "location": "Graduate152.inputState()"
            },
            "keyword": "And "
          },
          {
            "result": {
              "status": "skipped"
            },
            "line": 16,
            "name": "I input a city",
            "match": {
              "location": "Graduate152.inputCity()"
            },
            "keyword": "And "
          },
          {
            "result": {
              "status": "skipped"
            },
            "line": 17,
            "name": "I input the postal code",
            "match": {
              "location": "Graduate152.inputPostalZode()"
            },
            "keyword": "And "
          },
          {
            "result": {
              "status": "skipped"
            },
            "line": 18,
            "name": "I click the submit button",
            "match": {
              "location": "Graduate152.clickSubmit()"
            },
            "keyword": "And "
          },
          {
            "result": {
              "status": "skipped"
            },
            "line": 19,
            "name": "I am on the correct \"https://www.babson.edu/graduate/admissions/thank-you/\" page",
            "match": {
              "arguments": [
                {
                  "val": "\"https://www.babson.edu/graduate/admissions/thank-you/\"",
                  "offset": 20
                }
              ],
              "location": "Graduate152.thankYouPage(String)"
            },
            "keyword": "And "
          },
          {
            "result": {
              "status": "skipped"
            },
            "line": 20,
            "name": "I get the submit request",
            "match": {
              "location": "Graduate152.submitRequest()"
            },
            "keyword": "And "
          },
          {
            "result": {
              "status": "skipped"
            },
            "line": 21,
            "name": "I delete the form record",
            "match": {
              "location": "Graduate152.deleteRequest()"
            },
            "keyword": "Then "
          }
        ],
        "tags": [
          {
            "name": "@Form"
          },
          {
            "name": "@152"
          },
          {
            "name": "@Graduate"
          },
          {
            "name": "@Grad"
          },
          {
            "name": "@152"
          },
          {
            "name": "@smoke"
          }
        ]
      },
      {
        "line": 27,
        "name": "Submit Certificate Management Form",
        "description": "",
        "id": "admission/graduate-school/certificate-in-advanced-management/;submit-certificate-management-form;;4",
        "type": "scenario",
        "keyword": "Scenario Outline",
        "steps": [
          {
            "result": {
              "error_message": "com.kms.katalon.core.webui.exception.BrowserNotOpenedException: Browser is not opened\nBuild info: version: \u00273.141.59\u0027, revision: \u0027e82be7d358\u0027, time: \u00272018-11-14T08:25:53\u0027\nSystem info: host: \u0027L18-0032\u0027, ip: \u002710.0.0.226\u0027, os.name: \u0027Windows 10\u0027, os.arch: \u0027amd64\u0027, os.version: \u002710.0\u0027, java.version: \u00271.8.0_181\u0027\nDriver info: driver.version: DriverFactory$getWebDriver\r\n\tat com.kms.katalon.core.webui.driver.DriverFactory.verifyWebDriverIsOpen(DriverFactory.java:985)\r\n\tat com.kms.katalon.core.webui.driver.DriverFactory.verifyWebDriver(DriverFactory.java:970)\r\n\tat com.kms.katalon.core.webui.driver.DriverFactory.getWebDriver(DriverFactory.java:956)\r\n\tat com.kms.katalon.core.webui.driver.DriverFactory$getWebDriver.call(Unknown Source)\r\n\tat forms.Graduate152.Homepage(Graduate152.groovy:50)\r\n\tat ✽.I am on the homepage(C:/Users/rkeough/git/babson-automation/Include/features/Forms/152Graduate/Graduate152.feature:7)\r\n",
              "duration": 2165241300,
              "status": "failed"
            },
            "line": 7,
            "name": "I am on the homepage",
            "match": {
              "location": "Graduate152.Homepage()"
            },
            "keyword": "Given "
          },
          {
            "result": {
              "status": "skipped"
            },
            "line": 8,
            "name": "I am on the form \"https://www.babson.edu/business-programs-wes/master-of-science-in-management-in-entrepreneurial-leadership/\" page",
            "match": {
              "arguments": [
                {
                  "val": "\"https://www.babson.edu/business-programs-wes/master-of-science-in-management-in-entrepreneurial-leadership/\"",
                  "offset": 17
                }
              ],
              "location": "Graduate152.FormPage(String)"
            },
            "keyword": "When "
          },
          {
            "result": {
              "status": "skipped"
            },
            "line": 9,
            "name": "I input the first and last name on the form",
            "match": {
              "location": "Graduate152.FirstLastName()"
            },
            "keyword": "And "
          },
          {
            "result": {
              "status": "skipped"
            },
            "line": 10,
            "name": "I input an email address",
            "match": {
              "location": "Graduate152.inputEmail()"
            },
            "keyword": "And "
          },
          {
            "result": {
              "status": "skipped"
            },
            "line": 11,
            "name": "I select a program \"tfa_1043\"",
            "match": {
              "arguments": [
                {
                  "val": "\"tfa_1043\"",
                  "offset": 19
                }
              ],
              "location": "Graduate152.SelectAProgramOfInterest(String)"
            },
            "keyword": "And "
          },
          {
            "result": {
              "status": "skipped"
            },
            "line": 12,
            "name": "I select a term \"tfa_1188\"",
            "match": {
              "arguments": [
                {
                  "val": "\"tfa_1188\"",
                  "offset": 16
                }
              ],
              "location": "Graduate152.SelectATermOfEnrollment(String)"
            },
            "keyword": "And "
          },
          {
            "result": {
              "status": "skipped"
            },
            "line": 13,
            "name": "I input a phone number",
            "match": {
              "location": "Graduate152.inputPhoneNumber()"
            },
            "keyword": "And "
          },
          {
            "result": {
              "status": "skipped"
            },
            "line": 14,
            "name": "I select a country",
            "match": {
              "location": "Graduate152.SelectACountry()"
            },
            "keyword": "And "
          },
          {
            "result": {
              "status": "skipped"
            },
            "line": 15,
            "name": "I input a state",
            "match": {
              "location": "Graduate152.inputState()"
            },
            "keyword": "And "
          },
          {
            "result": {
              "status": "skipped"
            },
            "line": 16,
            "name": "I input a city",
            "match": {
              "location": "Graduate152.inputCity()"
            },
            "keyword": "And "
          },
          {
            "result": {
              "status": "skipped"
            },
            "line": 17,
            "name": "I input the postal code",
            "match": {
              "location": "Graduate152.inputPostalZode()"
            },
            "keyword": "And "
          },
          {
            "result": {
              "status": "skipped"
            },
            "line": 18,
            "name": "I click the submit button",
            "match": {
              "location": "Graduate152.clickSubmit()"
            },
            "keyword": "And "
          },
          {
            "result": {
              "status": "skipped"
            },
            "line": 19,
            "name": "I am on the correct \"https://www.babson.edu/graduate/admissions/thank-you/\" page",
            "match": {
              "arguments": [
                {
                  "val": "\"https://www.babson.edu/graduate/admissions/thank-you/\"",
                  "offset": 20
                }
              ],
              "location": "Graduate152.thankYouPage(String)"
            },
            "keyword": "And "
          },
          {
            "result": {
              "status": "skipped"
            },
            "line": 20,
            "name": "I get the submit request",
            "match": {
              "location": "Graduate152.submitRequest()"
            },
            "keyword": "And "
          },
          {
            "result": {
              "status": "skipped"
            },
            "line": 21,
            "name": "I delete the form record",
            "match": {
              "location": "Graduate152.deleteRequest()"
            },
            "keyword": "Then "
          }
        ],
        "tags": [
          {
            "name": "@Form"
          },
          {
            "name": "@152"
          },
          {
            "name": "@Graduate"
          },
          {
            "name": "@Grad"
          },
          {
            "name": "@152"
          },
          {
            "name": "@smoke"
          }
        ]
      },
      {
        "line": 28,
        "name": "Submit Certificate Management Form",
        "description": "",
        "id": "admission/graduate-school/certificate-in-advanced-management/;submit-certificate-management-form;;5",
        "type": "scenario",
        "keyword": "Scenario Outline",
        "steps": [
          {
            "result": {
              "error_message": "com.kms.katalon.core.webui.exception.BrowserNotOpenedException: Browser is not opened\nBuild info: version: \u00273.141.59\u0027, revision: \u0027e82be7d358\u0027, time: \u00272018-11-14T08:25:53\u0027\nSystem info: host: \u0027L18-0032\u0027, ip: \u002710.0.0.226\u0027, os.name: \u0027Windows 10\u0027, os.arch: \u0027amd64\u0027, os.version: \u002710.0\u0027, java.version: \u00271.8.0_181\u0027\nDriver info: driver.version: DriverFactory$getWebDriver\r\n\tat com.kms.katalon.core.webui.driver.DriverFactory.verifyWebDriverIsOpen(DriverFactory.java:985)\r\n\tat com.kms.katalon.core.webui.driver.DriverFactory.verifyWebDriver(DriverFactory.java:970)\r\n\tat com.kms.katalon.core.webui.driver.DriverFactory.getWebDriver(DriverFactory.java:956)\r\n\tat com.kms.katalon.core.webui.driver.DriverFactory$getWebDriver.call(Unknown Source)\r\n\tat forms.Graduate152.Homepage(Graduate152.groovy:50)\r\n\tat ✽.I am on the homepage(C:/Users/rkeough/git/babson-automation/Include/features/Forms/152Graduate/Graduate152.feature:7)\r\n",
              "duration": 2111966000,
              "status": "failed"
            },
            "line": 7,
            "name": "I am on the homepage",
            "match": {
              "location": "Graduate152.Homepage()"
            },
            "keyword": "Given "
          },
          {
            "result": {
              "status": "skipped"
            },
            "line": 8,
            "name": "I am on the form \"https://www.babson.edu/academics/graduate-school/mba/\" page",
            "match": {
              "arguments": [
                {
                  "val": "\"https://www.babson.edu/academics/graduate-school/mba/\"",
                  "offset": 17
                }
              ],
              "location": "Graduate152.FormPage(String)"
            },
            "keyword": "When "
          },
          {
            "result": {
              "status": "skipped"
            },
            "line": 9,
            "name": "I input the first and last name on the form",
            "match": {
              "location": "Graduate152.FirstLastName()"
            },
            "keyword": "And "
          },
          {
            "result": {
              "status": "skipped"
            },
            "line": 10,
            "name": "I input an email address",
            "match": {
              "location": "Graduate152.inputEmail()"
            },
            "keyword": "And "
          },
          {
            "result": {
              "status": "skipped"
            },
            "line": 11,
            "name": "I select a program \"tfa_1043\"",
            "match": {
              "arguments": [
                {
                  "val": "\"tfa_1043\"",
                  "offset": 19
                }
              ],
              "location": "Graduate152.SelectAProgramOfInterest(String)"
            },
            "keyword": "And "
          },
          {
            "result": {
              "status": "skipped"
            },
            "line": 12,
            "name": "I select a term \"tfa_1223\"",
            "match": {
              "arguments": [
                {
                  "val": "\"tfa_1223\"",
                  "offset": 16
                }
              ],
              "location": "Graduate152.SelectATermOfEnrollment(String)"
            },
            "keyword": "And "
          },
          {
            "result": {
              "status": "skipped"
            },
            "line": 13,
            "name": "I input a phone number",
            "match": {
              "location": "Graduate152.inputPhoneNumber()"
            },
            "keyword": "And "
          },
          {
            "result": {
              "status": "skipped"
            },
            "line": 14,
            "name": "I select a country",
            "match": {
              "location": "Graduate152.SelectACountry()"
            },
            "keyword": "And "
          },
          {
            "result": {
              "status": "skipped"
            },
            "line": 15,
            "name": "I input a state",
            "match": {
              "location": "Graduate152.inputState()"
            },
            "keyword": "And "
          },
          {
            "result": {
              "status": "skipped"
            },
            "line": 16,
            "name": "I input a city",
            "match": {
              "location": "Graduate152.inputCity()"
            },
            "keyword": "And "
          },
          {
            "result": {
              "status": "skipped"
            },
            "line": 17,
            "name": "I input the postal code",
            "match": {
              "location": "Graduate152.inputPostalZode()"
            },
            "keyword": "And "
          },
          {
            "result": {
              "status": "skipped"
            },
            "line": 18,
            "name": "I click the submit button",
            "match": {
              "location": "Graduate152.clickSubmit()"
            },
            "keyword": "And "
          },
          {
            "result": {
              "status": "skipped"
            },
            "line": 19,
            "name": "I am on the correct \"https://www.babson.edu/graduate/admissions/thank-you/\" page",
            "match": {
              "arguments": [
                {
                  "val": "\"https://www.babson.edu/graduate/admissions/thank-you/\"",
                  "offset": 20
                }
              ],
              "location": "Graduate152.thankYouPage(String)"
            },
            "keyword": "And "
          },
          {
            "result": {
              "status": "skipped"
            },
            "line": 20,
            "name": "I get the submit request",
            "match": {
              "location": "Graduate152.submitRequest()"
            },
            "keyword": "And "
          },
          {
            "result": {
              "status": "skipped"
            },
            "line": 21,
            "name": "I delete the form record",
            "match": {
              "location": "Graduate152.deleteRequest()"
            },
            "keyword": "Then "
          }
        ],
        "tags": [
          {
            "name": "@Form"
          },
          {
            "name": "@152"
          },
          {
            "name": "@Graduate"
          },
          {
            "name": "@Grad"
          },
          {
            "name": "@152"
          },
          {
            "name": "@smoke"
          }
        ]
      },
      {
        "line": 29,
        "name": "Submit Certificate Management Form",
        "description": "",
        "id": "admission/graduate-school/certificate-in-advanced-management/;submit-certificate-management-form;;6",
        "type": "scenario",
        "keyword": "Scenario Outline",
        "steps": [
          {
            "result": {
              "error_message": "com.kms.katalon.core.webui.exception.BrowserNotOpenedException: Browser is not opened\nBuild info: version: \u00273.141.59\u0027, revision: \u0027e82be7d358\u0027, time: \u00272018-11-14T08:25:53\u0027\nSystem info: host: \u0027L18-0032\u0027, ip: \u002710.0.0.226\u0027, os.name: \u0027Windows 10\u0027, os.arch: \u0027amd64\u0027, os.version: \u002710.0\u0027, java.version: \u00271.8.0_181\u0027\nDriver info: driver.version: DriverFactory$getWebDriver\r\n\tat com.kms.katalon.core.webui.driver.DriverFactory.verifyWebDriverIsOpen(DriverFactory.java:985)\r\n\tat com.kms.katalon.core.webui.driver.DriverFactory.verifyWebDriver(DriverFactory.java:970)\r\n\tat com.kms.katalon.core.webui.driver.DriverFactory.getWebDriver(DriverFactory.java:956)\r\n\tat com.kms.katalon.core.webui.driver.DriverFactory$getWebDriver.call(Unknown Source)\r\n\tat forms.Graduate152.Homepage(Graduate152.groovy:50)\r\n\tat ✽.I am on the homepage(C:/Users/rkeough/git/babson-automation/Include/features/Forms/152Graduate/Graduate152.feature:7)\r\n",
              "duration": 2043252600,
              "status": "failed"
            },
            "line": 7,
            "name": "I am on the homepage",
            "match": {
              "location": "Graduate152.Homepage()"
            },
            "keyword": "Given "
          },
          {
            "result": {
              "status": "skipped"
            },
            "line": 8,
            "name": "I am on the form \"https://www.babson.edu/academics/graduate-school/mba/mba-miami/\" page",
            "match": {
              "arguments": [
                {
                  "val": "\"https://www.babson.edu/academics/graduate-school/mba/mba-miami/\"",
                  "offset": 17
                }
              ],
              "location": "Graduate152.FormPage(String)"
            },
            "keyword": "When "
          },
          {
            "result": {
              "status": "skipped"
            },
            "line": 9,
            "name": "I input the first and last name on the form",
            "match": {
              "location": "Graduate152.FirstLastName()"
            },
            "keyword": "And "
          },
          {
            "result": {
              "status": "skipped"
            },
            "line": 10,
            "name": "I input an email address",
            "match": {
              "location": "Graduate152.inputEmail()"
            },
            "keyword": "And "
          },
          {
            "result": {
              "status": "skipped"
            },
            "line": 11,
            "name": "I select a program \"tfa_1208\"",
            "match": {
              "arguments": [
                {
                  "val": "\"tfa_1208\"",
                  "offset": 19
                }
              ],
              "location": "Graduate152.SelectAProgramOfInterest(String)"
            },
            "keyword": "And "
          },
          {
            "result": {
              "status": "skipped"
            },
            "line": 12,
            "name": "I select a term \"tfa_1226\"",
            "match": {
              "arguments": [
                {
                  "val": "\"tfa_1226\"",
                  "offset": 16
                }
              ],
              "location": "Graduate152.SelectATermOfEnrollment(String)"
            },
            "keyword": "And "
          },
          {
            "result": {
              "status": "skipped"
            },
            "line": 13,
            "name": "I input a phone number",
            "match": {
              "location": "Graduate152.inputPhoneNumber()"
            },
            "keyword": "And "
          },
          {
            "result": {
              "status": "skipped"
            },
            "line": 14,
            "name": "I select a country",
            "match": {
              "location": "Graduate152.SelectACountry()"
            },
            "keyword": "And "
          },
          {
            "result": {
              "status": "skipped"
            },
            "line": 15,
            "name": "I input a state",
            "match": {
              "location": "Graduate152.inputState()"
            },
            "keyword": "And "
          },
          {
            "result": {
              "status": "skipped"
            },
            "line": 16,
            "name": "I input a city",
            "match": {
              "location": "Graduate152.inputCity()"
            },
            "keyword": "And "
          },
          {
            "result": {
              "status": "skipped"
            },
            "line": 17,
            "name": "I input the postal code",
            "match": {
              "location": "Graduate152.inputPostalZode()"
            },
            "keyword": "And "
          },
          {
            "result": {
              "status": "skipped"
            },
            "line": 18,
            "name": "I click the submit button",
            "match": {
              "location": "Graduate152.clickSubmit()"
            },
            "keyword": "And "
          },
          {
            "result": {
              "status": "skipped"
            },
            "line": 19,
            "name": "I am on the correct \"https://www.babson.edu/graduate/admissions/thank-you/\" page",
            "match": {
              "arguments": [
                {
                  "val": "\"https://www.babson.edu/graduate/admissions/thank-you/\"",
                  "offset": 20
                }
              ],
              "location": "Graduate152.thankYouPage(String)"
            },
            "keyword": "And "
          },
          {
            "result": {
              "status": "skipped"
            },
            "line": 20,
            "name": "I get the submit request",
            "match": {
              "location": "Graduate152.submitRequest()"
            },
            "keyword": "And "
          },
          {
            "result": {
              "status": "skipped"
            },
            "line": 21,
            "name": "I delete the form record",
            "match": {
              "location": "Graduate152.deleteRequest()"
            },
            "keyword": "Then "
          }
        ],
        "tags": [
          {
            "name": "@Form"
          },
          {
            "name": "@152"
          },
          {
            "name": "@Graduate"
          },
          {
            "name": "@Grad"
          },
          {
            "name": "@152"
          },
          {
            "name": "@smoke"
          }
        ]
      },
      {
        "line": 30,
        "name": "Submit Certificate Management Form",
        "description": "",
        "id": "admission/graduate-school/certificate-in-advanced-management/;submit-certificate-management-form;;7",
        "type": "scenario",
        "keyword": "Scenario Outline",
        "steps": [
          {
            "result": {
              "error_message": "com.kms.katalon.core.webui.exception.BrowserNotOpenedException: Browser is not opened\nBuild info: version: \u00273.141.59\u0027, revision: \u0027e82be7d358\u0027, time: \u00272018-11-14T08:25:53\u0027\nSystem info: host: \u0027L18-0032\u0027, ip: \u002710.0.0.226\u0027, os.name: \u0027Windows 10\u0027, os.arch: \u0027amd64\u0027, os.version: \u002710.0\u0027, java.version: \u00271.8.0_181\u0027\nDriver info: driver.version: DriverFactory$getWebDriver\r\n\tat com.kms.katalon.core.webui.driver.DriverFactory.verifyWebDriverIsOpen(DriverFactory.java:985)\r\n\tat com.kms.katalon.core.webui.driver.DriverFactory.verifyWebDriver(DriverFactory.java:970)\r\n\tat com.kms.katalon.core.webui.driver.DriverFactory.getWebDriver(DriverFactory.java:956)\r\n\tat com.kms.katalon.core.webui.driver.DriverFactory$getWebDriver.call(Unknown Source)\r\n\tat forms.Graduate152.Homepage(Graduate152.groovy:50)\r\n\tat ✽.I am on the homepage(C:/Users/rkeough/git/babson-automation/Include/features/Forms/152Graduate/Graduate152.feature:7)\r\n",
              "duration": 2072362100,
              "status": "failed"
            },
            "line": 7,
            "name": "I am on the homepage",
            "match": {
              "location": "Graduate152.Homepage()"
            },
            "keyword": "Given "
          },
          {
            "result": {
              "status": "skipped"
            },
            "line": 8,
            "name": "I am on the form \"https://www.babson.edu/academics/graduate-school/ms-business-analytics/\" page",
            "match": {
              "arguments": [
                {
                  "val": "\"https://www.babson.edu/academics/graduate-school/ms-business-analytics/\"",
                  "offset": 17
                }
              ],
              "location": "Graduate152.FormPage(String)"
            },
            "keyword": "When "
          },
          {
            "result": {
              "status": "skipped"
            },
            "line": 9,
            "name": "I input the first and last name on the form",
            "match": {
              "location": "Graduate152.FirstLastName()"
            },
            "keyword": "And "
          },
          {
            "result": {
              "status": "skipped"
            },
            "line": 10,
            "name": "I input an email address",
            "match": {
              "location": "Graduate152.inputEmail()"
            },
            "keyword": "And "
          },
          {
            "result": {
              "status": "skipped"
            },
            "line": 11,
            "name": "I select a program \"tfa_1208\"",
            "match": {
              "arguments": [
                {
                  "val": "\"tfa_1208\"",
                  "offset": 19
                }
              ],
              "location": "Graduate152.SelectAProgramOfInterest(String)"
            },
            "keyword": "And "
          },
          {
            "result": {
              "status": "skipped"
            },
            "line": 12,
            "name": "I select a term \"tfa_1269\"",
            "match": {
              "arguments": [
                {
                  "val": "\"tfa_1269\"",
                  "offset": 16
                }
              ],
              "location": "Graduate152.SelectATermOfEnrollment(String)"
            },
            "keyword": "And "
          },
          {
            "result": {
              "status": "skipped"
            },
            "line": 13,
            "name": "I input a phone number",
            "match": {
              "location": "Graduate152.inputPhoneNumber()"
            },
            "keyword": "And "
          },
          {
            "result": {
              "status": "skipped"
            },
            "line": 14,
            "name": "I select a country",
            "match": {
              "location": "Graduate152.SelectACountry()"
            },
            "keyword": "And "
          },
          {
            "result": {
              "status": "skipped"
            },
            "line": 15,
            "name": "I input a state",
            "match": {
              "location": "Graduate152.inputState()"
            },
            "keyword": "And "
          },
          {
            "result": {
              "status": "skipped"
            },
            "line": 16,
            "name": "I input a city",
            "match": {
              "location": "Graduate152.inputCity()"
            },
            "keyword": "And "
          },
          {
            "result": {
              "status": "skipped"
            },
            "line": 17,
            "name": "I input the postal code",
            "match": {
              "location": "Graduate152.inputPostalZode()"
            },
            "keyword": "And "
          },
          {
            "result": {
              "status": "skipped"
            },
            "line": 18,
            "name": "I click the submit button",
            "match": {
              "location": "Graduate152.clickSubmit()"
            },
            "keyword": "And "
          },
          {
            "result": {
              "status": "skipped"
            },
            "line": 19,
            "name": "I am on the correct \"https://www.babson.edu/graduate/admissions/thank-you/\" page",
            "match": {
              "arguments": [
                {
                  "val": "\"https://www.babson.edu/graduate/admissions/thank-you/\"",
                  "offset": 20
                }
              ],
              "location": "Graduate152.thankYouPage(String)"
            },
            "keyword": "And "
          },
          {
            "result": {
              "status": "skipped"
            },
            "line": 20,
            "name": "I get the submit request",
            "match": {
              "location": "Graduate152.submitRequest()"
            },
            "keyword": "And "
          },
          {
            "result": {
              "status": "skipped"
            },
            "line": 21,
            "name": "I delete the form record",
            "match": {
              "location": "Graduate152.deleteRequest()"
            },
            "keyword": "Then "
          }
        ],
        "tags": [
          {
            "name": "@Form"
          },
          {
            "name": "@152"
          },
          {
            "name": "@Graduate"
          },
          {
            "name": "@Grad"
          },
          {
            "name": "@152"
          },
          {
            "name": "@smoke"
          }
        ]
      },
      {
        "line": 31,
        "name": "Submit Certificate Management Form",
        "description": "",
        "id": "admission/graduate-school/certificate-in-advanced-management/;submit-certificate-management-form;;8",
        "type": "scenario",
        "keyword": "Scenario Outline",
        "steps": [
          {
            "result": {
              "error_message": "com.kms.katalon.core.webui.exception.BrowserNotOpenedException: Browser is not opened\nBuild info: version: \u00273.141.59\u0027, revision: \u0027e82be7d358\u0027, time: \u00272018-11-14T08:25:53\u0027\nSystem info: host: \u0027L18-0032\u0027, ip: \u002710.0.0.226\u0027, os.name: \u0027Windows 10\u0027, os.arch: \u0027amd64\u0027, os.version: \u002710.0\u0027, java.version: \u00271.8.0_181\u0027\nDriver info: driver.version: DriverFactory$getWebDriver\r\n\tat com.kms.katalon.core.webui.driver.DriverFactory.verifyWebDriverIsOpen(DriverFactory.java:985)\r\n\tat com.kms.katalon.core.webui.driver.DriverFactory.verifyWebDriver(DriverFactory.java:970)\r\n\tat com.kms.katalon.core.webui.driver.DriverFactory.getWebDriver(DriverFactory.java:956)\r\n\tat com.kms.katalon.core.webui.driver.DriverFactory$getWebDriver.call(Unknown Source)\r\n\tat forms.Graduate152.Homepage(Graduate152.groovy:50)\r\n\tat ✽.I am on the homepage(C:/Users/rkeough/git/babson-automation/Include/features/Forms/152Graduate/Graduate152.feature:7)\r\n",
              "duration": 2199353600,
              "status": "failed"
            },
            "line": 7,
            "name": "I am on the homepage",
            "match": {
              "location": "Graduate152.Homepage()"
            },
            "keyword": "Given "
          },
          {
            "result": {
              "status": "skipped"
            },
            "line": 8,
            "name": "I am on the form \"https://www.babson.edu/academics/graduate-school/ms-in-entrepreneurial-leadership/\" page",
            "match": {
              "arguments": [
                {
                  "val": "\"https://www.babson.edu/academics/graduate-school/ms-in-entrepreneurial-leadership/\"",
                  "offset": 17
                }
              ],
              "location": "Graduate152.FormPage(String)"
            },
            "keyword": "When "
          },
          {
            "result": {
              "status": "skipped"
            },
            "line": 9,
            "name": "I input the first and last name on the form",
            "match": {
              "location": "Graduate152.FirstLastName()"
            },
            "keyword": "And "
          },
          {
            "result": {
              "status": "skipped"
            },
            "line": 10,
            "name": "I input an email address",
            "match": {
              "location": "Graduate152.inputEmail()"
            },
            "keyword": "And "
          },
          {
            "result": {
              "status": "skipped"
            },
            "line": 11,
            "name": "I select a program \"tfa_1122\"",
            "match": {
              "arguments": [
                {
                  "val": "\"tfa_1122\"",
                  "offset": 19
                }
              ],
              "location": "Graduate152.SelectAProgramOfInterest(String)"
            },
            "keyword": "And "
          },
          {
            "result": {
              "status": "skipped"
            },
            "line": 12,
            "name": "I select a term \"tfa_1277\"",
            "match": {
              "arguments": [
                {
                  "val": "\"tfa_1277\"",
                  "offset": 16
                }
              ],
              "location": "Graduate152.SelectATermOfEnrollment(String)"
            },
            "keyword": "And "
          },
          {
            "result": {
              "status": "skipped"
            },
            "line": 13,
            "name": "I input a phone number",
            "match": {
              "location": "Graduate152.inputPhoneNumber()"
            },
            "keyword": "And "
          },
          {
            "result": {
              "status": "skipped"
            },
            "line": 14,
            "name": "I select a country",
            "match": {
              "location": "Graduate152.SelectACountry()"
            },
            "keyword": "And "
          },
          {
            "result": {
              "status": "skipped"
            },
            "line": 15,
            "name": "I input a state",
            "match": {
              "location": "Graduate152.inputState()"
            },
            "keyword": "And "
          },
          {
            "result": {
              "status": "skipped"
            },
            "line": 16,
            "name": "I input a city",
            "match": {
              "location": "Graduate152.inputCity()"
            },
            "keyword": "And "
          },
          {
            "result": {
              "status": "skipped"
            },
            "line": 17,
            "name": "I input the postal code",
            "match": {
              "location": "Graduate152.inputPostalZode()"
            },
            "keyword": "And "
          },
          {
            "result": {
              "status": "skipped"
            },
            "line": 18,
            "name": "I click the submit button",
            "match": {
              "location": "Graduate152.clickSubmit()"
            },
            "keyword": "And "
          },
          {
            "result": {
              "status": "skipped"
            },
            "line": 19,
            "name": "I am on the correct \"https://www.babson.edu/graduate/admissions/thank-you/\" page",
            "match": {
              "arguments": [
                {
                  "val": "\"https://www.babson.edu/graduate/admissions/thank-you/\"",
                  "offset": 20
                }
              ],
              "location": "Graduate152.thankYouPage(String)"
            },
            "keyword": "And "
          },
          {
            "result": {
              "status": "skipped"
            },
            "line": 20,
            "name": "I get the submit request",
            "match": {
              "location": "Graduate152.submitRequest()"
            },
            "keyword": "And "
          },
          {
            "result": {
              "status": "skipped"
            },
            "line": 21,
            "name": "I delete the form record",
            "match": {
              "location": "Graduate152.deleteRequest()"
            },
            "keyword": "Then "
          }
        ],
        "tags": [
          {
            "name": "@Form"
          },
          {
            "name": "@152"
          },
          {
            "name": "@Graduate"
          },
          {
            "name": "@Grad"
          },
          {
            "name": "@152"
          },
          {
            "name": "@smoke"
          }
        ]
      },
      {
        "line": 32,
        "name": "Submit Certificate Management Form",
        "description": "",
        "id": "admission/graduate-school/certificate-in-advanced-management/;submit-certificate-management-form;;9",
        "type": "scenario",
        "keyword": "Scenario Outline",
        "steps": [
          {
            "result": {
              "error_message": "com.kms.katalon.core.webui.exception.BrowserNotOpenedException: Browser is not opened\nBuild info: version: \u00273.141.59\u0027, revision: \u0027e82be7d358\u0027, time: \u00272018-11-14T08:25:53\u0027\nSystem info: host: \u0027L18-0032\u0027, ip: \u002710.0.0.226\u0027, os.name: \u0027Windows 10\u0027, os.arch: \u0027amd64\u0027, os.version: \u002710.0\u0027, java.version: \u00271.8.0_181\u0027\nDriver info: driver.version: DriverFactory$getWebDriver\r\n\tat com.kms.katalon.core.webui.driver.DriverFactory.verifyWebDriverIsOpen(DriverFactory.java:985)\r\n\tat com.kms.katalon.core.webui.driver.DriverFactory.verifyWebDriver(DriverFactory.java:970)\r\n\tat com.kms.katalon.core.webui.driver.DriverFactory.getWebDriver(DriverFactory.java:956)\r\n\tat com.kms.katalon.core.webui.driver.DriverFactory$getWebDriver.call(Unknown Source)\r\n\tat forms.Graduate152.Homepage(Graduate152.groovy:50)\r\n\tat ✽.I am on the homepage(C:/Users/rkeough/git/babson-automation/Include/features/Forms/152Graduate/Graduate152.feature:7)\r\n",
              "duration": 2145699400,
              "status": "failed"
            },
            "line": 7,
            "name": "I am on the homepage",
            "match": {
              "location": "Graduate152.Homepage()"
            },
            "keyword": "Given "
          },
          {
            "result": {
              "status": "skipped"
            },
            "line": 8,
            "name": "I am on the form \"https://www.babson.edu/academics/graduate-school/mba/part-time-mba/\" page",
            "match": {
              "arguments": [
                {
                  "val": "\"https://www.babson.edu/academics/graduate-school/mba/part-time-mba/\"",
                  "offset": 17
                }
              ],
              "location": "Graduate152.FormPage(String)"
            },
            "keyword": "When "
          },
          {
            "result": {
              "status": "skipped"
            },
            "line": 9,
            "name": "I input the first and last name on the form",
            "match": {
              "location": "Graduate152.FirstLastName()"
            },
            "keyword": "And "
          },
          {
            "result": {
              "status": "skipped"
            },
            "line": 10,
            "name": "I input an email address",
            "match": {
              "location": "Graduate152.inputEmail()"
            },
            "keyword": "And "
          },
          {
            "result": {
              "status": "skipped"
            },
            "line": 11,
            "name": "I select a program \"tfa_1063\"",
            "match": {
              "arguments": [
                {
                  "val": "\"tfa_1063\"",
                  "offset": 19
                }
              ],
              "location": "Graduate152.SelectAProgramOfInterest(String)"
            },
            "keyword": "And "
          },
          {
            "result": {
              "status": "skipped"
            },
            "line": 12,
            "name": "I select a term \"tfa_1281\"",
            "match": {
              "arguments": [
                {
                  "val": "\"tfa_1281\"",
                  "offset": 16
                }
              ],
              "location": "Graduate152.SelectATermOfEnrollment(String)"
            },
            "keyword": "And "
          },
          {
            "result": {
              "status": "skipped"
            },
            "line": 13,
            "name": "I input a phone number",
            "match": {
              "location": "Graduate152.inputPhoneNumber()"
            },
            "keyword": "And "
          },
          {
            "result": {
              "status": "skipped"
            },
            "line": 14,
            "name": "I select a country",
            "match": {
              "location": "Graduate152.SelectACountry()"
            },
            "keyword": "And "
          },
          {
            "result": {
              "status": "skipped"
            },
            "line": 15,
            "name": "I input a state",
            "match": {
              "location": "Graduate152.inputState()"
            },
            "keyword": "And "
          },
          {
            "result": {
              "status": "skipped"
            },
            "line": 16,
            "name": "I input a city",
            "match": {
              "location": "Graduate152.inputCity()"
            },
            "keyword": "And "
          },
          {
            "result": {
              "status": "skipped"
            },
            "line": 17,
            "name": "I input the postal code",
            "match": {
              "location": "Graduate152.inputPostalZode()"
            },
            "keyword": "And "
          },
          {
            "result": {
              "status": "skipped"
            },
            "line": 18,
            "name": "I click the submit button",
            "match": {
              "location": "Graduate152.clickSubmit()"
            },
            "keyword": "And "
          },
          {
            "result": {
              "status": "skipped"
            },
            "line": 19,
            "name": "I am on the correct \"https://www.babson.edu/graduate/admissions/thank-you/\" page",
            "match": {
              "arguments": [
                {
                  "val": "\"https://www.babson.edu/graduate/admissions/thank-you/\"",
                  "offset": 20
                }
              ],
              "location": "Graduate152.thankYouPage(String)"
            },
            "keyword": "And "
          },
          {
            "result": {
              "status": "skipped"
            },
            "line": 20,
            "name": "I get the submit request",
            "match": {
              "location": "Graduate152.submitRequest()"
            },
            "keyword": "And "
          },
          {
            "result": {
              "status": "skipped"
            },
            "line": 21,
            "name": "I delete the form record",
            "match": {
              "location": "Graduate152.deleteRequest()"
            },
            "keyword": "Then "
          }
        ],
        "tags": [
          {
            "name": "@Form"
          },
          {
            "name": "@152"
          },
          {
            "name": "@Graduate"
          },
          {
            "name": "@Grad"
          },
          {
            "name": "@152"
          },
          {
            "name": "@smoke"
          }
        ]
      },
      {
        "line": 33,
        "name": "Submit Certificate Management Form",
        "description": "",
        "id": "admission/graduate-school/certificate-in-advanced-management/;submit-certificate-management-form;;10",
        "type": "scenario",
        "keyword": "Scenario Outline",
        "steps": [
          {
            "result": {
              "error_message": "com.kms.katalon.core.webui.exception.BrowserNotOpenedException: Browser is not opened\nBuild info: version: \u00273.141.59\u0027, revision: \u0027e82be7d358\u0027, time: \u00272018-11-14T08:25:53\u0027\nSystem info: host: \u0027L18-0032\u0027, ip: \u002710.0.0.226\u0027, os.name: \u0027Windows 10\u0027, os.arch: \u0027amd64\u0027, os.version: \u002710.0\u0027, java.version: \u00271.8.0_181\u0027\nDriver info: driver.version: DriverFactory$getWebDriver\r\n\tat com.kms.katalon.core.webui.driver.DriverFactory.verifyWebDriverIsOpen(DriverFactory.java:985)\r\n\tat com.kms.katalon.core.webui.driver.DriverFactory.verifyWebDriver(DriverFactory.java:970)\r\n\tat com.kms.katalon.core.webui.driver.DriverFactory.getWebDriver(DriverFactory.java:956)\r\n\tat com.kms.katalon.core.webui.driver.DriverFactory$getWebDriver.call(Unknown Source)\r\n\tat forms.Graduate152.Homepage(Graduate152.groovy:50)\r\n\tat ✽.I am on the homepage(C:/Users/rkeough/git/babson-automation/Include/features/Forms/152Graduate/Graduate152.feature:7)\r\n",
              "duration": 2312435800,
              "status": "failed"
            },
            "line": 7,
            "name": "I am on the homepage",
            "match": {
              "location": "Graduate152.Homepage()"
            },
            "keyword": "Given "
          },
          {
            "result": {
              "status": "skipped"
            },
            "line": 8,
            "name": "I am on the form \"https://www.babson.edu/admission/graduate-school/request-information/\" page",
            "match": {
              "arguments": [
                {
                  "val": "\"https://www.babson.edu/admission/graduate-school/request-information/\"",
                  "offset": 17
                }
              ],
              "location": "Graduate152.FormPage(String)"
            },
            "keyword": "When "
          },
          {
            "result": {
              "status": "skipped"
            },
            "line": 9,
            "name": "I input the first and last name on the form",
            "match": {
              "location": "Graduate152.FirstLastName()"
            },
            "keyword": "And "
          },
          {
            "result": {
              "status": "skipped"
            },
            "line": 10,
            "name": "I input an email address",
            "match": {
              "location": "Graduate152.inputEmail()"
            },
            "keyword": "And "
          },
          {
            "result": {
              "status": "skipped"
            },
            "line": 11,
            "name": "I select a program \"tfa_1075\"",
            "match": {
              "arguments": [
                {
                  "val": "\"tfa_1075\"",
                  "offset": 19
                }
              ],
              "location": "Graduate152.SelectAProgramOfInterest(String)"
            },
            "keyword": "And "
          },
          {
            "result": {
              "status": "skipped"
            },
            "line": 12,
            "name": "I select a term \"tfa_1251\"",
            "match": {
              "arguments": [
                {
                  "val": "\"tfa_1251\"",
                  "offset": 16
                }
              ],
              "location": "Graduate152.SelectATermOfEnrollment(String)"
            },
            "keyword": "And "
          },
          {
            "result": {
              "status": "skipped"
            },
            "line": 13,
            "name": "I input a phone number",
            "match": {
              "location": "Graduate152.inputPhoneNumber()"
            },
            "keyword": "And "
          },
          {
            "result": {
              "status": "skipped"
            },
            "line": 14,
            "name": "I select a country",
            "match": {
              "location": "Graduate152.SelectACountry()"
            },
            "keyword": "And "
          },
          {
            "result": {
              "status": "skipped"
            },
            "line": 15,
            "name": "I input a state",
            "match": {
              "location": "Graduate152.inputState()"
            },
            "keyword": "And "
          },
          {
            "result": {
              "status": "skipped"
            },
            "line": 16,
            "name": "I input a city",
            "match": {
              "location": "Graduate152.inputCity()"
            },
            "keyword": "And "
          },
          {
            "result": {
              "status": "skipped"
            },
            "line": 17,
            "name": "I input the postal code",
            "match": {
              "location": "Graduate152.inputPostalZode()"
            },
            "keyword": "And "
          },
          {
            "result": {
              "status": "skipped"
            },
            "line": 18,
            "name": "I click the submit button",
            "match": {
              "location": "Graduate152.clickSubmit()"
            },
            "keyword": "And "
          },
          {
            "result": {
              "status": "skipped"
            },
            "line": 19,
            "name": "I am on the correct \"https://www.babson.edu/graduate/admissions/thank-you/\" page",
            "match": {
              "arguments": [
                {
                  "val": "\"https://www.babson.edu/graduate/admissions/thank-you/\"",
                  "offset": 20
                }
              ],
              "location": "Graduate152.thankYouPage(String)"
            },
            "keyword": "And "
          },
          {
            "result": {
              "status": "skipped"
            },
            "line": 20,
            "name": "I get the submit request",
            "match": {
              "location": "Graduate152.submitRequest()"
            },
            "keyword": "And "
          },
          {
            "result": {
              "status": "skipped"
            },
            "line": 21,
            "name": "I delete the form record",
            "match": {
              "location": "Graduate152.deleteRequest()"
            },
            "keyword": "Then "
          }
        ],
        "tags": [
          {
            "name": "@Form"
          },
          {
            "name": "@152"
          },
          {
            "name": "@Graduate"
          },
          {
            "name": "@Grad"
          },
          {
            "name": "@152"
          },
          {
            "name": "@smoke"
          }
        ]
      },
      {
        "line": 34,
        "name": "Submit Certificate Management Form",
        "description": "",
        "id": "admission/graduate-school/certificate-in-advanced-management/;submit-certificate-management-form;;11",
        "type": "scenario",
        "keyword": "Scenario Outline",
        "steps": [
          {
            "result": {
              "error_message": "com.kms.katalon.core.webui.exception.BrowserNotOpenedException: Browser is not opened\nBuild info: version: \u00273.141.59\u0027, revision: \u0027e82be7d358\u0027, time: \u00272018-11-14T08:25:53\u0027\nSystem info: host: \u0027L18-0032\u0027, ip: \u002710.0.0.226\u0027, os.name: \u0027Windows 10\u0027, os.arch: \u0027amd64\u0027, os.version: \u002710.0\u0027, java.version: \u00271.8.0_181\u0027\nDriver info: driver.version: DriverFactory$getWebDriver\r\n\tat com.kms.katalon.core.webui.driver.DriverFactory.verifyWebDriverIsOpen(DriverFactory.java:985)\r\n\tat com.kms.katalon.core.webui.driver.DriverFactory.verifyWebDriver(DriverFactory.java:970)\r\n\tat com.kms.katalon.core.webui.driver.DriverFactory.getWebDriver(DriverFactory.java:956)\r\n\tat com.kms.katalon.core.webui.driver.DriverFactory$getWebDriver.call(Unknown Source)\r\n\tat forms.Graduate152.Homepage(Graduate152.groovy:50)\r\n\tat ✽.I am on the homepage(C:/Users/rkeough/git/babson-automation/Include/features/Forms/152Graduate/Graduate152.feature:7)\r\n",
              "duration": 2217517400,
              "status": "failed"
            },
            "line": 7,
            "name": "I am on the homepage",
            "match": {
              "location": "Graduate152.Homepage()"
            },
            "keyword": "Given "
          },
          {
            "result": {
              "status": "skipped"
            },
            "line": 8,
            "name": "I am on the form \"https://www.babson.edu/graduate/academics/part-time-business-programs/certificate-in-advanced-management/\" page",
            "match": {
              "arguments": [
                {
                  "val": "\"https://www.babson.edu/graduate/academics/part-time-business-programs/certificate-in-advanced-management/\"",
                  "offset": 17
                }
              ],
              "location": "Graduate152.FormPage(String)"
            },
            "keyword": "When "
          },
          {
            "result": {
              "status": "skipped"
            },
            "line": 9,
            "name": "I input the first and last name on the form",
            "match": {
              "location": "Graduate152.FirstLastName()"
            },
            "keyword": "And "
          },
          {
            "result": {
              "status": "skipped"
            },
            "line": 10,
            "name": "I input an email address",
            "match": {
              "location": "Graduate152.inputEmail()"
            },
            "keyword": "And "
          },
          {
            "result": {
              "status": "skipped"
            },
            "line": 11,
            "name": "I select a program \"tfa_1156\"",
            "match": {
              "arguments": [
                {
                  "val": "\"tfa_1156\"",
                  "offset": 19
                }
              ],
              "location": "Graduate152.SelectAProgramOfInterest(String)"
            },
            "keyword": "And "
          },
          {
            "result": {
              "status": "skipped"
            },
            "line": 12,
            "name": "I select a term \"tfa_1246\"",
            "match": {
              "arguments": [
                {
                  "val": "\"tfa_1246\"",
                  "offset": 16
                }
              ],
              "location": "Graduate152.SelectATermOfEnrollment(String)"
            },
            "keyword": "And "
          },
          {
            "result": {
              "status": "skipped"
            },
            "line": 13,
            "name": "I input a phone number",
            "match": {
              "location": "Graduate152.inputPhoneNumber()"
            },
            "keyword": "And "
          },
          {
            "result": {
              "status": "skipped"
            },
            "line": 14,
            "name": "I select a country",
            "match": {
              "location": "Graduate152.SelectACountry()"
            },
            "keyword": "And "
          },
          {
            "result": {
              "status": "skipped"
            },
            "line": 15,
            "name": "I input a state",
            "match": {
              "location": "Graduate152.inputState()"
            },
            "keyword": "And "
          },
          {
            "result": {
              "status": "skipped"
            },
            "line": 16,
            "name": "I input a city",
            "match": {
              "location": "Graduate152.inputCity()"
            },
            "keyword": "And "
          },
          {
            "result": {
              "status": "skipped"
            },
            "line": 17,
            "name": "I input the postal code",
            "match": {
              "location": "Graduate152.inputPostalZode()"
            },
            "keyword": "And "
          },
          {
            "result": {
              "status": "skipped"
            },
            "line": 18,
            "name": "I click the submit button",
            "match": {
              "location": "Graduate152.clickSubmit()"
            },
            "keyword": "And "
          },
          {
            "result": {
              "status": "skipped"
            },
            "line": 19,
            "name": "I am on the correct \"https://www.babson.edu/graduate/admissions/thank-you/\" page",
            "match": {
              "arguments": [
                {
                  "val": "\"https://www.babson.edu/graduate/admissions/thank-you/\"",
                  "offset": 20
                }
              ],
              "location": "Graduate152.thankYouPage(String)"
            },
            "keyword": "And "
          },
          {
            "result": {
              "status": "skipped"
            },
            "line": 20,
            "name": "I get the submit request",
            "match": {
              "location": "Graduate152.submitRequest()"
            },
            "keyword": "And "
          },
          {
            "result": {
              "status": "skipped"
            },
            "line": 21,
            "name": "I delete the form record",
            "match": {
              "location": "Graduate152.deleteRequest()"
            },
            "keyword": "Then "
          }
        ],
        "tags": [
          {
            "name": "@Form"
          },
          {
            "name": "@152"
          },
          {
            "name": "@Graduate"
          },
          {
            "name": "@Grad"
          },
          {
            "name": "@152"
          },
          {
            "name": "@smoke"
          }
        ]
      }
    ],
    "name": "admission/graduate-school/certificate-in-advanced-management/",
    "description": "  I want to submit and verify form submits with the correct data",
    "id": "admission/graduate-school/certificate-in-advanced-management/",
    "keyword": "Feature",
    "uri": "C:/Users/rkeough/git/babson-automation/Include/features/Forms/152Graduate/Graduate152.feature",
    "tags": [
      {
        "name": "@Form",
        "type": "Tag",
        "location": {
          "line": 1,
          "column": 1
        }
      },
      {
        "name": "@152",
        "type": "Tag",
        "location": {
          "line": 1,
          "column": 7
        }
      },
      {
        "name": "@Graduate",
        "type": "Tag",
        "location": {
          "line": 1,
          "column": 12
        }
      }
    ]
  }
]