Suite/Test/Step Name,Browser,Description,Tag,Start time,End time,Duration,Status
453,Chrome 123.0.0.0,,,2024-04-05 13:23:30,2024-04-05 13:25:03,1m - 32.402s,PASSED
,,,,,,,
Test Cases/Forms/453,Chrome 123.0.0.0,,,2024-04-05 13:23:31,2024-04-05 13:25:03,1m - 32.133s,PASSED
"openBrowser(""https://www.babson.edu"")",Chrome 123.0.0.0,,,2024-04-05 13:23:31,2024-04-05 13:23:38,7.041s,PASSED
"setViewPortSize(1536, 960)",Chrome 123.0.0.0,,,2024-04-05 13:23:38,2024-04-05 13:23:38,0.169s,PASSED
"click(findTestObject(""policy/privacyPolicy""))",Chrome 123.0.0.0,,,2024-04-05 13:23:38,2024-04-05 13:23:39,0.601s,PASSED
navigateToUrl(form),Chrome 123.0.0.0,,,2024-04-05 13:23:39,2024-04-05 13:23:41,2.228s,PASSED
"setText(findTestObject(""FormFields/inputFirstName""), ""Test"")",Chrome 123.0.0.0,,,2024-04-05 13:23:41,2024-04-05 13:23:42,1.004s,PASSED
"setText(findTestObject(""FormFields/inputLastName""), ""erxtest"")",Chrome 123.0.0.0,,,2024-04-05 13:23:42,2024-04-05 13:23:43,0.885s,PASSED
"setText(findTestObject(""FormFields/inputEmail""), ""erxtest@babson-test.com"")",Chrome 123.0.0.0,,,2024-04-05 13:23:43,2024-04-05 13:23:44,0.811s,PASSED
"selectOptionByValue(findTestObject(""FormFields/selectPOI""), program, false)",Chrome 123.0.0.0,,,2024-04-05 13:23:44,2024-04-05 13:23:45,0.854s,PASSED
"selectOptionByValue(findTestObject(""FormFields/selectTOE""), term, false)",Chrome 123.0.0.0,,,2024-04-05 13:23:45,2024-04-05 13:23:45,0.810s,PASSED
"setText(findTestObject(""FormFields/inputPhoneNumber""), ""1011010111"")",Chrome 123.0.0.0,,,2024-04-05 13:23:45,2024-04-05 13:24:49,1m - 3.521s,PASSED
"selectOptionByLabel(findTestObject(""FormFields/selectCountry""), ""Barbados"", false)",Chrome 123.0.0.0,,,2024-04-05 13:24:49,2024-04-05 13:24:50,0.716s,PASSED
"setText(findTestObject(""FormFields/inputState""), ""TestState"")",Chrome 123.0.0.0,,,2024-04-05 13:24:50,2024-04-05 13:24:51,0.842s,PASSED
"setText(findTestObject(""FormFields/inputCity""), ""TestCity"")",Chrome 123.0.0.0,,,2024-04-05 13:24:51,2024-04-05 13:24:51,0.752s,PASSED
"setText(findTestObject(""FormFields/PostalCode""), ""11111"")",Chrome 123.0.0.0,,,2024-04-05 13:24:51,2024-04-05 13:24:52,0.853s,PASSED
"click(findTestObject(""FormFields/clickSubmit""))",Chrome 123.0.0.0,,,2024-04-05 13:24:52,2024-04-05 13:24:58,6.336s,PASSED
delay(3),Chrome 123.0.0.0,,,2024-04-05 13:24:58,2024-04-05 13:25:02,3.039s,PASSED
tyurl = getUrl(),Chrome 123.0.0.0,,,2024-04-05 13:25:02,2024-04-05 13:25:02,0.030s,PASSED
"verifyEqual(tyurl, thankYou)",Chrome 123.0.0.0,,,2024-04-05 13:25:02,2024-04-05 13:25:02,0.012s,PASSED
Start tear down : tearDownTestCase,Chrome 123.0.0.0,,,2024-04-05 13:25:02,2024-04-05 13:25:02,0.494s,PASSED
Start listener action : sampleAfterTestCase,Chrome 123.0.0.0,,,2024-04-05 13:25:02,2024-04-05 13:25:03,0.741s,PASSED
Start listener action : sampleAfterTestCase,Chrome 123.0.0.0,,,2024-04-05 13:25:03,2024-04-05 13:25:03,0.008s,PASSED
