[
  {
    "line": 2,
    "elements": [
      {
        "BDD_TESTRUN_UUID": "2549a897-72ee-4937-95bc-3f3570093069",
        "line": 6,
        "name": "Submit Certificate Management Form",
        "description": "",
        "id": "admission/graduate-school/;submit-certificate-management-form",
        "type": "scenario",
        "keyword": "Scenario",
        "steps": [
          {
            "result": {
              "duration": 5272766900,
              "status": "passed"
            },
            "line": 7,
            "name": "I am on the homepage",
            "match": {
              "location": "Graduate152.Homepage()"
            },
            "keyword": "Given ",
            "BDD_STEP_UUID": "965aef39-f31e-4fc3-85ab-2a52df3550ac"
          },
          {
            "result": {
              "error_message": "groovy.lang.MissingPropertyException: No such property: form for class: forms.Graduate152\r\n\tat org.codehaus.groovy.runtime.ScriptBytecodeAdapter.unwrap(ScriptBytecodeAdapter.java:66)\r\n\tat org.codehaus.groovy.runtime.callsite.GetEffectivePogoPropertySite.callGroovyObjectGetProperty(GetEffectivePogoPropertySite.java:70)\r\n\tat forms.Graduate152.FormPage(Graduate152.groovy:57)\r\n\tat ✽.I am on the form form page(C:/Users/rkeough/git/babson-automation/Include/features/Forms/Form453/Graduate152.feature:8)\r\n",
              "duration": 866000,
              "status": "failed"
            },
            "line": 8,
            "name": "I am on the form form page",
            "match": {
              "location": "Graduate152.FormPage()"
            },
            "keyword": "When ",
            "BDD_STEP_UUID": "59e7363e-a8c7-4a4f-a643-7b9d359daac2"
          },
          {
            "result": {
              "status": "skipped"
            },
            "line": 9,
            "name": "I input the first and last name on the form",
            "match": {
              "location": "Graduate152.FirstLastName()"
            },
            "keyword": "And ",
            "BDD_STEP_UUID": "7fde8d68-3036-4e1c-be49-3275542b0b3c"
          },
          {
            "result": {
              "status": "skipped"
            },
            "line": 10,
            "name": "I input an email address",
            "match": {
              "location": "Graduate152.inputEmail()"
            },
            "keyword": "And ",
            "BDD_STEP_UUID": "74940882-610a-4e6a-8c00-b8d5e43ff67c"
          },
          {
            "result": {
              "status": "skipped"
            },
            "line": 11,
            "name": "I select a program",
            "match": {
              "location": "Graduate152.SelectAProgramOfInterest()"
            },
            "keyword": "And ",
            "BDD_STEP_UUID": "5f508ecf-c392-4408-b10b-476c55e65f6b"
          },
          {
            "result": {
              "status": "skipped"
            },
            "line": 12,
            "name": "I select a term",
            "match": {
              "location": "Graduate152.SelectATermOfEnrollment()"
            },
            "keyword": "And ",
            "BDD_STEP_UUID": "fe5dba0b-39f8-43f9-82b9-9090a580613c"
          },
          {
            "result": {
              "status": "skipped"
            },
            "line": 13,
            "name": "I input a phone number",
            "match": {
              "location": "Graduate152.inputPhoneNumber()"
            },
            "keyword": "And ",
            "BDD_STEP_UUID": "9c55717f-d3f8-450b-b1a2-da0ec3d33940"
          },
          {
            "result": {
              "status": "skipped"
            },
            "line": 14,
            "name": "I select a country",
            "match": {
              "location": "Graduate152.SelectACountry()"
            },
            "keyword": "And ",
            "BDD_STEP_UUID": "91efed31-f0eb-49ba-8f65-5ca1e2870f79"
          },
          {
            "result": {
              "status": "skipped"
            },
            "line": 15,
            "name": "I input a state",
            "match": {
              "location": "Graduate152.inputState()"
            },
            "keyword": "And ",
            "BDD_STEP_UUID": "d76edf89-5c78-4b4d-95f3-ab8de35c5146"
          },
          {
            "result": {
              "status": "skipped"
            },
            "line": 16,
            "name": "I input a city",
            "match": {
              "location": "Graduate152.inputCity()"
            },
            "keyword": "And ",
            "BDD_STEP_UUID": "bd41cce1-15bb-41b1-a2df-fb4906083303"
          },
          {
            "result": {
              "status": "skipped"
            },
            "line": 17,
            "name": "I input the postal code",
            "match": {
              "location": "Graduate152.inputPostalZode()"
            },
            "keyword": "And ",
            "BDD_STEP_UUID": "aa568d16-4f26-4751-95cd-09bf74a0c561"
          },
          {
            "result": {
              "status": "skipped"
            },
            "line": 18,
            "name": "I click the submit button",
            "match": {
              "location": "Graduate152.clickSubmit()"
            },
            "keyword": "And ",
            "BDD_STEP_UUID": "3b89fe9b-a38c-4628-bc94-bd41105339c1"
          },
          {
            "result": {
              "status": "skipped"
            },
            "line": 19,
            "name": "I am on the correct thankyou page",
            "match": {
              "location": "Graduate152.thankYouPage()"
            },
            "keyword": "And ",
            "BDD_STEP_UUID": "5374bd6b-5e18-4dc0-8693-3a4df057b037"
          }
        ],
        "tags": [
          {
            "name": "@Form"
          },
          {
            "name": "@152"
          },
          {
            "name": "@Graduate"
          },
          {
            "name": "@Grad"
          },
          {
            "name": "@152"
          },
          {
            "name": "@smoke"
          }
        ]
      }
    ],
    "name": "admission/graduate-school/",
    "description": "  I want to submit and verify form submits with the correct data",
    "id": "admission/graduate-school/",
    "keyword": "Feature",
    "uri": "C:/Users/rkeough/git/babson-automation/Include/features/Forms/Form453/Graduate152.feature",
    "tags": [
      {
        "name": "@Form",
        "type": "Tag",
        "location": {
          "line": 1,
          "column": 1
        }
      },
      {
        "name": "@152",
        "type": "Tag",
        "location": {
          "line": 1,
          "column": 7
        }
      },
      {
        "name": "@Graduate",
        "type": "Tag",
        "location": {
          "line": 1,
          "column": 12
        }
      }
    ]
  }
]