[
  {
    "line": 2,
    "elements": [
      {
        "line": 25,
        "name": "Submit Grad form",
        "description": "",
        "id": "academics/graduate-school;submit-grad-form;;2",
        "type": "scenario",
        "keyword": "Scenario Outline",
        "steps": [
          {
            "result": {
              "duration": 6097296800,
              "status": "passed"
            },
            "line": 7,
            "name": "I am on the homepage",
            "match": {
              "location": "Grad152.Homepage()"
            },
            "keyword": "Given "
          },
          {
            "result": {
              "duration": 2800625800,
              "status": "passed"
            },
            "line": 8,
            "name": "I am on grad \"https://www.babson.edu/academics/graduate-school/certificate-in-advanced-management/\" page",
            "match": {
              "arguments": [
                {
                  "val": "\"https://www.babson.edu/academics/graduate-school/certificate-in-advanced-management/\"",
                  "offset": 13
                }
              ],
              "location": "Grad152.GradPage(String)"
            },
            "keyword": "When "
          },
          {
            "result": {
              "duration": 2491005500,
              "status": "passed"
            },
            "line": 9,
            "name": "I input the first and last name on the form",
            "match": {
              "location": "Grad152.FirstLastName()"
            },
            "keyword": "And "
          },
          {
            "result": {
              "duration": 1621434900,
              "status": "passed"
            },
            "line": 10,
            "name": "I input an email address",
            "match": {
              "location": "Grad152.inputEmail()"
            },
            "keyword": "And "
          },
          {
            "result": {
              "duration": 1030940000,
              "status": "passed"
            },
            "line": 11,
            "name": "I select a program \"tfa_1075\"",
            "match": {
              "arguments": [
                {
                  "val": "\"tfa_1075\"",
                  "offset": 19
                }
              ],
              "location": "Grad152.SelectAProgramOfInterest(String)"
            },
            "keyword": "And "
          },
          {
            "result": {
              "duration": 1225300200,
              "status": "passed"
            },
            "line": 12,
            "name": "I select a term \"tfa_1155\"",
            "match": {
              "arguments": [
                {
                  "val": "\"tfa_1155\"",
                  "offset": 16
                }
              ],
              "location": "Grad152.SelectATermOfEnrollment(String)"
            },
            "keyword": "And "
          },
          {
            "result": {
              "duration": 747721600,
              "status": "passed"
            },
            "line": 13,
            "name": "I input a phone number",
            "match": {
              "location": "Grad152.inputPhoneNumber()"
            },
            "keyword": "And "
          },
          {
            "result": {
              "duration": 709534600,
              "status": "passed"
            },
            "line": 14,
            "name": "I select a country",
            "match": {
              "location": "Grad152.SelectACountry()"
            },
            "keyword": "And "
          },
          {
            "result": {
              "duration": 707464800,
              "status": "passed"
            },
            "line": 15,
            "name": "I input a state",
            "match": {
              "location": "Grad152.inputState()"
            },
            "keyword": "And "
          },
          {
            "result": {
              "duration": 1134808500,
              "status": "passed"
            },
            "line": 16,
            "name": "I input a city",
            "match": {
              "location": "Grad152.inputCity()"
            },
            "keyword": "And "
          },
          {
            "result": {
              "duration": 994858600,
              "status": "passed"
            },
            "line": 17,
            "name": "I input the postal code",
            "match": {
              "location": "Grad152.inputPostalZode()"
            },
            "keyword": "And "
          },
          {
            "result": {
              "duration": 8319025800,
              "status": "passed"
            },
            "line": 18,
            "name": "I click the submit button",
            "match": {
              "location": "Grad152.clickSubmit()"
            },
            "keyword": "And "
          },
          {
            "result": {
              "duration": 1042176800,
              "status": "passed"
            },
            "line": 19,
            "name": "I am on the correct \"https://www.babson.edu/academics/graduate-school/certificate-in-advanced-management/thank-you/\" page",
            "match": {
              "arguments": [
                {
                  "val": "\"https://www.babson.edu/academics/graduate-school/certificate-in-advanced-management/thank-you/\"",
                  "offset": 20
                }
              ],
              "location": "Grad152.thankYouPage(String)"
            },
            "keyword": "And "
          },
          {
            "result": {
              "duration": 3982363800,
              "status": "passed"
            },
            "line": 20,
            "name": "I get the submit request",
            "match": {
              "location": "Grad152.submitRequest()"
            },
            "keyword": "And "
          },
          {
            "result": {
              "duration": 9253410500,
              "status": "passed"
            },
            "line": 21,
            "name": "I delete the form record",
            "match": {
              "location": "Grad152.deleteRequest()"
            },
            "keyword": "Then "
          }
        ],
        "tags": [
          {
            "name": "@Form"
          },
          {
            "name": "@152"
          },
          {
            "name": "@Graduate"
          },
          {
            "name": "@Grad"
          },
          {
            "name": "@152"
          }
        ]
      },
      {
        "line": 26,
        "name": "Submit Grad form",
        "description": "",
        "id": "academics/graduate-school;submit-grad-form;;3",
        "type": "scenario",
        "keyword": "Scenario Outline",
        "steps": [
          {
            "result": {
              "duration": 5450203000,
              "status": "passed"
            },
            "line": 7,
            "name": "I am on the homepage",
            "match": {
              "location": "Grad152.Homepage()"
            },
            "keyword": "Given "
          },
          {
            "result": {
              "duration": 2202221800,
              "status": "passed"
            },
            "line": 8,
            "name": "I am on grad \"https://www.babson.edu/academics/graduate-school/certificate-in-advanced-management/\" page",
            "match": {
              "arguments": [
                {
                  "val": "\"https://www.babson.edu/academics/graduate-school/certificate-in-advanced-management/\"",
                  "offset": 13
                }
              ],
              "location": "Grad152.GradPage(String)"
            },
            "keyword": "When "
          },
          {
            "result": {
              "duration": 2719573500,
              "status": "passed"
            },
            "line": 9,
            "name": "I input the first and last name on the form",
            "match": {
              "location": "Grad152.FirstLastName()"
            },
            "keyword": "And "
          },
          {
            "result": {
              "duration": 1584379900,
              "status": "passed"
            },
            "line": 10,
            "name": "I input an email address",
            "match": {
              "location": "Grad152.inputEmail()"
            },
            "keyword": "And "
          },
          {
            "result": {
              "duration": 981304300,
              "status": "passed"
            },
            "line": 11,
            "name": "I select a program \"tfa_1156\"",
            "match": {
              "arguments": [
                {
                  "val": "\"tfa_1156\"",
                  "offset": 19
                }
              ],
              "location": "Grad152.SelectAProgramOfInterest(String)"
            },
            "keyword": "And "
          },
          {
            "result": {
              "duration": 1335039400,
              "status": "passed"
            },
            "line": 12,
            "name": "I select a term \"tfa_1195\"",
            "match": {
              "arguments": [
                {
                  "val": "\"tfa_1195\"",
                  "offset": 16
                }
              ],
              "location": "Grad152.SelectATermOfEnrollment(String)"
            },
            "keyword": "And "
          },
          {
            "result": {
              "duration": 692389700,
              "status": "passed"
            },
            "line": 13,
            "name": "I input a phone number",
            "match": {
              "location": "Grad152.inputPhoneNumber()"
            },
            "keyword": "And "
          },
          {
            "result": {
              "duration": 691078900,
              "status": "passed"
            },
            "line": 14,
            "name": "I select a country",
            "match": {
              "location": "Grad152.SelectACountry()"
            },
            "keyword": "And "
          },
          {
            "result": {
              "duration": 744769900,
              "status": "passed"
            },
            "line": 15,
            "name": "I input a state",
            "match": {
              "location": "Grad152.inputState()"
            },
            "keyword": "And "
          },
          {
            "result": {
              "duration": 924691300,
              "status": "passed"
            },
            "line": 16,
            "name": "I input a city",
            "match": {
              "location": "Grad152.inputCity()"
            },
            "keyword": "And "
          },
          {
            "result": {
              "duration": 1034340500,
              "status": "passed"
            },
            "line": 17,
            "name": "I input the postal code",
            "match": {
              "location": "Grad152.inputPostalZode()"
            },
            "keyword": "And "
          },
          {
            "result": {
              "duration": 12274670400,
              "status": "passed"
            },
            "line": 18,
            "name": "I click the submit button",
            "match": {
              "location": "Grad152.clickSubmit()"
            },
            "keyword": "And "
          },
          {
            "result": {
              "error_message": "com.kms.katalon.core.exception.StepFailedException: Unable to verify equal between actual object \u0027https://www.babson.edu/academics/graduate-school/undecided/thank-you/\u0027 and expected object \u0027https://www.babson.edu/academics/graduate-school/certificate-in-advanced-management/thank-you/\u0027 (Root cause: com.kms.katalon.core.exception.StepFailedException: Actual object \u0027https://www.babson.edu/academics/graduate-school/undecided/thank-you/\u0027 and expected object \u0027https://www.babson.edu/academics/graduate-school/certificate-in-advanced-management/thank-you/\u0027 are not equal\r\n\tat com.kms.katalon.core.keyword.builtin.VerifyEqualKeyword$_verifyEqual_closure1.doCall(VerifyEqualKeyword.groovy:58)\r\n\tat com.kms.katalon.core.keyword.builtin.VerifyEqualKeyword$_verifyEqual_closure1.call(VerifyEqualKeyword.groovy)\r\n\tat com.kms.katalon.core.keyword.internal.KeywordMain.runKeyword(KeywordMain.groovy:74)\r\n\tat com.kms.katalon.core.keyword.builtin.VerifyEqualKeyword.verifyEqual(VerifyEqualKeyword.groovy:63)\r\n\tat com.kms.katalon.core.keyword.builtin.VerifyEqualKeyword.execute(VerifyEqualKeyword.groovy:44)\r\n\tat com.kms.katalon.core.keyword.internal.KeywordExecutor.executeKeywordForPlatform(KeywordExecutor.groovy:74)\r\n\tat com.kms.katalon.core.keyword.BuiltinKeywords.verifyEqual(BuiltinKeywords.groovy:141)\r\n\tat forms.Grad152.thankYouPage(Grad152.groovy:115)\r\n\tat cucumber.runtime.Utils$1.call(Utils.java:26)\r\n\tat cucumber.runtime.Timeout.timeout(Timeout.java:16)\r\n\tat cucumber.runtime.Utils.invoke(Utils.java:20)\r\n\tat cucumber.runtime.java.JavaStepDefinition.execute(JavaStepDefinition.java:48)\r\n\tat cucumber.runtime.PickleStepDefinitionMatch.runStep(PickleStepDefinitionMatch.java:50)\r\n\tat cucumber.runner.TestStep.executeStep(TestStep.java:68)\r\n\tat cucumber.runner.TestStep.run(TestStep.java:50)\r\n\tat cucumber.runner.PickleStepTestStep.run(PickleStepTestStep.java:53)\r\n\tat cucumber.runner.TestCase.run(TestCase.java:47)\r\n\tat cucumber.runner.Runner.runPickle(Runner.java:44)\r\n\tat cucumber.runtime.Runtime.runFeature(Runtime.java:120)\r\n\tat cucumber.runtime.Runtime.run(Runtime.java:106)\r\n\tat cucumber.api.cli.Main.run(Main.java:35)\r\n\tat cucumber.api.cli.Main$run.call(Unknown Source)\r\n\tat com.kms.katalon.core.cucumber.keyword.CucumberBuiltinKeywords$_runFeatureFile_closure1.doCall(CucumberBuiltinKeywords.groovy:108)\r\n\tat com.kms.katalon.core.cucumber.keyword.CucumberBuiltinKeywords$_runFeatureFile_closure1.doCall(CucumberBuiltinKeywords.groovy)\r\n\tat com.kms.katalon.core.keyword.internal.KeywordMain.runKeyword(KeywordMain.groovy:74)\r\n\tat com.kms.katalon.core.keyword.internal.KeywordMain.runKeyword(KeywordMain.groovy:68)\r\n\tat com.kms.katalon.core.keyword.internal.KeywordMain$runKeyword.call(Unknown Source)\r\n\tat com.kms.katalon.core.cucumber.keyword.CucumberBuiltinKeywords.runFeatureFile(CucumberBuiltinKeywords.groovy:75)\r\n\tat com.kms.katalon.core.cucumber.keyword.CucumberBuiltinKeywords$runFeatureFile$0.callStatic(Unknown Source)\r\n\tat com.kms.katalon.core.cucumber.keyword.CucumberBuiltinKeywords.runFeatureFile(CucumberBuiltinKeywords.groovy:248)\r\n\tat com.kms.katalon.core.cucumber.keyword.CucumberBuiltinKeywords$runFeatureFile.call(Unknown Source)\r\n\tat Demo.run(Demo:22)\r\n\tat com.kms.katalon.core.main.ScriptEngine.run(ScriptEngine.java:194)\r\n\tat com.kms.katalon.core.main.ScriptEngine.runScriptAsRawText(ScriptEngine.java:119)\r\n\tat com.kms.katalon.core.main.TestCaseExecutor.runScript(TestCaseExecutor.java:445)\r\n\tat com.kms.katalon.core.main.TestCaseExecutor.doExecute(TestCaseExecutor.java:436)\r\n\tat com.kms.katalon.core.main.TestCaseExecutor.processExecutionPhase(TestCaseExecutor.java:415)\r\n\tat com.kms.katalon.core.main.TestCaseExecutor.accessMainPhase(TestCaseExecutor.java:407)\r\n\tat com.kms.katalon.core.main.TestCaseExecutor.execute(TestCaseExecutor.java:284)\r\n\tat com.kms.katalon.core.common.CommonExecutor.accessTestCaseMainPhase(CommonExecutor.java:65)\r\n\tat com.kms.katalon.core.main.TestSuiteExecutor.accessTestSuiteMainPhase(TestSuiteExecutor.java:144)\r\n\tat com.kms.katalon.core.main.TestSuiteExecutor.execute(TestSuiteExecutor.java:106)\r\n\tat com.kms.katalon.core.main.TestCaseMain.startTestSuite(TestCaseMain.java:185)\r\n\tat com.kms.katalon.core.main.TestCaseMain$startTestSuite$0.call(Unknown Source)\r\n\tat TempTestSuite1653328354543.run(TempTestSuite1653328354543.groovy:36)\r\n)\r\n\tat com.kms.katalon.core.keyword.internal.KeywordMain.stepFailed(KeywordMain.groovy:39)\r\n\tat com.kms.katalon.core.keyword.internal.KeywordMain.stepFailed(KeywordMain.groovy)\r\n\tat com.kms.katalon.core.keyword.internal.KeywordMain.runKeyword(KeywordMain.groovy:76)\r\n\tat com.kms.katalon.core.keyword.builtin.VerifyEqualKeyword.verifyEqual(VerifyEqualKeyword.groovy:63)\r\n\tat com.kms.katalon.core.keyword.builtin.VerifyEqualKeyword.execute(VerifyEqualKeyword.groovy:44)\r\n\tat com.kms.katalon.core.keyword.internal.KeywordExecutor.executeKeywordForPlatform(KeywordExecutor.groovy:74)\r\n\tat com.kms.katalon.core.keyword.BuiltinKeywords.verifyEqual(BuiltinKeywords.groovy:141)\r\n\tat sun.reflect.NativeMethodAccessorImpl.invoke0(Native Method)\r\n\tat sun.reflect.NativeMethodAccessorImpl.invoke(NativeMethodAccessorImpl.java:62)\r\n\tat sun.reflect.DelegatingMethodAccessorImpl.invoke(DelegatingMethodAccessorImpl.java:43)\r\n\tat java.lang.reflect.Method.invoke(Method.java:498)\r\n\tat org.codehaus.groovy.reflection.CachedMethod.invoke(CachedMethod.java:98)\r\n\tat groovy.lang.MetaMethod.doMethodInvoke(MetaMethod.java:325)\r\n\tat groovy.lang.MetaClassImpl.invokeStaticMethod(MetaClassImpl.java:1484)\r\n\tat org.codehaus.groovy.runtime.callsite.StaticMetaClassSite.call(StaticMetaClassSite.java:52)\r\n\tat org.codehaus.groovy.runtime.callsite.AbstractCallSite.call(AbstractCallSite.java:136)\r\n\tat forms.Grad152.thankYouPage(Grad152.groovy:115)\r\n\tat sun.reflect.NativeMethodAccessorImpl.invoke0(Native Method)\r\n\tat sun.reflect.NativeMethodAccessorImpl.invoke(NativeMethodAccessorImpl.java:62)\r\n\tat sun.reflect.DelegatingMethodAccessorImpl.invoke(DelegatingMethodAccessorImpl.java:43)\r\n\tat java.lang.reflect.Method.invoke(Method.java:498)\r\n\tat cucumber.runtime.Utils$1.call(Utils.java:26)\r\n\tat cucumber.runtime.Timeout.timeout(Timeout.java:16)\r\n\tat cucumber.runtime.Utils.invoke(Utils.java:20)\r\n\tat cucumber.runtime.java.JavaStepDefinition.execute(JavaStepDefinition.java:48)\r\n\tat cucumber.runtime.PickleStepDefinitionMatch.runStep(PickleStepDefinitionMatch.java:50)\r\n\tat cucumber.runner.TestStep.executeStep(TestStep.java:68)\r\n\tat cucumber.runner.TestStep.run(TestStep.java:50)\r\n\tat cucumber.runner.PickleStepTestStep.run(PickleStepTestStep.java:53)\r\n\tat cucumber.runner.TestCase.run(TestCase.java:47)\r\n\tat cucumber.runner.Runner.runPickle(Runner.java:44)\r\n\tat cucumber.runtime.Runtime.runFeature(Runtime.java:120)\r\n\tat cucumber.runtime.Runtime.run(Runtime.java:106)\r\n\tat cucumber.api.cli.Main.run(Main.java:35)\r\n\tat cucumber.api.cli.Main$run.call(Unknown Source)\r\n\tat com.kms.katalon.core.cucumber.keyword.CucumberBuiltinKeywords$_runFeatureFile_closure1.doCall(CucumberBuiltinKeywords.groovy:108)\r\n\tat com.kms.katalon.core.cucumber.keyword.CucumberBuiltinKeywords$_runFeatureFile_closure1.doCall(CucumberBuiltinKeywords.groovy)\r\n\tat sun.reflect.NativeMethodAccessorImpl.invoke0(Native Method)\r\n\tat sun.reflect.NativeMethodAccessorImpl.invoke(NativeMethodAccessorImpl.java:62)\r\n\tat sun.reflect.DelegatingMethodAccessorImpl.invoke(DelegatingMethodAccessorImpl.java:43)\r\n\tat java.lang.reflect.Method.invoke(Method.java:498)\r\n\tat org.codehaus.groovy.reflection.CachedMethod.invoke(CachedMethod.java:98)\r\n\tat groovy.lang.MetaMethod.doMethodInvoke(MetaMethod.java:325)\r\n\tat org.codehaus.groovy.runtime.metaclass.ClosureMetaClass.invokeMethod(ClosureMetaClass.java:264)\r\n\tat groovy.lang.MetaClassImpl.invokeMethod(MetaClassImpl.java:1034)\r\n\tat groovy.lang.Closure.call(Closure.java:420)\r\n\tat groovy.lang.Closure.call(Closure.java:414)\r\n\tat com.kms.katalon.core.keyword.internal.KeywordMain.runKeyword(KeywordMain.groovy:74)\r\n\tat com.kms.katalon.core.keyword.internal.KeywordMain.runKeyword(KeywordMain.groovy:68)\r\n\tat com.kms.katalon.core.keyword.internal.KeywordMain$runKeyword.call(Unknown Source)\r\n\tat com.kms.katalon.core.cucumber.keyword.CucumberBuiltinKeywords.runFeatureFile(CucumberBuiltinKeywords.groovy:75)\r\n\tat com.kms.katalon.core.cucumber.keyword.CucumberBuiltinKeywords$runFeatureFile$0.callStatic(Unknown Source)\r\n\tat com.kms.katalon.core.cucumber.keyword.CucumberBuiltinKeywords.runFeatureFile(CucumberBuiltinKeywords.groovy:248)\r\n\tat com.kms.katalon.core.cucumber.keyword.CucumberBuiltinKeywords$runFeatureFile.call(Unknown Source)\r\n\tat org.codehaus.groovy.runtime.callsite.CallSiteArray.defaultCall(CallSiteArray.java:47)\r\n\tat org.codehaus.groovy.runtime.callsite.AbstractCallSite.call(AbstractCallSite.java:116)\r\n\tat org.codehaus.groovy.runtime.callsite.AbstractCallSite.call(AbstractCallSite.java:128)\r\n\tat Script1645551788182.run(Script1645551788182.groovy:22)\r\n\tat com.kms.katalon.core.main.ScriptEngine.run(ScriptEngine.java:194)\r\n\tat com.kms.katalon.core.main.ScriptEngine.runScriptAsRawText(ScriptEngine.java:119)\r\n\tat com.kms.katalon.core.main.TestCaseExecutor.runScript(TestCaseExecutor.java:445)\r\n\tat com.kms.katalon.core.main.TestCaseExecutor.doExecute(TestCaseExecutor.java:436)\r\n\tat com.kms.katalon.core.main.TestCaseExecutor.processExecutionPhase(TestCaseExecutor.java:415)\r\n\tat com.kms.katalon.core.main.TestCaseExecutor.accessMainPhase(TestCaseExecutor.java:407)\r\n\tat com.kms.katalon.core.main.TestCaseExecutor.execute(TestCaseExecutor.java:284)\r\n\tat com.kms.katalon.core.common.CommonExecutor.accessTestCaseMainPhase(CommonExecutor.java:65)\r\n\tat com.kms.katalon.core.main.TestSuiteExecutor.accessTestSuiteMainPhase(TestSuiteExecutor.java:144)\r\n\tat com.kms.katalon.core.main.TestSuiteExecutor.execute(TestSuiteExecutor.java:106)\r\n\tat com.kms.katalon.core.main.TestCaseMain.startTestSuite(TestCaseMain.java:185)\r\n\tat com.kms.katalon.core.main.TestCaseMain$startTestSuite$0.call(Unknown Source)\r\n\tat org.codehaus.groovy.runtime.callsite.CallSiteArray.defaultCall(CallSiteArray.java:47)\r\n\tat org.codehaus.groovy.runtime.callsite.AbstractCallSite.call(AbstractCallSite.java:116)\r\n\tat org.codehaus.groovy.runtime.callsite.AbstractCallSite.call(AbstractCallSite.java:144)\r\n\tat TempTestSuite1653328354543.run(TempTestSuite1653328354543.groovy:36)\r\n\tat groovy.lang.GroovyShell.runScriptOrMainOrTestOrRunnable(GroovyShell.java:263)\r\n\tat groovy.lang.GroovyShell.run(GroovyShell.java:507)\r\n\tat groovy.lang.GroovyShell.run(GroovyShell.java:496)\r\n\tat groovy.ui.GroovyMain.processOnce(GroovyMain.java:597)\r\n\tat groovy.ui.GroovyMain.run(GroovyMain.java:329)\r\n\tat groovy.ui.GroovyMain.process(GroovyMain.java:315)\r\n\tat groovy.ui.GroovyMain.processArgs(GroovyMain.java:134)\r\n\tat groovy.ui.GroovyMain.main(GroovyMain.java:114)\r\n\tat sun.reflect.NativeMethodAccessorImpl.invoke0(Native Method)\r\n\tat sun.reflect.NativeMethodAccessorImpl.invoke(NativeMethodAccessorImpl.java:62)\r\n\tat sun.reflect.DelegatingMethodAccessorImpl.invoke(DelegatingMethodAccessorImpl.java:43)\r\n\tat java.lang.reflect.Method.invoke(Method.java:498)\r\n\tat org.codehaus.groovy.tools.GroovyStarter.rootLoader(GroovyStarter.java:116)\r\n\tat org.codehaus.groovy.tools.GroovyStarter.main(GroovyStarter.java:138)\r\nCaused by: com.kms.katalon.core.exception.StepFailedException: Actual object \u0027https://www.babson.edu/academics/graduate-school/undecided/thank-you/\u0027 and expected object \u0027https://www.babson.edu/academics/graduate-school/certificate-in-advanced-management/thank-you/\u0027 are not equal\r\n\tat com.kms.katalon.core.keyword.builtin.VerifyEqualKeyword$_verifyEqual_closure1.doCall(VerifyEqualKeyword.groovy:58)\r\n\tat com.kms.katalon.core.keyword.builtin.VerifyEqualKeyword$_verifyEqual_closure1.call(VerifyEqualKeyword.groovy)\r\n\tat com.kms.katalon.core.keyword.internal.KeywordMain.runKeyword(KeywordMain.groovy:74)\r\n\tat com.kms.katalon.core.keyword.builtin.VerifyEqualKeyword.verifyEqual(VerifyEqualKeyword.groovy:63)\r\n\tat com.kms.katalon.core.keyword.builtin.VerifyEqualKeyword.execute(VerifyEqualKeyword.groovy:44)\r\n\tat com.kms.katalon.core.keyword.internal.KeywordExecutor.executeKeywordForPlatform(KeywordExecutor.groovy:74)\r\n\tat com.kms.katalon.core.keyword.BuiltinKeywords.verifyEqual(BuiltinKeywords.groovy:141)\r\n\tat forms.Grad152.thankYouPage(Grad152.groovy:115)\r\n\tat cucumber.runtime.Utils$1.call(Utils.java:26)\r\n\tat cucumber.runtime.Timeout.timeout(Timeout.java:16)\r\n\tat cucumber.runtime.Utils.invoke(Utils.java:20)\r\n\tat cucumber.runtime.java.JavaStepDefinition.execute(JavaStepDefinition.java:48)\r\n\tat cucumber.runtime.PickleStepDefinitionMatch.runStep(PickleStepDefinitionMatch.java:50)\r\n\tat cucumber.runner.TestStep.executeStep(TestStep.java:68)\r\n\tat cucumber.runner.TestStep.run(TestStep.java:50)\r\n\tat cucumber.runner.PickleStepTestStep.run(PickleStepTestStep.java:53)\r\n\tat cucumber.runner.TestCase.run(TestCase.java:47)\r\n\tat cucumber.runner.Runner.runPickle(Runner.java:44)\r\n\tat cucumber.runtime.Runtime.runFeature(Runtime.java:120)\r\n\tat cucumber.runtime.Runtime.run(Runtime.java:106)\r\n\tat cucumber.api.cli.Main.run(Main.java:35)\r\n\tat cucumber.api.cli.Main$run.call(Unknown Source)\r\n\tat com.kms.katalon.core.cucumber.keyword.CucumberBuiltinKeywords$_runFeatureFile_closure1.doCall(CucumberBuiltinKeywords.groovy:108)\r\n\tat com.kms.katalon.core.cucumber.keyword.CucumberBuiltinKeywords$_runFeatureFile_closure1.doCall(CucumberBuiltinKeywords.groovy)\r\n\tat com.kms.katalon.core.keyword.internal.KeywordMain.runKeyword(KeywordMain.groovy:74)\r\n\tat com.kms.katalon.core.keyword.internal.KeywordMain.runKeyword(KeywordMain.groovy:68)\r\n\tat com.kms.katalon.core.keyword.internal.KeywordMain$runKeyword.call(Unknown Source)\r\n\tat com.kms.katalon.core.cucumber.keyword.CucumberBuiltinKeywords.runFeatureFile(CucumberBuiltinKeywords.groovy:75)\r\n\tat com.kms.katalon.core.cucumber.keyword.CucumberBuiltinKeywords$runFeatureFile$0.callStatic(Unknown Source)\r\n\tat com.kms.katalon.core.cucumber.keyword.CucumberBuiltinKeywords.runFeatureFile(CucumberBuiltinKeywords.groovy:248)\r\n\tat com.kms.katalon.core.cucumber.keyword.CucumberBuiltinKeywords$runFeatureFile.call(Unknown Source)\r\n\tat Demo.run(Demo:22)\r\n\tat com.kms.katalon.core.main.ScriptEngine.run(ScriptEngine.java:194)\r\n\tat com.kms.katalon.core.main.ScriptEngine.runScriptAsRawText(ScriptEngine.java:119)\r\n\tat com.kms.katalon.core.main.TestCaseExecutor.runScript(TestCaseExecutor.java:445)\r\n\tat com.kms.katalon.core.main.TestCaseExecutor.doExecute(TestCaseExecutor.java:436)\r\n\tat com.kms.katalon.core.main.TestCaseExecutor.processExecutionPhase(TestCaseExecutor.java:415)\r\n\tat com.kms.katalon.core.main.TestCaseExecutor.accessMainPhase(TestCaseExecutor.java:407)\r\n\tat com.kms.katalon.core.main.TestCaseExecutor.execute(TestCaseExecutor.java:284)\r\n\tat com.kms.katalon.core.common.CommonExecutor.accessTestCaseMainPhase(CommonExecutor.java:65)\r\n\tat com.kms.katalon.core.main.TestSuiteExecutor.accessTestSuiteMainPhase(TestSuiteExecutor.java:144)\r\n\tat com.kms.katalon.core.main.TestSuiteExecutor.execute(TestSuiteExecutor.java:106)\r\n\tat com.kms.katalon.core.main.TestCaseMain.startTestSuite(TestCaseMain.java:185)\r\n\tat com.kms.katalon.core.main.TestCaseMain$startTestSuite$0.call(Unknown Source)\r\n\tat TempTestSuite1653328354543.run(TempTestSuite1653328354543.groovy:36)\r\n",
              "duration": 923269500,
              "status": "failed"
            },
            "line": 19,
            "name": "I am on the correct \"https://www.babson.edu/academics/graduate-school/certificate-in-advanced-management/thank-you/\" page",
            "match": {
              "arguments": [
                {
                  "val": "\"https://www.babson.edu/academics/graduate-school/certificate-in-advanced-management/thank-you/\"",
                  "offset": 20
                }
              ],
              "location": "Grad152.thankYouPage(String)"
            },
            "keyword": "And "
          },
          {
            "result": {
              "status": "skipped"
            },
            "line": 20,
            "name": "I get the submit request",
            "match": {
              "location": "Grad152.submitRequest()"
            },
            "keyword": "And "
          },
          {
            "result": {
              "status": "skipped"
            },
            "line": 21,
            "name": "I delete the form record",
            "match": {
              "location": "Grad152.deleteRequest()"
            },
            "keyword": "Then "
          }
        ],
        "tags": [
          {
            "name": "@Form"
          },
          {
            "name": "@152"
          },
          {
            "name": "@Graduate"
          },
          {
            "name": "@Grad"
          },
          {
            "name": "@152"
          }
        ]
      }
    ],
    "name": "academics/graduate-school",
    "description": "  I want to submit and verify form submits with the correct data",
    "id": "academics/graduate-school",
    "keyword": "Feature",
    "uri": "C:/Users/rkeough/git/babson-automation/Include/features/Forms/Demo.feature",
    "tags": [
      {
        "name": "@Form",
        "type": "Tag",
        "location": {
          "line": 1,
          "column": 1
        }
      },
      {
        "name": "@152",
        "type": "Tag",
        "location": {
          "line": 1,
          "column": 7
        }
      },
      {
        "name": "@Graduate",
        "type": "Tag",
        "location": {
          "line": 1,
          "column": 12
        }
      }
    ]
  }
]