[
  {
    "line": 2,
    "elements": [
      {
        "BDD_TESTRUN_UUID": "6ad618aa-70eb-4c89-a297-eeb2f1cc6907",
        "line": 25,
        "name": "Submit Grad form",
        "description": "",
        "id": "academics/graduate-school;submit-grad-form;;2",
        "type": "scenario",
        "keyword": "Scenario Outline",
        "steps": [
          {
            "result": {
              "duration": 6097296800,
              "status": "passed"
            },
            "line": 7,
            "name": "I am on the homepage",
            "match": {
              "location": "Grad152.Homepage()"
            },
            "keyword": "Given ",
            "BDD_STEP_UUID": "431370c2-0804-4384-a556-80f5687781d6"
          },
          {
            "result": {
              "duration": 2800625800,
              "status": "passed"
            },
            "line": 8,
            "name": "I am on grad \"https://www.babson.edu/academics/graduate-school/certificate-in-advanced-management/\" page",
            "match": {
              "arguments": [
                {
                  "val": "\"https://www.babson.edu/academics/graduate-school/certificate-in-advanced-management/\"",
                  "offset": 13
                }
              ],
              "location": "Grad152.GradPage(String)"
            },
            "keyword": "When ",
            "BDD_STEP_UUID": "eb91628e-87f6-443a-a23e-b164df9c255b"
          },
          {
            "result": {
              "duration": 2491005500,
              "status": "passed"
            },
            "line": 9,
            "name": "I input the first and last name on the form",
            "match": {
              "location": "Grad152.FirstLastName()"
            },
            "keyword": "And ",
            "BDD_STEP_UUID": "be9b187d-7b97-4c9c-90de-2c035c9f5ff7"
          },
          {
            "result": {
              "duration": 1621434900,
              "status": "passed"
            },
            "line": 10,
            "name": "I input an email address",
            "match": {
              "location": "Grad152.inputEmail()"
            },
            "keyword": "And ",
            "BDD_STEP_UUID": "bc900a18-ea58-462a-ba01-d82def159605"
          },
          {
            "result": {
              "duration": 1030940000,
              "status": "passed"
            },
            "line": 11,
            "name": "I select a program \"tfa_1075\"",
            "match": {
              "arguments": [
                {
                  "val": "\"tfa_1075\"",
                  "offset": 19
                }
              ],
              "location": "Grad152.SelectAProgramOfInterest(String)"
            },
            "keyword": "And ",
            "BDD_STEP_UUID": "cb0eb025-06ff-4176-aaea-514ce87ab74c"
          },
          {
            "result": {
              "duration": 1225300200,
              "status": "passed"
            },
            "line": 12,
            "name": "I select a term \"tfa_1155\"",
            "match": {
              "arguments": [
                {
                  "val": "\"tfa_1155\"",
                  "offset": 16
                }
              ],
              "location": "Grad152.SelectATermOfEnrollment(String)"
            },
            "keyword": "And ",
            "BDD_STEP_UUID": "0edc0b21-3449-466a-aab0-61fbf2e09c9b"
          },
          {
            "result": {
              "duration": 747721600,
              "status": "passed"
            },
            "line": 13,
            "name": "I input a phone number",
            "match": {
              "location": "Grad152.inputPhoneNumber()"
            },
            "keyword": "And ",
            "BDD_STEP_UUID": "9b57f437-ebc7-46e7-87c7-f498ba6027f4"
          },
          {
            "result": {
              "duration": 709534600,
              "status": "passed"
            },
            "line": 14,
            "name": "I select a country",
            "match": {
              "location": "Grad152.SelectACountry()"
            },
            "keyword": "And ",
            "BDD_STEP_UUID": "57409cb5-3158-4ea8-a7be-af21972e11e2"
          },
          {
            "result": {
              "duration": 707464800,
              "status": "passed"
            },
            "line": 15,
            "name": "I input a state",
            "match": {
              "location": "Grad152.inputState()"
            },
            "keyword": "And ",
            "BDD_STEP_UUID": "95525d8f-742d-42f3-9353-4e3ecaef75f6"
          },
          {
            "result": {
              "duration": 1134808500,
              "status": "passed"
            },
            "line": 16,
            "name": "I input a city",
            "match": {
              "location": "Grad152.inputCity()"
            },
            "keyword": "And ",
            "BDD_STEP_UUID": "7699bc56-7527-45a4-95f8-3b1878f4811a"
          },
          {
            "result": {
              "duration": 994858600,
              "status": "passed"
            },
            "line": 17,
            "name": "I input the postal code",
            "match": {
              "location": "Grad152.inputPostalZode()"
            },
            "keyword": "And ",
            "BDD_STEP_UUID": "2af829d8-2d75-4674-a7ef-c68367a9de72"
          },
          {
            "result": {
              "duration": 8319025800,
              "status": "passed"
            },
            "line": 18,
            "name": "I click the submit button",
            "match": {
              "location": "Grad152.clickSubmit()"
            },
            "keyword": "And ",
            "BDD_STEP_UUID": "cb6b7c33-94da-41eb-81e4-91e454e54c00"
          },
          {
            "result": {
              "duration": 1042176800,
              "status": "passed"
            },
            "line": 19,
            "name": "I am on the correct \"https://www.babson.edu/academics/graduate-school/certificate-in-advanced-management/thank-you/\" page",
            "match": {
              "arguments": [
                {
                  "val": "\"https://www.babson.edu/academics/graduate-school/certificate-in-advanced-management/thank-you/\"",
                  "offset": 20
                }
              ],
              "location": "Grad152.thankYouPage(String)"
            },
            "keyword": "And ",
            "BDD_STEP_UUID": "7b12e552-1a24-4017-9a89-45bb7cc310e6"
          },
          {
            "result": {
              "duration": 3982363800,
              "status": "passed"
            },
            "line": 20,
            "name": "I get the submit request",
            "match": {
              "location": "Grad152.submitRequest()"
            },
            "keyword": "And ",
            "BDD_STEP_UUID": "49f90942-74e6-4982-92f6-4378bd1090a7"
          },
          {
            "result": {
              "duration": 9253410500,
              "status": "passed"
            },
            "line": 21,
            "name": "I delete the form record",
            "match": {
              "location": "Grad152.deleteRequest()"
            },
            "keyword": "Then ",
            "BDD_STEP_UUID": "bf9447e3-1a0f-4515-9ce4-2e90df07a6f5"
          }
        ],
        "tags": [
          {
            "name": "@Form"
          },
          {
            "name": "@152"
          },
          {
            "name": "@Graduate"
          },
          {
            "name": "@Grad"
          },
          {
            "name": "@152"
          }
        ]
      },
      {
        "BDD_TESTRUN_UUID": "de27e9bf-caca-44ab-bf62-c51178543b4d",
        "line": 26,
        "name": "Submit Grad form",
        "description": "",
        "id": "academics/graduate-school;submit-grad-form;;3",
        "type": "scenario",
        "keyword": "Scenario Outline",
        "steps": [
          {
            "result": {
              "duration": 5450203000,
              "status": "passed"
            },
            "line": 7,
            "name": "I am on the homepage",
            "match": {
              "location": "Grad152.Homepage()"
            },
            "keyword": "Given ",
            "BDD_STEP_UUID": "7e9313f1-82c4-45c3-9a80-8944a1fc395f"
          },
          {
            "result": {
              "duration": 2202221800,
              "status": "passed"
            },
            "line": 8,
            "name": "I am on grad \"https://www.babson.edu/academics/graduate-school/certificate-in-advanced-management/\" page",
            "match": {
              "arguments": [
                {
                  "val": "\"https://www.babson.edu/academics/graduate-school/certificate-in-advanced-management/\"",
                  "offset": 13
                }
              ],
              "location": "Grad152.GradPage(String)"
            },
            "keyword": "When ",
            "BDD_STEP_UUID": "2f778b48-9a95-4cbb-8af2-1f0cd266fbf7"
          },
          {
            "result": {
              "duration": 2719573500,
              "status": "passed"
            },
            "line": 9,
            "name": "I input the first and last name on the form",
            "match": {
              "location": "Grad152.FirstLastName()"
            },
            "keyword": "And ",
            "BDD_STEP_UUID": "856be067-7d3d-45f7-bd44-0fb02d2bb8d4"
          },
          {
            "result": {
              "duration": 1584379900,
              "status": "passed"
            },
            "line": 10,
            "name": "I input an email address",
            "match": {
              "location": "Grad152.inputEmail()"
            },
            "keyword": "And ",
            "BDD_STEP_UUID": "8ce11eb4-22f6-412c-88bd-e27d5229513f"
          },
          {
            "result": {
              "duration": 981304300,
              "status": "passed"
            },
            "line": 11,
            "name": "I select a program \"tfa_1156\"",
            "match": {
              "arguments": [
                {
                  "val": "\"tfa_1156\"",
                  "offset": 19
                }
              ],
              "location": "Grad152.SelectAProgramOfInterest(String)"
            },
            "keyword": "And ",
            "BDD_STEP_UUID": "ab5147f3-faf8-41e1-9aa1-716498568e4c"
          },
          {
            "result": {
              "duration": 1335039400,
              "status": "passed"
            },
            "line": 12,
            "name": "I select a term \"tfa_1195\"",
            "match": {
              "arguments": [
                {
                  "val": "\"tfa_1195\"",
                  "offset": 16
                }
              ],
              "location": "Grad152.SelectATermOfEnrollment(String)"
            },
            "keyword": "And ",
            "BDD_STEP_UUID": "938ae3e4-2a16-49dd-8958-5b7fba1670f1"
          },
          {
            "result": {
              "duration": 692389700,
              "status": "passed"
            },
            "line": 13,
            "name": "I input a phone number",
            "match": {
              "location": "Grad152.inputPhoneNumber()"
            },
            "keyword": "And ",
            "BDD_STEP_UUID": "343e588c-12ca-4543-8650-2b139fd23ff5"
          },
          {
            "result": {
              "duration": 691078900,
              "status": "passed"
            },
            "line": 14,
            "name": "I select a country",
            "match": {
              "location": "Grad152.SelectACountry()"
            },
            "keyword": "And ",
            "BDD_STEP_UUID": "3f53652d-a34f-49ac-b889-5f9177f52dde"
          },
          {
            "result": {
              "duration": 744769900,
              "status": "passed"
            },
            "line": 15,
            "name": "I input a state",
            "match": {
              "location": "Grad152.inputState()"
            },
            "keyword": "And ",
            "BDD_STEP_UUID": "1f8b8e31-5d5d-4c63-a0f5-59a42757ab1a"
          },
          {
            "result": {
              "duration": 924691300,
              "status": "passed"
            },
            "line": 16,
            "name": "I input a city",
            "match": {
              "location": "Grad152.inputCity()"
            },
            "keyword": "And ",
            "BDD_STEP_UUID": "ba340e44-4f94-41f0-b404-b0d1e232d937"
          },
          {
            "result": {
              "duration": 1034340500,
              "status": "passed"
            },
            "line": 17,
            "name": "I input the postal code",
            "match": {
              "location": "Grad152.inputPostalZode()"
            },
            "keyword": "And ",
            "BDD_STEP_UUID": "89765b8c-c4d0-407e-b56e-c076eca1601d"
          },
          {
            "result": {
              "duration": 12274670400,
              "status": "passed"
            },
            "line": 18,
            "name": "I click the submit button",
            "match": {
              "location": "Grad152.clickSubmit()"
            },
            "keyword": "And ",
            "BDD_STEP_UUID": "d20cdd04-40b1-4d30-84f4-daad5a89b475"
          },
          {
            "result": {
              "error_message": "com.kms.katalon.core.exception.StepFailedException: Unable to verify equal between actual object \u0027https://www.babson.edu/academics/graduate-school/undecided/thank-you/\u0027 and expected object \u0027https://www.babson.edu/academics/graduate-school/certificate-in-advanced-management/thank-you/\u0027 (Root cause: com.kms.katalon.core.exception.StepFailedException: Actual object \u0027https://www.babson.edu/academics/graduate-school/undecided/thank-you/\u0027 and expected object \u0027https://www.babson.edu/academics/graduate-school/certificate-in-advanced-management/thank-you/\u0027 are not equal\r\n\tat com.kms.katalon.core.keyword.builtin.VerifyEqualKeyword$_verifyEqual_closure1.doCall(VerifyEqualKeyword.groovy:58)\r\n\tat com.kms.katalon.core.keyword.builtin.VerifyEqualKeyword$_verifyEqual_closure1.call(VerifyEqualKeyword.groovy)\r\n\tat com.kms.katalon.core.keyword.internal.KeywordMain.runKeyword(KeywordMain.groovy:74)\r\n\tat com.kms.katalon.core.keyword.builtin.VerifyEqualKeyword.verifyEqual(VerifyEqualKeyword.groovy:63)\r\n\tat com.kms.katalon.core.keyword.builtin.VerifyEqualKeyword.execute(VerifyEqualKeyword.groovy:44)\r\n\tat com.kms.katalon.core.keyword.internal.KeywordExecutor.executeKeywordForPlatform(KeywordExecutor.groovy:74)\r\n\tat com.kms.katalon.core.keyword.BuiltinKeywords.verifyEqual(BuiltinKeywords.groovy:141)\r\n\tat forms.Grad152.thankYouPage(Grad152.groovy:115)\r\n\tat cucumber.runtime.Utils$1.call(Utils.java:26)\r\n\tat cucumber.runtime.Timeout.timeout(Timeout.java:16)\r\n\tat cucumber.runtime.Utils.invoke(Utils.java:20)\r\n\tat cucumber.runtime.java.JavaStepDefinition.execute(JavaStepDefinition.java:48)\r\n\tat cucumber.runtime.PickleStepDefinitionMatch.runStep(PickleStepDefinitionMatch.java:50)\r\n\tat cucumber.runner.TestStep.executeStep(TestStep.java:68)\r\n\tat cucumber.runner.TestStep.run(TestStep.java:50)\r\n\tat cucumber.runner.PickleStepTestStep.run(PickleStepTestStep.java:53)\r\n\tat cucumber.runner.TestCase.run(TestCase.java:47)\r\n\tat cucumber.runner.Runner.runPickle(Runner.java:44)\r\n\tat cucumber.runtime.Runtime.runFeature(Runtime.java:120)\r\n\tat cucumber.runtime.Runtime.run(Runtime.java:106)\r\n\tat cucumber.api.cli.Main.run(Main.java:35)\r\n\tat cucumber.api.cli.Main$run.call(Unknown Source)\r\n\tat com.kms.katalon.core.cucumber.keyword.CucumberBuiltinKeywords$_runFeatureFile_closure1.doCall(CucumberBuiltinKeywords.groovy:108)\r\n\tat com.kms.katalon.core.cucumber.keyword.CucumberBuiltinKeywords$_runFeatureFile_closure1.doCall(CucumberBuiltinKeywords.groovy)\r\n\tat com.kms.katalon.core.keyword.internal.KeywordMain.runKeyword(KeywordMain.groovy:74)\r\n\tat com.kms.katalon.core.keyword.internal.KeywordMain.runKeyword(KeywordMain.groovy:68)\r\n\tat com.kms.katalon.core.keyword.internal.KeywordMain$runKeyword.call(Unknown Source)\r\n\tat com.kms.katalon.core.cucumber.keyword.CucumberBuiltinKeywords.runFeatureFile(CucumberBuiltinKeywords.groovy:75)\r\n\tat com.kms.katalon.core.cucumber.keyword.CucumberBuiltinKeywords$runFeatureFile$0.callStatic(Unknown Source)\r\n\tat com.kms.katalon.core.cucumber.keyword.CucumberBuiltinKeywords.runFeatureFile(CucumberBuiltinKeywords.groovy:248)\r\n\tat com.kms.katalon.core.cucumber.keyword.CucumberBuiltinKeywords$runFeatureFile.call(Unknown Source)\r\n\tat Demo.run(Demo:22)\r\n\tat com.kms.katalon.core.main.ScriptEngine.run(ScriptEngine.java:194)\r\n\tat com.kms.katalon.core.main.ScriptEngine.runScriptAsRawText(ScriptEngine.java:119)\r\n\tat com.kms.katalon.core.main.TestCaseExecutor.runScript(TestCaseExecutor.java:445)\r\n\tat com.kms.katalon.core.main.TestCaseExecutor.doExecute(TestCaseExecutor.java:436)\r\n\tat com.kms.katalon.core.main.TestCaseExecutor.processExecutionPhase(TestCaseExecutor.java:415)\r\n\tat com.kms.katalon.core.main.TestCaseExecutor.accessMainPhase(TestCaseExecutor.java:407)\r\n\tat com.kms.katalon.core.main.TestCaseExecutor.execute(TestCaseExecutor.java:284)\r\n\tat com.kms.katalon.core.common.CommonExecutor.accessTestCaseMainPhase(CommonExecutor.java:65)\r\n\tat com.kms.katalon.core.main.TestSuiteExecutor.accessTestSuiteMainPhase(TestSuiteExecutor.java:144)\r\n\tat com.kms.katalon.core.main.TestSuiteExecutor.execute(TestSuiteExecutor.java:106)\r\n\tat com.kms.katalon.core.main.TestCaseMain.startTestSuite(TestCaseMain.java:185)\r\n\tat com.kms.katalon.core.main.TestCaseMain$startTestSuite$0.call(Unknown Source)\r\n\tat TempTestSuite1653328354543.run(TempTestSuite1653328354543.groovy:36)\r\n)\r\n\tat com.kms.katalon.core.keyword.internal.KeywordMain.stepFailed(KeywordMain.groovy:39)\r\n\tat com.kms.katalon.core.keyword.internal.KeywordMain.stepFailed(KeywordMain.groovy)\r\n\tat com.kms.katalon.core.keyword.internal.KeywordMain.runKeyword(KeywordMain.groovy:76)\r\n\tat com.kms.katalon.core.keyword.builtin.VerifyEqualKeyword.verifyEqual(VerifyEqualKeyword.groovy:63)\r\n\tat com.kms.katalon.core.keyword.builtin.VerifyEqualKeyword.execute(VerifyEqualKeyword.groovy:44)\r\n\tat com.kms.katalon.core.keyword.internal.KeywordExecutor.executeKeywordForPlatform(KeywordExecutor.groovy:74)\r\n\tat com.kms.katalon.core.keyword.BuiltinKeywords.verifyEqual(BuiltinKeywords.groovy:141)\r\n\tat sun.reflect.NativeMethodAccessorImpl.invoke0(Native Method)\r\n\tat sun.reflect.NativeMethodAccessorImpl.invoke(NativeMethodAccessorImpl.java:62)\r\n\tat sun.reflect.DelegatingMethodAccessorImpl.invoke(DelegatingMethodAccessorImpl.java:43)\r\n\tat java.lang.reflect.Method.invoke(Method.java:498)\r\n\tat org.codehaus.groovy.reflection.CachedMethod.invoke(CachedMethod.java:98)\r\n\tat groovy.lang.MetaMethod.doMethodInvoke(MetaMethod.java:325)\r\n\tat groovy.lang.MetaClassImpl.invokeStaticMethod(MetaClassImpl.java:1484)\r\n\tat org.codehaus.groovy.runtime.callsite.StaticMetaClassSite.call(StaticMetaClassSite.java:52)\r\n\tat org.codehaus.groovy.runtime.callsite.AbstractCallSite.call(AbstractCallSite.java:136)\r\n\tat forms.Grad152.thankYouPage(Grad152.groovy:115)\r\n\tat sun.reflect.NativeMethodAccessorImpl.invoke0(Native Method)\r\n\tat sun.reflect.NativeMethodAccessorImpl.invoke(NativeMethodAccessorImpl.java:62)\r\n\tat sun.reflect.DelegatingMethodAccessorImpl.invoke(DelegatingMethodAccessorImpl.java:43)\r\n\tat java.lang.reflect.Method.invoke(Method.java:498)\r\n\tat cucumber.runtime.Utils$1.call(Utils.java:26)\r\n\tat cucumber.runtime.Timeout.timeout(Timeout.java:16)\r\n\tat cucumber.runtime.Utils.invoke(Utils.java:20)\r\n\tat cucumber.runtime.java.JavaStepDefinition.execute(JavaStepDefinition.java:48)\r\n\tat cucumber.runtime.PickleStepDefinitionMatch.runStep(PickleStepDefinitionMatch.java:50)\r\n\tat cucumber.runner.TestStep.executeStep(TestStep.java:68)\r\n\tat cucumber.runner.TestStep.run(TestStep.java:50)\r\n\tat cucumber.runner.PickleStepTestStep.run(PickleStepTestStep.java:53)\r\n\tat cucumber.runner.TestCase.run(TestCase.java:47)\r\n\tat cucumber.runner.Runner.runPickle(Runner.java:44)\r\n\tat cucumber.runtime.Runtime.runFeature(Runtime.java:120)\r\n\tat cucumber.runtime.Runtime.run(Runtime.java:106)\r\n\tat cucumber.api.cli.Main.run(Main.java:35)\r\n\tat cucumber.api.cli.Main$run.call(Unknown Source)\r\n\tat com.kms.katalon.core.cucumber.keyword.CucumberBuiltinKeywords$_runFeatureFile_closure1.doCall(CucumberBuiltinKeywords.groovy:108)\r\n\tat com.kms.katalon.core.cucumber.keyword.CucumberBuiltinKeywords$_runFeatureFile_closure1.doCall(CucumberBuiltinKeywords.groovy)\r\n\tat sun.reflect.NativeMethodAccessorImpl.invoke0(Native Method)\r\n\tat sun.reflect.NativeMethodAccessorImpl.invoke(NativeMethodAccessorImpl.java:62)\r\n\tat sun.reflect.DelegatingMethodAccessorImpl.invoke(DelegatingMethodAccessorImpl.java:43)\r\n\tat java.lang.reflect.Method.invoke(Method.java:498)\r\n\tat org.codehaus.groovy.reflection.CachedMethod.invoke(CachedMethod.java:98)\r\n\tat groovy.lang.MetaMethod.doMethodInvoke(MetaMethod.java:325)\r\n\tat org.codehaus.groovy.runtime.metaclass.ClosureMetaClass.invokeMethod(ClosureMetaClass.java:264)\r\n\tat groovy.lang.MetaClassImpl.invokeMethod(MetaClassImpl.java:1034)\r\n\tat groovy.lang.Closure.call(Closure.java:420)\r\n\tat groovy.lang.Closure.call(Closure.java:414)\r\n\tat com.kms.katalon.core.keyword.internal.KeywordMain.runKeyword(KeywordMain.groovy:74)\r\n\tat com.kms.katalon.core.keyword.internal.KeywordMain.runKeyword(KeywordMain.groovy:68)\r\n\tat com.kms.katalon.core.keyword.internal.KeywordMain$runKeyword.call(Unknown Source)\r\n\tat com.kms.katalon.core.cucumber.keyword.CucumberBuiltinKeywords.runFeatureFile(CucumberBuiltinKeywords.groovy:75)\r\n\tat com.kms.katalon.core.cucumber.keyword.CucumberBuiltinKeywords$runFeatureFile$0.callStatic(Unknown Source)\r\n\tat com.kms.katalon.core.cucumber.keyword.CucumberBuiltinKeywords.runFeatureFile(CucumberBuiltinKeywords.groovy:248)\r\n\tat com.kms.katalon.core.cucumber.keyword.CucumberBuiltinKeywords$runFeatureFile.call(Unknown Source)\r\n\tat org.codehaus.groovy.runtime.callsite.CallSiteArray.defaultCall(CallSiteArray.java:47)\r\n\tat org.codehaus.groovy.runtime.callsite.AbstractCallSite.call(AbstractCallSite.java:116)\r\n\tat org.codehaus.groovy.runtime.callsite.AbstractCallSite.call(AbstractCallSite.java:128)\r\n\tat Script1645551788182.run(Script1645551788182.groovy:22)\r\n\tat com.kms.katalon.core.main.ScriptEngine.run(ScriptEngine.java:194)\r\n\tat com.kms.katalon.core.main.ScriptEngine.runScriptAsRawText(ScriptEngine.java:119)\r\n\tat com.kms.katalon.core.main.TestCaseExecutor.runScript(TestCaseExecutor.java:445)\r\n\tat com.kms.katalon.core.main.TestCaseExecutor.doExecute(TestCaseExecutor.java:436)\r\n\tat com.kms.katalon.core.main.TestCaseExecutor.processExecutionPhase(TestCaseExecutor.java:415)\r\n\tat com.kms.katalon.core.main.TestCaseExecutor.accessMainPhase(TestCaseExecutor.java:407)\r\n\tat com.kms.katalon.core.main.TestCaseExecutor.execute(TestCaseExecutor.java:284)\r\n\tat com.kms.katalon.core.common.CommonExecutor.accessTestCaseMainPhase(CommonExecutor.java:65)\r\n\tat com.kms.katalon.core.main.TestSuiteExecutor.accessTestSuiteMainPhase(TestSuiteExecutor.java:144)\r\n\tat com.kms.katalon.core.main.TestSuiteExecutor.execute(TestSuiteExecutor.java:106)\r\n\tat com.kms.katalon.core.main.TestCaseMain.startTestSuite(TestCaseMain.java:185)\r\n\tat com.kms.katalon.core.main.TestCaseMain$startTestSuite$0.call(Unknown Source)\r\n\tat org.codehaus.groovy.runtime.callsite.CallSiteArray.defaultCall(CallSiteArray.java:47)\r\n\tat org.codehaus.groovy.runtime.callsite.AbstractCallSite.call(AbstractCallSite.java:116)\r\n\tat org.codehaus.groovy.runtime.callsite.AbstractCallSite.call(AbstractCallSite.java:144)\r\n\tat TempTestSuite1653328354543.run(TempTestSuite1653328354543.groovy:36)\r\n\tat groovy.lang.GroovyShell.runScriptOrMainOrTestOrRunnable(GroovyShell.java:263)\r\n\tat groovy.lang.GroovyShell.run(GroovyShell.java:507)\r\n\tat groovy.lang.GroovyShell.run(GroovyShell.java:496)\r\n\tat groovy.ui.GroovyMain.processOnce(GroovyMain.java:597)\r\n\tat groovy.ui.GroovyMain.run(GroovyMain.java:329)\r\n\tat groovy.ui.GroovyMain.process(GroovyMain.java:315)\r\n\tat groovy.ui.GroovyMain.processArgs(GroovyMain.java:134)\r\n\tat groovy.ui.GroovyMain.main(GroovyMain.java:114)\r\n\tat sun.reflect.NativeMethodAccessorImpl.invoke0(Native Method)\r\n\tat sun.reflect.NativeMethodAccessorImpl.invoke(NativeMethodAccessorImpl.java:62)\r\n\tat sun.reflect.DelegatingMethodAccessorImpl.invoke(DelegatingMethodAccessorImpl.java:43)\r\n\tat java.lang.reflect.Method.invoke(Method.java:498)\r\n\tat org.codehaus.groovy.tools.GroovyStarter.rootLoader(GroovyStarter.java:116)\r\n\tat org.codehaus.groovy.tools.GroovyStarter.main(GroovyStarter.java:138)\r\nCaused by: com.kms.katalon.core.exception.StepFailedException: Actual object \u0027https://www.babson.edu/academics/graduate-school/undecided/thank-you/\u0027 and expected object \u0027https://www.babson.edu/academics/graduate-school/certificate-in-advanced-management/thank-you/\u0027 are not equal\r\n\tat com.kms.katalon.core.keyword.builtin.VerifyEqualKeyword$_verifyEqual_closure1.doCall(VerifyEqualKeyword.groovy:58)\r\n\tat com.kms.katalon.core.keyword.builtin.VerifyEqualKeyword$_verifyEqual_closure1.call(VerifyEqualKeyword.groovy)\r\n\tat com.kms.katalon.core.keyword.internal.KeywordMain.runKeyword(KeywordMain.groovy:74)\r\n\tat com.kms.katalon.core.keyword.builtin.VerifyEqualKeyword.verifyEqual(VerifyEqualKeyword.groovy:63)\r\n\tat com.kms.katalon.core.keyword.builtin.VerifyEqualKeyword.execute(VerifyEqualKeyword.groovy:44)\r\n\tat com.kms.katalon.core.keyword.internal.KeywordExecutor.executeKeywordForPlatform(KeywordExecutor.groovy:74)\r\n\tat com.kms.katalon.core.keyword.BuiltinKeywords.verifyEqual(BuiltinKeywords.groovy:141)\r\n\tat forms.Grad152.thankYouPage(Grad152.groovy:115)\r\n\tat cucumber.runtime.Utils$1.call(Utils.java:26)\r\n\tat cucumber.runtime.Timeout.timeout(Timeout.java:16)\r\n\tat cucumber.runtime.Utils.invoke(Utils.java:20)\r\n\tat cucumber.runtime.java.JavaStepDefinition.execute(JavaStepDefinition.java:48)\r\n\tat cucumber.runtime.PickleStepDefinitionMatch.runStep(PickleStepDefinitionMatch.java:50)\r\n\tat cucumber.runner.TestStep.executeStep(TestStep.java:68)\r\n\tat cucumber.runner.TestStep.run(TestStep.java:50)\r\n\tat cucumber.runner.PickleStepTestStep.run(PickleStepTestStep.java:53)\r\n\tat cucumber.runner.TestCase.run(TestCase.java:47)\r\n\tat cucumber.runner.Runner.runPickle(Runner.java:44)\r\n\tat cucumber.runtime.Runtime.runFeature(Runtime.java:120)\r\n\tat cucumber.runtime.Runtime.run(Runtime.java:106)\r\n\tat cucumber.api.cli.Main.run(Main.java:35)\r\n\tat cucumber.api.cli.Main$run.call(Unknown Source)\r\n\tat com.kms.katalon.core.cucumber.keyword.CucumberBuiltinKeywords$_runFeatureFile_closure1.doCall(CucumberBuiltinKeywords.groovy:108)\r\n\tat com.kms.katalon.core.cucumber.keyword.CucumberBuiltinKeywords$_runFeatureFile_closure1.doCall(CucumberBuiltinKeywords.groovy)\r\n\tat com.kms.katalon.core.keyword.internal.KeywordMain.runKeyword(KeywordMain.groovy:74)\r\n\tat com.kms.katalon.core.keyword.internal.KeywordMain.runKeyword(KeywordMain.groovy:68)\r\n\tat com.kms.katalon.core.keyword.internal.KeywordMain$runKeyword.call(Unknown Source)\r\n\tat com.kms.katalon.core.cucumber.keyword.CucumberBuiltinKeywords.runFeatureFile(CucumberBuiltinKeywords.groovy:75)\r\n\tat com.kms.katalon.core.cucumber.keyword.CucumberBuiltinKeywords$runFeatureFile$0.callStatic(Unknown Source)\r\n\tat com.kms.katalon.core.cucumber.keyword.CucumberBuiltinKeywords.runFeatureFile(CucumberBuiltinKeywords.groovy:248)\r\n\tat com.kms.katalon.core.cucumber.keyword.CucumberBuiltinKeywords$runFeatureFile.call(Unknown Source)\r\n\tat Demo.run(Demo:22)\r\n\tat com.kms.katalon.core.main.ScriptEngine.run(ScriptEngine.java:194)\r\n\tat com.kms.katalon.core.main.ScriptEngine.runScriptAsRawText(ScriptEngine.java:119)\r\n\tat com.kms.katalon.core.main.TestCaseExecutor.runScript(TestCaseExecutor.java:445)\r\n\tat com.kms.katalon.core.main.TestCaseExecutor.doExecute(TestCaseExecutor.java:436)\r\n\tat com.kms.katalon.core.main.TestCaseExecutor.processExecutionPhase(TestCaseExecutor.java:415)\r\n\tat com.kms.katalon.core.main.TestCaseExecutor.accessMainPhase(TestCaseExecutor.java:407)\r\n\tat com.kms.katalon.core.main.TestCaseExecutor.execute(TestCaseExecutor.java:284)\r\n\tat com.kms.katalon.core.common.CommonExecutor.accessTestCaseMainPhase(CommonExecutor.java:65)\r\n\tat com.kms.katalon.core.main.TestSuiteExecutor.accessTestSuiteMainPhase(TestSuiteExecutor.java:144)\r\n\tat com.kms.katalon.core.main.TestSuiteExecutor.execute(TestSuiteExecutor.java:106)\r\n\tat com.kms.katalon.core.main.TestCaseMain.startTestSuite(TestCaseMain.java:185)\r\n\tat com.kms.katalon.core.main.TestCaseMain$startTestSuite$0.call(Unknown Source)\r\n\tat TempTestSuite1653328354543.run(TempTestSuite1653328354543.groovy:36)\r\n",
              "duration": 923269500,
              "status": "failed"
            },
            "line": 19,
            "name": "I am on the correct \"https://www.babson.edu/academics/graduate-school/certificate-in-advanced-management/thank-you/\" page",
            "match": {
              "arguments": [
                {
                  "val": "\"https://www.babson.edu/academics/graduate-school/certificate-in-advanced-management/thank-you/\"",
                  "offset": 20
                }
              ],
              "location": "Grad152.thankYouPage(String)"
            },
            "keyword": "And ",
            "BDD_STEP_UUID": "85a5e9cc-6b29-41d1-99e8-7ee551451ddd"
          },
          {
            "result": {
              "status": "skipped"
            },
            "line": 20,
            "name": "I get the submit request",
            "match": {
              "location": "Grad152.submitRequest()"
            },
            "keyword": "And ",
            "BDD_STEP_UUID": "ac577954-5684-4994-8a40-8ee206f81975"
          },
          {
            "result": {
              "status": "skipped"
            },
            "line": 21,
            "name": "I delete the form record",
            "match": {
              "location": "Grad152.deleteRequest()"
            },
            "keyword": "Then ",
            "BDD_STEP_UUID": "10ed5030-e497-4007-b5ba-ea7f2392884d"
          }
        ],
        "tags": [
          {
            "name": "@Form"
          },
          {
            "name": "@152"
          },
          {
            "name": "@Graduate"
          },
          {
            "name": "@Grad"
          },
          {
            "name": "@152"
          }
        ]
      }
    ],
    "name": "academics/graduate-school",
    "description": "  I want to submit and verify form submits with the correct data",
    "id": "academics/graduate-school",
    "keyword": "Feature",
    "uri": "C:/Users/rkeough/git/babson-automation/Include/features/Forms/Demo.feature",
    "tags": [
      {
        "name": "@Form",
        "type": "Tag",
        "location": {
          "line": 1,
          "column": 1
        }
      },
      {
        "name": "@152",
        "type": "Tag",
        "location": {
          "line": 1,
          "column": 7
        }
      },
      {
        "name": "@Graduate",
        "type": "Tag",
        "location": {
          "line": 1,
          "column": 12
        }
      }
    ]
  }
]