Suite/Test/Step Name,Browser,Description,Tag,Start time,End time,Duration,Status
Drupal_Check,Chrome 124.0.0.0,,,2024-04-24 13:19:18,2024-04-24 13:20:12,53.411s,PASSED
,,,,,,,
Test Cases/Drupal/Student_Portal_Homepage,Chrome 124.0.0.0,,,2024-04-24 13:19:18,2024-04-24 13:19:44,25.883s,PASSED
"openBrowser("""")",Chrome 124.0.0.0,,,2024-04-24 13:19:19,2024-04-24 13:19:21,2.071s,PASSED
maximizeWindow(),Chrome 124.0.0.0,,,2024-04-24 13:19:21,2024-04-24 13:19:21,0.138s,PASSED
"navigateToUrl(""https://intranet.babson.edu/user/login"")",Chrome 124.0.0.0,,,2024-04-24 13:19:21,2024-04-24 13:19:22,1.185s,PASSED
delay(3),Chrome 124.0.0.0,,,2024-04-24 13:19:22,2024-04-24 13:19:25,3.031s,PASSED
"setText(findTestObject(""Object Repository/Drupal/input_Username_name""), ""test_editor"")",Chrome 124.0.0.0,,,2024-04-24 13:19:25,2024-04-24 13:19:26,0.679s,PASSED
"setEncryptedText(findTestObject(""Drupal/input_Password_pass""), ""idh87fIpnxr/jR6LHqLNqQ=="")",Chrome 124.0.0.0,,,2024-04-24 13:19:26,2024-04-24 13:19:26,0.425s,PASSED
"click(findTestObject(""Object Repository/Drupal/input_Federated login_op""))",Chrome 124.0.0.0,,,2024-04-24 13:19:26,2024-04-24 13:19:33,6.586s,PASSED
delay(5),Chrome 124.0.0.0,,,2024-04-24 13:19:33,2024-04-24 13:19:38,5.012s,PASSED
"click(findTestObject(""Object Repository/EduHomepage/Student Portal_Menu""))",Chrome 124.0.0.0,,,2024-04-24 13:19:38,2024-04-24 13:19:43,4.813s,PASSED
"click(findTestObject(""Drupal/TrendingLinksText""))",Chrome 124.0.0.0,,,2024-04-24 13:19:43,2024-04-24 13:19:43,0.567s,PASSED
"click(findTestObject(""Drupal/EventsText""))",Chrome 124.0.0.0,,,2024-04-24 13:19:43,2024-04-24 13:19:44,0.427s,PASSED
closeBrowser(),Chrome 124.0.0.0,,,2024-04-24 13:19:44,2024-04-24 13:19:44,0.680s,PASSED
Start listener action : sampleAfterTestCase,Chrome 124.0.0.0,,,2024-04-24 13:19:44,2024-04-24 13:19:44,0.010s,PASSED
Start listener action : sampleAfterTestCase,Chrome 124.0.0.0,,,2024-04-24 13:19:44,2024-04-24 13:19:44,0.003s,PASSED
,,,,,,,
Test Cases/Drupal/IT_Portal_Homepage,Chrome 124.0.0.0,,,2024-04-24 13:19:44,2024-04-24 13:20:12,27.354s,PASSED
"openBrowser("""")",Chrome 124.0.0.0,,,2024-04-24 13:19:45,2024-04-24 13:19:46,1.364s,PASSED
maximizeWindow(),Chrome 124.0.0.0,,,2024-04-24 13:19:46,2024-04-24 13:19:46,0.139s,PASSED
"navigateToUrl(""https://intranet.babson.edu/user/login"")",Chrome 124.0.0.0,,,2024-04-24 13:19:46,2024-04-24 13:19:47,1.167s,PASSED
delay(3),Chrome 124.0.0.0,,,2024-04-24 13:19:47,2024-04-24 13:19:50,3.006s,PASSED
"setText(findTestObject(""Object Repository/Drupal/input_Username_name""), ""test_editor"")",Chrome 124.0.0.0,,,2024-04-24 13:19:50,2024-04-24 13:19:51,0.662s,PASSED
"setEncryptedText(findTestObject(""Drupal/input_Password_pass""), ""idh87fIpnxr/jR6LHqLNqQ=="")",Chrome 124.0.0.0,,,2024-04-24 13:19:51,2024-04-24 13:19:51,0.389s,PASSED
"click(findTestObject(""Object Repository/Drupal/input_Federated login_op""))",Chrome 124.0.0.0,,,2024-04-24 13:19:51,2024-04-24 13:19:56,4.976s,PASSED
delay(5),Chrome 124.0.0.0,,,2024-04-24 13:19:56,2024-04-24 13:20:01,5.010s,PASSED
"navigateToUrl(""https://intranet.babson.edu/it"")",Chrome 124.0.0.0,,,2024-04-24 13:20:01,2024-04-24 13:20:04,2.940s,PASSED
delay(5),Chrome 124.0.0.0,,,2024-04-24 13:20:04,2024-04-24 13:20:09,5.015s,PASSED
"click(findTestObject(""Object Repository/Drupal/Information_Technology_Menu""))",Chrome 124.0.0.0,,,2024-04-24 13:20:09,2024-04-24 13:20:11,1.330s,PASSED
"click(findTestObject(""Object Repository/Drupal/SearchText""))",Chrome 124.0.0.0,,,2024-04-24 13:20:11,2024-04-24 13:20:11,0.497s,PASSED
closeBrowser(),Chrome 124.0.0.0,,,2024-04-24 13:20:11,2024-04-24 13:20:12,0.655s,PASSED
Start listener action : sampleAfterTestCase,Chrome 124.0.0.0,,,2024-04-24 13:20:12,2024-04-24 13:20:12,0.009s,PASSED
Start listener action : sampleAfterTestCase,Chrome 124.0.0.0,,,2024-04-24 13:20:12,2024-04-24 13:20:12,0.005s,PASSED
