Suite/Test/Step Name,Browser,Description,Tag,Start time,End time,Duration,Status
StudentPortal_Check,Chrome 115.0.0.0,,,2023-08-04 15:55:53,2023-08-04 15:56:07,14.519s,ERROR
,,,,,,,
Test Cases/StudentPortal_Check,Chrome 115.0.0.0,,,2023-08-04 15:55:53,2023-08-04 15:56:07,14.295s,ERROR
"openBrowser("""")",Chrome 115.0.0.0,,,2023-08-04 15:55:53,2023-08-04 15:55:55,2.316s,PASSED
maximizeWindow(),Chrome 115.0.0.0,,,2023-08-04 15:55:55,2023-08-04 15:55:55,0.137s,PASSED
"navigateToUrl(""https://intranet.babson.edu/user/login"")",Chrome 115.0.0.0,,,2023-08-04 15:55:55,2023-08-04 15:55:57,1.435s,PASSED
"setText(findTestObject(""Object Repository/drupal/input_Username_name""), ""test_student"")",Chrome 115.0.0.0,,,2023-08-04 15:55:57,2023-08-04 15:55:58,1.051s,PASSED
"setEncryptedText(findTestObject(""Object Repository/drupal/input_Password_pass""), ""lazf3NoY6jXdF6AuwmRd3g=="")",Chrome 115.0.0.0,,,2023-08-04 15:55:58,2023-08-04 15:55:58,0.451s,PASSED
"click(findTestObject(""Object Repository/drupal/input_Federated login_op""))",Chrome 115.0.0.0,,,2023-08-04 15:55:58,2023-08-04 15:56:04,5.572s,PASSED
delay(3),Chrome 115.0.0.0,,,2023-08-04 15:56:04,2023-08-04 15:56:07,3.036s,PASSED
takeFullPageScreenshotAsCheckpoint(homepage),Chrome 115.0.0.0,,,2023-08-04 15:56:07,2023-08-04 15:56:07,0.018s,ERROR
