{
  "log" : {
    "version" : "1.2",
    "pages" : [ ],
    "entries" : [ {
      "startedDateTime" : "2022-11-04T14:43:23.260Z",
      "request" : {
        "method" : "PUT",
        "url" : "https://fusionmx.babson.edu/Services/ERXDeleteContact.cfm?deleteContactInfoEmail=larry21%40babson-test.com&PPP=COVID2020%21UA",
        "httpVersion" : "",
        "cookies" : [ ],
        "headers" : [ ],
        "queryString" : [ {
          "name" : "deleteContactInfoEmail",
          "value" : "larry21@babson-test.com"
        }, {
          "name" : "PPP",
          "value" : "COVID2020!UA"
        } ],
        "headersSize" : 0,
        "bodySize" : 0,
        "comment" : ""
      },
      "response" : {
        "status" : 411,
        "statusText" : "",
        "httpVersion" : "",
        "cookies" : [ ],
        "headers" : [ {
          "name" : "Server",
          "value" : "Microsoft-HTTPAPI/2.0"
        }, {
          "name" : "Connection",
          "value" : "close"
        }, {
          "name" : "#status#",
          "value" : "HTTP/1.1 411 Length Required"
        }, {
          "name" : "Content-Length",
          "value" : "344"
        }, {
          "name" : "Date",
          "value" : "Fri, 04 Nov 2022 14:43:23 GMT"
        }, {
          "name" : "Content-Type",
          "value" : "text/html; charset=us-ascii"
        } ],
        "content" : {
          "size" : 344,
          "mimeType" : "text/html; charset=us-ascii",
          "text" : "<!DOCTYPE HTML PUBLIC \"-//W3C//DTD HTML 4.01//EN\"\"http://www.w3.org/TR/html4/strict.dtd\">\r\n<HTML><HEAD><TITLE>Length Required</TITLE>\r\n<META HTTP-EQUIV=\"Content-Type\" Content=\"text/html; charset=us-ascii\"></HEAD>\r\n<BODY><h2>Length Required</h2>\r\n<hr><p>HTTP Error 411. The request must be chunked or have a content length.</p>\r\n</BODY></HTML>\r\n",
          "comment" : ""
        },
        "redirectURL" : "",
        "headersSize" : 131,
        "bodySize" : 344,
        "comment" : ""
      },
      "cache" : { },
      "timings" : {
        "comment" : "",
        "dns" : -1,
        "receive" : 0,
        "blocked" : -1,
        "send" : 0,
        "connect" : 0,
        "wait" : 0,
        "ssl" : -1
      },
      "comment" : "",
      "_katalonRequestInformation" : {
        "name" : "11",
        "testObjectId" : "Object Repository/FormFields/DeleteForm",
        "harId" : "a645fc7d-f927-4a55-928e-cb49d9bf0f96",
        "reportFolder" : null
      },
      "time" : 0
    } ],
    "comment" : ""
  }
}