[
  {
    "line": 2,
    "elements": [
      {
        "BDD_TESTRUN_UUID": "126b6536-3d4c-4346-9efe-986d857f58cf",
        "line": 6,
        "name": "Check the third party spam box",
        "description": "",
        "id": "update-third-party-spam-on-form-assembly;check-the-third-party-spam-box",
        "type": "scenario",
        "keyword": "Scenario",
        "steps": [
          {
            "result": {
              "duration": 11398730400,
              "status": "passed"
            },
            "line": 7,
            "name": "I log into Form Assembly",
            "match": {
              "location": "FormAssemblySpam.LogIntoFormAssembly()"
            },
            "keyword": "Given ",
            "BDD_STEP_UUID": "3beb0c5c-ed00-49fc-8a64-8138732db63e"
          },
          {
            "result": {
              "duration": 1651831500,
              "status": "passed"
            },
            "line": 8,
            "name": "I click the spam box",
            "match": {
              "location": "FormAssemblySpam.ClickSpamBox()"
            },
            "keyword": "And ",
            "BDD_STEP_UUID": "2212352f-702e-447e-961d-c67cb77129a8"
          },
          {
            "result": {
              "duration": 6043914600,
              "status": "passed"
            },
            "line": 9,
            "name": "I click the Apply button",
            "match": {
              "location": "FormAssemblySpam.ClickApplyButton()"
            },
            "keyword": "Then ",
            "BDD_STEP_UUID": "406a247a-f157-4d42-b969-9c6c2e5350e9"
          }
        ],
        "tags": [
          {
            "name": "@FormAssembly"
          },
          {
            "name": "@FormAssembly"
          }
        ]
      }
    ],
    "name": "Update third party spam on Form Assembly",
    "description": "  I want to change the third party spam box so automation can run",
    "id": "update-third-party-spam-on-form-assembly",
    "keyword": "Feature",
    "uri": "C:/Users/rkeough/git/babson-automation/Include/features/Forms/FormAssemblySpam.feature",
    "tags": [
      {
        "name": "@FormAssembly",
        "type": "Tag",
        "location": {
          "line": 1,
          "column": 1
        }
      }
    ]
  }
]