Suite/Test/Step Name,Browser,Description,Tag,Start time,End time,Duration,Status
StudentPortal_Check,Chrome 120.0.0.0,,,2024-01-10 13:37:51,2024-01-10 13:38:13,22.090s,PASSED
,,,,,,,
Test Cases/Drupal/StudentPortal_Check,Chrome 120.0.0.0,,,2024-01-10 13:37:51,2024-01-10 13:38:13,21.915s,PASSED
"openBrowser("""")",Chrome 120.0.0.0,,,2024-01-10 13:37:52,2024-01-10 13:37:54,2.406s,PASSED
"navigateToUrl(""https://intranet.babson.edu/user/login"")",Chrome 120.0.0.0,,,2024-01-10 13:37:54,2024-01-10 13:37:55,1.358s,PASSED
delay(3),Chrome 120.0.0.0,,,2024-01-10 13:37:55,2024-01-10 13:37:58,3.029s,PASSED
"setText(findTestObject(""Object Repository/drupal/input_Username_name""), ""test_editor"")",Chrome 120.0.0.0,,,2024-01-10 13:37:58,2024-01-10 13:37:59,0.709s,PASSED
"setEncryptedText(findTestObject(""Object Repository/drupal/input_Password_pass""), ""idh87fIpnxr/jR6LHqLNqQ=="")",Chrome 120.0.0.0,,,2024-01-10 13:37:59,2024-01-10 13:38:00,0.403s,PASSED
"click(findTestObject(""Object Repository/drupal/input_Federated login_op""))",Chrome 120.0.0.0,,,2024-01-10 13:38:00,2024-01-10 13:38:04,4.881s,PASSED
delay(3),Chrome 120.0.0.0,,,2024-01-10 13:38:04,2024-01-10 13:38:08,3.012s,PASSED
"takeFullPageScreenshotAsCheckpoint(""homepage"")",Chrome 120.0.0.0,,,2024-01-10 13:38:08,2024-01-10 13:38:11,3.188s,PASSED
delay(2),Chrome 120.0.0.0,,,2024-01-10 13:38:11,2024-01-10 13:38:13,2.016s,PASSED
closeBrowser(),Chrome 120.0.0.0,,,2024-01-10 13:38:13,2024-01-10 13:38:13,0.645s,PASSED
Start listener action : sampleAfterTestCase,Chrome 120.0.0.0,,,2024-01-10 13:38:13,2024-01-10 13:38:13,0.017s,PASSED
