Suite/Test/Step Name,Browser,Description,Tag,Start time,End time,Duration,Status
453,Chrome 123.0.0.0,,,2024-04-05 13:26:22,2024-04-05 13:26:49,26.728s,PASSED
,,,,,,,
Test Cases/Forms/453,Chrome 123.0.0.0,,,2024-04-05 13:26:23,2024-04-05 13:26:49,26.400s,PASSED
"openBrowser(""https://www.babson.edu"")",Chrome 123.0.0.0,,,2024-04-05 13:26:23,2024-04-05 13:26:29,5.561s,PASSED
"setViewPortSize(1536, 960)",Chrome 123.0.0.0,,,2024-04-05 13:26:29,2024-04-05 13:26:29,0.185s,PASSED
"click(findTestObject(""policy/privacyPolicy""))",Chrome 123.0.0.0,,,2024-04-05 13:26:29,2024-04-05 13:26:30,1.393s,PASSED
navigateToUrl(form),Chrome 123.0.0.0,,,2024-04-05 13:26:30,2024-04-05 13:26:32,1.753s,PASSED
"setText(findTestObject(""FormFields/inputFirstName""), ""Test"")",Chrome 123.0.0.0,,,2024-04-05 13:26:32,2024-04-05 13:26:33,1.087s,PASSED
"setText(findTestObject(""FormFields/inputLastName""), ""erxtest"")",Chrome 123.0.0.0,,,2024-04-05 13:26:33,2024-04-05 13:26:34,0.873s,PASSED
"setText(findTestObject(""FormFields/inputEmail""), ""erxtest@babson-test.com"")",Chrome 123.0.0.0,,,2024-04-05 13:26:34,2024-04-05 13:26:35,0.790s,PASSED
"selectOptionByValue(findTestObject(""FormFields/selectPOI""), program, false)",Chrome 123.0.0.0,,,2024-04-05 13:26:35,2024-04-05 13:26:36,0.835s,PASSED
"selectOptionByValue(findTestObject(""FormFields/selectTOE""), term, false)",Chrome 123.0.0.0,,,2024-04-05 13:26:36,2024-04-05 13:26:36,0.814s,PASSED
"setText(findTestObject(""FormFields/inputPhoneNumber""), ""1011010111"")",Chrome 123.0.0.0,,,2024-04-05 13:26:36,2024-04-05 13:26:37,0.875s,PASSED
"selectOptionByLabel(findTestObject(""FormFields/selectCountry""), ""Barbados"", false)",Chrome 123.0.0.0,,,2024-04-05 13:26:37,2024-04-05 13:26:38,0.656s,PASSED
"setText(findTestObject(""FormFields/inputState""), ""TestState"")",Chrome 123.0.0.0,,,2024-04-05 13:26:38,2024-04-05 13:26:39,0.889s,PASSED
"setText(findTestObject(""FormFields/inputCity""), ""TestCity"")",Chrome 123.0.0.0,,,2024-04-05 13:26:39,2024-04-05 13:26:39,0.658s,PASSED
"setText(findTestObject(""FormFields/PostalCode""), ""11111"")",Chrome 123.0.0.0,,,2024-04-05 13:26:39,2024-04-05 13:26:40,0.816s,PASSED
"click(findTestObject(""FormFields/clickSubmit""))",Chrome 123.0.0.0,,,2024-04-05 13:26:40,2024-04-05 13:26:45,4.962s,PASSED
delay(3),Chrome 123.0.0.0,,,2024-04-05 13:26:45,2024-04-05 13:26:48,3.028s,PASSED
tyurl = getUrl(),Chrome 123.0.0.0,,,2024-04-05 13:26:48,2024-04-05 13:26:48,0.016s,PASSED
"verifyEqual(tyurl, thankYou)",Chrome 123.0.0.0,,,2024-04-05 13:26:48,2024-04-05 13:26:48,0.007s,PASSED
Start tear down : tearDownTestCase,Chrome 123.0.0.0,,,2024-04-05 13:26:48,2024-04-05 13:26:49,0.190s,PASSED
Start listener action : sampleAfterTestCase,Chrome 123.0.0.0,,,2024-04-05 13:26:49,2024-04-05 13:26:49,0.660s,PASSED
Start listener action : sampleAfterTestCase,Chrome 123.0.0.0,,,2024-04-05 13:26:49,2024-04-05 13:26:49,0.006s,PASSED
