Suite/Test/Step Name,Browser,Description,Tag,Start time,End time,Duration,Status
152,Chrome 121.0.0.0,,,2024-02-15 16:10:22,2024-02-15 16:10:30,7.994s,ERROR
,,,,,,,
Test Cases/GradForms/Grad152,Chrome 121.0.0.0,,,2024-02-15 16:10:22,2024-02-15 16:10:30,7.822s,ERROR
"openBrowser(""www.babson.edu"")",Chrome 121.0.0.0,,,2024-02-15 16:10:23,2024-02-15 16:10:29,6.137s,PASSED
maximizeWindow(),Chrome 121.0.0.0,,,2024-02-15 16:10:29,2024-02-15 16:10:29,0.171s,PASSED
navigateToUrl(form),Chrome 121.0.0.0,,,2024-02-15 16:10:29,2024-02-15 16:10:29,0.058s,ERROR
Start listener action : sampleAfterTestCase,Chrome 121.0.0.0,,,2024-02-15 16:10:29,2024-02-15 16:10:30,0.631s,PASSED
