[
  {
    "line": 2,
    "elements": [
      {
        "BDD_TESTRUN_UUID": "0dbb1390-7be2-4afc-ae42-360a561c8c18",
        "line": 25,
        "name": "Submit Certificate Management Form",
        "description": "",
        "id": "admission/graduate-school/certificate-in-advanced-management/;submit-certificate-management-form;;2",
        "type": "scenario",
        "keyword": "Scenario Outline",
        "steps": [
          {
            "result": {
              "duration": 5307307600,
              "status": "passed"
            },
            "line": 7,
            "name": "I am on the homepage",
            "match": {
              "location": "Graduate152.Homepage()"
            },
            "keyword": "Given ",
            "BDD_STEP_UUID": "500daf2e-8624-475f-ad73-fb921d0d671e"
          },
          {
            "result": {
              "duration": 2088818800,
              "status": "passed"
            },
            "line": 8,
            "name": "I am on the form \"https://www.babson.edu/academics/graduate-school/\" page",
            "match": {
              "arguments": [
                {
                  "val": "\"https://www.babson.edu/academics/graduate-school/\"",
                  "offset": 17
                }
              ],
              "location": "Graduate152.FormPage(String)"
            },
            "keyword": "When ",
            "BDD_STEP_UUID": "328e9073-35b1-4e0b-bab8-fa5686e13c12"
          },
          {
            "result": {
              "duration": 2251688400,
              "status": "passed"
            },
            "line": 9,
            "name": "I input the first and last name on the form",
            "match": {
              "location": "Graduate152.FirstLastName()"
            },
            "keyword": "And ",
            "BDD_STEP_UUID": "2e6fdd07-bdac-4382-8525-0dcffb2be27e"
          },
          {
            "result": {
              "duration": 889089700,
              "status": "passed"
            },
            "line": 10,
            "name": "I input an email address",
            "match": {
              "location": "Graduate152.inputEmail()"
            },
            "keyword": "And ",
            "BDD_STEP_UUID": "62a5182c-79cd-4b09-855b-eb5fe9f240eb"
          },
          {
            "result": {
              "duration": 820320700,
              "status": "passed"
            },
            "line": 11,
            "name": "I select a program \"tfa_1184\"",
            "match": {
              "arguments": [
                {
                  "val": "\"tfa_1184\"",
                  "offset": 19
                }
              ],
              "location": "Graduate152.SelectAProgramOfInterest(String)"
            },
            "keyword": "And ",
            "BDD_STEP_UUID": "28187fe5-4199-4c7e-92e3-d4bea5a1c6b8"
          },
          {
            "result": {
              "duration": 892025400,
              "status": "passed"
            },
            "line": 12,
            "name": "I select a term \"tfa_1186\"",
            "match": {
              "arguments": [
                {
                  "val": "\"tfa_1186\"",
                  "offset": 16
                }
              ],
              "location": "Graduate152.SelectATermOfEnrollment(String)"
            },
            "keyword": "And ",
            "BDD_STEP_UUID": "45d8c4b6-4d65-4c3c-a3f7-415b4992e54f"
          },
          {
            "result": {
              "duration": 754353900,
              "status": "passed"
            },
            "line": 13,
            "name": "I input a phone number",
            "match": {
              "location": "Graduate152.inputPhoneNumber()"
            },
            "keyword": "And ",
            "BDD_STEP_UUID": "0635ab06-a191-4a5d-90b0-3ac44886e14e"
          },
          {
            "result": {
              "duration": 728761400,
              "status": "passed"
            },
            "line": 14,
            "name": "I select a country",
            "match": {
              "location": "Graduate152.SelectACountry()"
            },
            "keyword": "And ",
            "BDD_STEP_UUID": "769dc80c-b1f8-47c0-a0f8-ada87f86a2cb"
          },
          {
            "result": {
              "duration": 759413200,
              "status": "passed"
            },
            "line": 15,
            "name": "I input a state",
            "match": {
              "location": "Graduate152.inputState()"
            },
            "keyword": "And ",
            "BDD_STEP_UUID": "1a7c9d59-e621-4f00-8c50-bc6826644a25"
          },
          {
            "result": {
              "duration": 828158000,
              "status": "passed"
            },
            "line": 16,
            "name": "I input a city",
            "match": {
              "location": "Graduate152.inputCity()"
            },
            "keyword": "And ",
            "BDD_STEP_UUID": "88e6b857-acd4-4ccd-a547-f45cf32094d6"
          },
          {
            "result": {
              "duration": 894417300,
              "status": "passed"
            },
            "line": 17,
            "name": "I input the postal code",
            "match": {
              "location": "Graduate152.inputPostalZode()"
            },
            "keyword": "And ",
            "BDD_STEP_UUID": "261a5d26-130f-4297-afad-0dff5dce664a"
          },
          {
            "result": {
              "duration": 5682779200,
              "status": "passed"
            },
            "line": 18,
            "name": "I click the submit button",
            "match": {
              "location": "Graduate152.clickSubmit()"
            },
            "keyword": "And ",
            "BDD_STEP_UUID": "6fc3050e-7b08-4206-afc5-857eec6251f5"
          },
          {
            "result": {
              "duration": 1919087800,
              "status": "passed"
            },
            "line": 19,
            "name": "I am on the correct \"https://www.babson.edu/graduate/admissions/thank-you/\" page",
            "match": {
              "arguments": [
                {
                  "val": "\"https://www.babson.edu/graduate/admissions/thank-you/\"",
                  "offset": 20
                }
              ],
              "location": "Graduate152.thankYouPage(String)"
            },
            "keyword": "And ",
            "BDD_STEP_UUID": "3067fdb5-57c3-4286-b54c-351ab083c136"
          },
          {
            "result": {
              "duration": 2242483400,
              "status": "passed"
            },
            "line": 20,
            "name": "I get the submit request",
            "match": {
              "location": "Graduate152.submitRequest()"
            },
            "keyword": "And ",
            "BDD_STEP_UUID": "0606b5e7-5c83-4609-ae98-cc911e33b8f6"
          },
          {
            "result": {
              "duration": 3389863800,
              "status": "passed"
            },
            "line": 21,
            "name": "I delete the form record",
            "match": {
              "location": "Graduate152.deleteRequest()"
            },
            "keyword": "Then ",
            "BDD_STEP_UUID": "6c988104-7e72-49a3-9310-5a8d344dcbea"
          }
        ],
        "tags": [
          {
            "name": "@Form"
          },
          {
            "name": "@152"
          },
          {
            "name": "@Graduate"
          },
          {
            "name": "@Grad"
          },
          {
            "name": "@152"
          },
          {
            "name": "@smoke"
          }
        ]
      },
      {
        "BDD_TESTRUN_UUID": "8e20d066-4742-4207-b40b-3bef23a35021",
        "line": 26,
        "name": "Submit Certificate Management Form",
        "description": "",
        "id": "admission/graduate-school/certificate-in-advanced-management/;submit-certificate-management-form;;3",
        "type": "scenario",
        "keyword": "Scenario Outline",
        "steps": [
          {
            "result": {
              "duration": 5925875900,
              "status": "passed"
            },
            "line": 7,
            "name": "I am on the homepage",
            "match": {
              "location": "Graduate152.Homepage()"
            },
            "keyword": "Given ",
            "BDD_STEP_UUID": "32dbd2c4-754d-48ad-b5f6-b5603c3d2aa8"
          },
          {
            "result": {
              "duration": 2268519100,
              "status": "passed"
            },
            "line": 8,
            "name": "I am on the form \"https://www.babson.edu/academics/graduate-school/mba/full-time-mba/\" page",
            "match": {
              "arguments": [
                {
                  "val": "\"https://www.babson.edu/academics/graduate-school/mba/full-time-mba/\"",
                  "offset": 17
                }
              ],
              "location": "Graduate152.FormPage(String)"
            },
            "keyword": "When ",
            "BDD_STEP_UUID": "22aec8ef-2959-4b0b-b97b-180234a2489b"
          },
          {
            "result": {
              "duration": 2195597600,
              "status": "passed"
            },
            "line": 9,
            "name": "I input the first and last name on the form",
            "match": {
              "location": "Graduate152.FirstLastName()"
            },
            "keyword": "And ",
            "BDD_STEP_UUID": "79383eb0-6f5c-4634-8d73-710e34faaf0a"
          },
          {
            "result": {
              "duration": 893643200,
              "status": "passed"
            },
            "line": 10,
            "name": "I input an email address",
            "match": {
              "location": "Graduate152.inputEmail()"
            },
            "keyword": "And ",
            "BDD_STEP_UUID": "3138c997-8abe-4866-b793-6459c6ae71ad"
          },
          {
            "result": {
              "duration": 877685000,
              "status": "passed"
            },
            "line": 11,
            "name": "I select a program \"tfa_1184\"",
            "match": {
              "arguments": [
                {
                  "val": "\"tfa_1184\"",
                  "offset": 19
                }
              ],
              "location": "Graduate152.SelectAProgramOfInterest(String)"
            },
            "keyword": "And ",
            "BDD_STEP_UUID": "e1c31bc6-f387-4279-9217-caaffd23577e"
          },
          {
            "result": {
              "duration": 854847200,
              "status": "passed"
            },
            "line": 12,
            "name": "I select a term \"tfa_1257\"",
            "match": {
              "arguments": [
                {
                  "val": "\"tfa_1257\"",
                  "offset": 16
                }
              ],
              "location": "Graduate152.SelectATermOfEnrollment(String)"
            },
            "keyword": "And ",
            "BDD_STEP_UUID": "478d8677-9481-4406-94c2-8317e64f5e40"
          },
          {
            "result": {
              "duration": 736025700,
              "status": "passed"
            },
            "line": 13,
            "name": "I input a phone number",
            "match": {
              "location": "Graduate152.inputPhoneNumber()"
            },
            "keyword": "And ",
            "BDD_STEP_UUID": "1d2db964-a252-4db4-8bda-076138c7c853"
          },
          {
            "result": {
              "duration": 711026200,
              "status": "passed"
            },
            "line": 14,
            "name": "I select a country",
            "match": {
              "location": "Graduate152.SelectACountry()"
            },
            "keyword": "And ",
            "BDD_STEP_UUID": "7b4adba3-9aad-434f-8211-8daabc192506"
          },
          {
            "result": {
              "duration": 819224100,
              "status": "passed"
            },
            "line": 15,
            "name": "I input a state",
            "match": {
              "location": "Graduate152.inputState()"
            },
            "keyword": "And ",
            "BDD_STEP_UUID": "fba287d9-2a1e-4334-a857-2cfb4de5213f"
          },
          {
            "result": {
              "duration": 820133400,
              "status": "passed"
            },
            "line": 16,
            "name": "I input a city",
            "match": {
              "location": "Graduate152.inputCity()"
            },
            "keyword": "And ",
            "BDD_STEP_UUID": "9d3041bf-e8dd-4a31-9921-47d6ad929f57"
          },
          {
            "result": {
              "duration": 860539800,
              "status": "passed"
            },
            "line": 17,
            "name": "I input the postal code",
            "match": {
              "location": "Graduate152.inputPostalZode()"
            },
            "keyword": "And ",
            "BDD_STEP_UUID": "7cd64dfa-5534-4759-9f9a-588484702ba3"
          },
          {
            "result": {
              "duration": 6126741100,
              "status": "passed"
            },
            "line": 18,
            "name": "I click the submit button",
            "match": {
              "location": "Graduate152.clickSubmit()"
            },
            "keyword": "And ",
            "BDD_STEP_UUID": "01f808ff-eafb-49d4-aa12-7d88a894bed7"
          },
          {
            "result": {
              "duration": 1547792500,
              "status": "passed"
            },
            "line": 19,
            "name": "I am on the correct \"https://www.babson.edu/graduate/admissions/thank-you/\" page",
            "match": {
              "arguments": [
                {
                  "val": "\"https://www.babson.edu/graduate/admissions/thank-you/\"",
                  "offset": 20
                }
              ],
              "location": "Graduate152.thankYouPage(String)"
            },
            "keyword": "And ",
            "BDD_STEP_UUID": "3b9cbf03-619e-4ec8-a7b7-d238adef4617"
          },
          {
            "result": {
              "duration": 2218779000,
              "status": "passed"
            },
            "line": 20,
            "name": "I get the submit request",
            "match": {
              "location": "Graduate152.submitRequest()"
            },
            "keyword": "And ",
            "BDD_STEP_UUID": "40f8b9d3-b404-45e1-bca3-879265f3cc01"
          },
          {
            "result": {
              "duration": 4413844600,
              "status": "passed"
            },
            "line": 21,
            "name": "I delete the form record",
            "match": {
              "location": "Graduate152.deleteRequest()"
            },
            "keyword": "Then ",
            "BDD_STEP_UUID": "f602f104-b4bb-4da3-82c0-f865c72c7445"
          }
        ],
        "tags": [
          {
            "name": "@Form"
          },
          {
            "name": "@152"
          },
          {
            "name": "@Graduate"
          },
          {
            "name": "@Grad"
          },
          {
            "name": "@152"
          },
          {
            "name": "@smoke"
          }
        ]
      },
      {
        "BDD_TESTRUN_UUID": "d5a0b91d-da9e-4bff-a2fb-b6974db64155",
        "line": 27,
        "name": "Submit Certificate Management Form",
        "description": "",
        "id": "admission/graduate-school/certificate-in-advanced-management/;submit-certificate-management-form;;4",
        "type": "scenario",
        "keyword": "Scenario Outline",
        "steps": [
          {
            "result": {
              "duration": 6047670100,
              "status": "passed"
            },
            "line": 7,
            "name": "I am on the homepage",
            "match": {
              "location": "Graduate152.Homepage()"
            },
            "keyword": "Given ",
            "BDD_STEP_UUID": "88b70086-a867-49d0-bf05-2e8a1c292ef3"
          },
          {
            "result": {
              "duration": 3670637700,
              "status": "passed"
            },
            "line": 8,
            "name": "I am on the form \"https://www.babson.edu/business-programs-wes/master-of-science-in-management-in-entrepreneurial-leadership/\" page",
            "match": {
              "arguments": [
                {
                  "val": "\"https://www.babson.edu/business-programs-wes/master-of-science-in-management-in-entrepreneurial-leadership/\"",
                  "offset": 17
                }
              ],
              "location": "Graduate152.FormPage(String)"
            },
            "keyword": "When ",
            "BDD_STEP_UUID": "04ae311f-2b43-4ddc-995e-0976ba476a92"
          },
          {
            "result": {
              "duration": 1667565000,
              "status": "passed"
            },
            "line": 9,
            "name": "I input the first and last name on the form",
            "match": {
              "location": "Graduate152.FirstLastName()"
            },
            "keyword": "And ",
            "BDD_STEP_UUID": "21e8bf74-e7b1-4e23-8987-322b8e25adc0"
          },
          {
            "result": {
              "duration": 801185000,
              "status": "passed"
            },
            "line": 10,
            "name": "I input an email address",
            "match": {
              "location": "Graduate152.inputEmail()"
            },
            "keyword": "And ",
            "BDD_STEP_UUID": "3ee94682-8a7c-466b-bf48-4270ea266351"
          },
          {
            "result": {
              "duration": 889925000,
              "status": "passed"
            },
            "line": 11,
            "name": "I select a program \"tfa_1043\"",
            "match": {
              "arguments": [
                {
                  "val": "\"tfa_1043\"",
                  "offset": 19
                }
              ],
              "location": "Graduate152.SelectAProgramOfInterest(String)"
            },
            "keyword": "And ",
            "BDD_STEP_UUID": "c05e3e11-fdd3-4b89-a7a4-2a68ea122e3e"
          },
          {
            "result": {
              "error_message": "com.kms.katalon.core.exception.StepFailedException: Unable to select option by value \u0027tfa_1188\u0027 of object \u0027Object Repository/FormFields/Grad152/selectTOE\u0027  (Root cause: com.kms.katalon.core.exception.StepFailedException: Unable to select option by value \u0027tfa_1188\u0027 of object \u0027Object Repository/FormFields/Grad152/selectTOE\u0027 \r\n\tat com.kms.katalon.core.webui.keyword.internal.WebUIKeywordMain.stepFailed(WebUIKeywordMain.groovy:64)\r\n\tat com.kms.katalon.core.webui.keyword.internal.WebUIKeywordMain.runKeyword(WebUIKeywordMain.groovy:26)\r\n\tat com.kms.katalon.core.webui.keyword.builtin.SelectOptionByValueKeyword.selectOptionByValue(SelectOptionByValueKeyword.groovy:99)\r\n\tat com.kms.katalon.core.webui.keyword.builtin.SelectOptionByValueKeyword.execute(SelectOptionByValueKeyword.groovy:71)\r\n\tat com.kms.katalon.core.keyword.internal.KeywordExecutor.executeKeywordForPlatform(KeywordExecutor.groovy:74)\r\n\tat com.kms.katalon.core.webui.keyword.WebUiBuiltInKeywords.selectOptionByValue(WebUiBuiltInKeywords.groovy:1168)\r\n\tat com.kms.katalon.core.webui.keyword.WebUiBuiltInKeywords$selectOptionByValue$3.call(Unknown Source)\r\n\tat forms.Graduate152.SelectATermOfEnrollment(Graduate152.groovy:79)\r\n\tat cucumber.runtime.Utils$1.call(Utils.java:26)\r\n\tat cucumber.runtime.Timeout.timeout(Timeout.java:16)\r\n\tat cucumber.runtime.Utils.invoke(Utils.java:20)\r\n\tat cucumber.runtime.java.JavaStepDefinition.execute(JavaStepDefinition.java:48)\r\n\tat cucumber.runtime.PickleStepDefinitionMatch.runStep(PickleStepDefinitionMatch.java:50)\r\n\tat cucumber.runner.TestStep.executeStep(TestStep.java:68)\r\n\tat cucumber.runner.TestStep.run(TestStep.java:50)\r\n\tat cucumber.runner.PickleStepTestStep.run(PickleStepTestStep.java:53)\r\n\tat cucumber.runner.TestCase.run(TestCase.java:47)\r\n\tat cucumber.runner.Runner.runPickle(Runner.java:44)\r\n\tat cucumber.runtime.Runtime.runFeature(Runtime.java:120)\r\n\tat cucumber.runtime.Runtime.run(Runtime.java:106)\r\n\tat cucumber.api.cli.Main.run(Main.java:35)\r\n\tat cucumber.api.cli.Main$run.call(Unknown Source)\r\n\tat com.kms.katalon.core.cucumber.keyword.CucumberBuiltinKeywords$_runFeatureFile_closure1.doCall(CucumberBuiltinKeywords.groovy:108)\r\n\tat com.kms.katalon.core.cucumber.keyword.CucumberBuiltinKeywords$_runFeatureFile_closure1.doCall(CucumberBuiltinKeywords.groovy)\r\n\tat com.kms.katalon.core.keyword.internal.KeywordMain.runKeyword(KeywordMain.groovy:74)\r\n\tat com.kms.katalon.core.keyword.internal.KeywordMain.runKeyword(KeywordMain.groovy:68)\r\n\tat com.kms.katalon.core.keyword.internal.KeywordMain$runKeyword.call(Unknown Source)\r\n\tat com.kms.katalon.core.cucumber.keyword.CucumberBuiltinKeywords.runFeatureFile(CucumberBuiltinKeywords.groovy:75)\r\n\tat com.kms.katalon.core.cucumber.keyword.CucumberBuiltinKeywords$runFeatureFile$0.callStatic(Unknown Source)\r\n\tat com.kms.katalon.core.cucumber.keyword.CucumberBuiltinKeywords.runFeatureFile(CucumberBuiltinKeywords.groovy:248)\r\n\tat com.kms.katalon.core.cucumber.keyword.CucumberBuiltinKeywords$runFeatureFile.call(Unknown Source)\r\n\tat Graduate152.run(Graduate152:20)\r\n\tat com.kms.katalon.core.main.ScriptEngine.run(ScriptEngine.java:194)\r\n\tat com.kms.katalon.core.main.ScriptEngine.runScriptAsRawText(ScriptEngine.java:119)\r\n\tat com.kms.katalon.core.main.TestCaseExecutor.runScript(TestCaseExecutor.java:448)\r\n\tat com.kms.katalon.core.main.TestCaseExecutor.doExecute(TestCaseExecutor.java:439)\r\n\tat com.kms.katalon.core.main.TestCaseExecutor.processExecutionPhase(TestCaseExecutor.java:418)\r\n\tat com.kms.katalon.core.main.TestCaseExecutor.accessMainPhase(TestCaseExecutor.java:410)\r\n\tat com.kms.katalon.core.main.TestCaseExecutor.execute(TestCaseExecutor.java:285)\r\n\tat com.kms.katalon.core.main.TestCaseExecutor.execute(TestCaseExecutor.java:369)\r\n\tat com.kms.katalon.core.common.CommonExecutor.accessTestCaseMainPhase(CommonExecutor.java:65)\r\n\tat com.kms.katalon.core.main.TestSuiteExecutor.accessTestSuiteMainPhase(TestSuiteExecutor.java:151)\r\n\tat com.kms.katalon.core.main.TestSuiteExecutor.execute(TestSuiteExecutor.java:106)\r\n\tat com.kms.katalon.core.main.TestCaseMain.startTestSuite(TestCaseMain.java:185)\r\n\tat com.kms.katalon.core.main.TestCaseMain$startTestSuite$0.call(Unknown Source)\r\n\tat TempTestSuite1667399942804.run(TempTestSuite1667399942804.groovy:36)\r\nCaused by: org.openqa.selenium.NoSuchElementException: Cannot locate option with value: tfa_1188\nFor documentation on this error, please visit: https://www.seleniumhq.org/exceptions/no_such_element.html\nBuild info: version: \u00273.141.59\u0027, revision: \u0027e82be7d358\u0027, time: \u00272018-11-14T08:25:53\u0027\nSystem info: host: \u0027L18-0032\u0027, ip: \u002710.0.0.226\u0027, os.name: \u0027Windows 10\u0027, os.arch: \u0027amd64\u0027, os.version: \u002710.0\u0027, java.version: \u00271.8.0_181\u0027\nDriver info: driver.version: unknown\r\n\tat org.openqa.selenium.support.ui.Select.findOptionsByValue(Select.java:283)\r\n\tat org.openqa.selenium.support.ui.Select.selectByValue(Select.java:186)\r\n\tat com.kms.katalon.core.webui.common.WebUiCommonHelper.selectOrDeselectOptionsByValue(WebUiCommonHelper.java:266)\r\n\tat com.kms.katalon.core.webui.keyword.builtin.SelectOptionByValueKeyword$_selectOptionByValue_closure1.doCall(SelectOptionByValueKeyword.groovy:88)\r\n\tat com.kms.katalon.core.webui.keyword.builtin.SelectOptionByValueKeyword$_selectOptionByValue_closure1.call(SelectOptionByValueKeyword.groovy)\r\n\tat com.kms.katalon.core.webui.keyword.internal.WebUIKeywordMain.runKeyword(WebUIKeywordMain.groovy:20)\r\n\tat com.kms.katalon.core.webui.keyword.builtin.SelectOptionByValueKeyword.selectOptionByValue(SelectOptionByValueKeyword.groovy:99)\r\n\tat com.kms.katalon.core.webui.keyword.builtin.SelectOptionByValueKeyword.execute(SelectOptionByValueKeyword.groovy:71)\r\n\tat com.kms.katalon.core.keyword.internal.KeywordExecutor.executeKeywordForPlatform(KeywordExecutor.groovy:74)\r\n\tat com.kms.katalon.core.webui.keyword.WebUiBuiltInKeywords.selectOptionByValue(WebUiBuiltInKeywords.groovy:1168)\r\n\tat com.kms.katalon.core.webui.keyword.WebUiBuiltInKeywords$selectOptionByValue$3.call(Unknown Source)\r\n\tat forms.Graduate152.SelectATermOfEnrollment(Graduate152.groovy:79)\r\n\tat cucumber.runtime.Utils$1.call(Utils.java:26)\r\n\tat cucumber.runtime.Timeout.timeout(Timeout.java:16)\r\n\tat cucumber.runtime.Utils.invoke(Utils.java:20)\r\n\tat cucumber.runtime.java.JavaStepDefinition.execute(JavaStepDefinition.java:48)\r\n\tat cucumber.runtime.PickleStepDefinitionMatch.runStep(PickleStepDefinitionMatch.java:50)\r\n\tat cucumber.runner.TestStep.executeStep(TestStep.java:68)\r\n\tat cucumber.runner.TestStep.run(TestStep.java:50)\r\n\tat cucumber.runner.PickleStepTestStep.run(PickleStepTestStep.java:53)\r\n\tat cucumber.runner.TestCase.run(TestCase.java:47)\r\n\tat cucumber.runner.Runner.runPickle(Runner.java:44)\r\n\tat cucumber.runtime.Runtime.runFeature(Runtime.java:120)\r\n\tat cucumber.runtime.Runtime.run(Runtime.java:106)\r\n\tat cucumber.api.cli.Main.run(Main.java:35)\r\n\tat cucumber.api.cli.Main$run.call(Unknown Source)\r\n\tat com.kms.katalon.core.cucumber.keyword.CucumberBuiltinKeywords$_runFeatureFile_closure1.doCall(CucumberBuiltinKeywords.groovy:108)\r\n\tat com.kms.katalon.core.cucumber.keyword.CucumberBuiltinKeywords$_runFeatureFile_closure1.doCall(CucumberBuiltinKeywords.groovy)\r\n\tat com.kms.katalon.core.keyword.internal.KeywordMain.runKeyword(KeywordMain.groovy:74)\r\n\tat com.kms.katalon.core.keyword.internal.KeywordMain.runKeyword(KeywordMain.groovy:68)\r\n\tat com.kms.katalon.core.keyword.internal.KeywordMain$runKeyword.call(Unknown Source)\r\n\tat com.kms.katalon.core.cucumber.keyword.CucumberBuiltinKeywords.runFeatureFile(CucumberBuiltinKeywords.groovy:75)\r\n\tat com.kms.katalon.core.cucumber.keyword.CucumberBuiltinKeywords$runFeatureFile$0.callStatic(Unknown Source)\r\n\tat com.kms.katalon.core.cucumber.keyword.CucumberBuiltinKeywords.runFeatureFile(CucumberBuiltinKeywords.groovy:248)\r\n\tat com.kms.katalon.core.cucumber.keyword.CucumberBuiltinKeywords$runFeatureFile.call(Unknown Source)\r\n\tat Script1665597665036.run(Script1665597665036.groovy:20)\r\n\t... 14 more\r\n)\r\n\tat com.kms.katalon.core.keyword.internal.KeywordMain.stepFailed(KeywordMain.groovy:39)\r\n\tat com.kms.katalon.core.webui.keyword.internal.WebUIKeywordMain.stepFailed(WebUIKeywordMain.groovy:64)\r\n\tat com.kms.katalon.core.webui.keyword.internal.WebUIKeywordMain.runKeyword(WebUIKeywordMain.groovy:26)\r\n\tat com.kms.katalon.core.webui.keyword.builtin.SelectOptionByValueKeyword.selectOptionByValue(SelectOptionByValueKeyword.groovy:99)\r\n\tat com.kms.katalon.core.webui.keyword.builtin.SelectOptionByValueKeyword.execute(SelectOptionByValueKeyword.groovy:71)\r\n\tat com.kms.katalon.core.keyword.internal.KeywordExecutor.executeKeywordForPlatform(KeywordExecutor.groovy:74)\r\n\tat com.kms.katalon.core.webui.keyword.WebUiBuiltInKeywords.selectOptionByValue(WebUiBuiltInKeywords.groovy:1168)\r\n\tat com.kms.katalon.core.webui.keyword.WebUiBuiltInKeywords$selectOptionByValue$3.call(Unknown Source)\r\n\tat forms.Graduate152.SelectATermOfEnrollment(Graduate152.groovy:79)\r\n\tat sun.reflect.NativeMethodAccessorImpl.invoke0(Native Method)\r\n\tat sun.reflect.NativeMethodAccessorImpl.invoke(NativeMethodAccessorImpl.java:62)\r\n\tat sun.reflect.DelegatingMethodAccessorImpl.invoke(DelegatingMethodAccessorImpl.java:43)\r\n\tat java.lang.reflect.Method.invoke(Method.java:498)\r\n\tat cucumber.runtime.Utils$1.call(Utils.java:26)\r\n\tat cucumber.runtime.Timeout.timeout(Timeout.java:16)\r\n\tat cucumber.runtime.Utils.invoke(Utils.java:20)\r\n\tat cucumber.runtime.java.JavaStepDefinition.execute(JavaStepDefinition.java:48)\r\n\tat cucumber.runtime.PickleStepDefinitionMatch.runStep(PickleStepDefinitionMatch.java:50)\r\n\tat cucumber.runner.TestStep.executeStep(TestStep.java:68)\r\n\tat cucumber.runner.TestStep.run(TestStep.java:50)\r\n\tat cucumber.runner.PickleStepTestStep.run(PickleStepTestStep.java:53)\r\n\tat cucumber.runner.TestCase.run(TestCase.java:47)\r\n\tat cucumber.runner.Runner.runPickle(Runner.java:44)\r\n\tat cucumber.runtime.Runtime.runFeature(Runtime.java:120)\r\n\tat cucumber.runtime.Runtime.run(Runtime.java:106)\r\n\tat cucumber.api.cli.Main.run(Main.java:35)\r\n\tat cucumber.api.cli.Main$run.call(Unknown Source)\r\n\tat com.kms.katalon.core.cucumber.keyword.CucumberBuiltinKeywords$_runFeatureFile_closure1.doCall(CucumberBuiltinKeywords.groovy:108)\r\n\tat com.kms.katalon.core.cucumber.keyword.CucumberBuiltinKeywords$_runFeatureFile_closure1.doCall(CucumberBuiltinKeywords.groovy)\r\n\tat sun.reflect.NativeMethodAccessorImpl.invoke0(Native Method)\r\n\tat sun.reflect.NativeMethodAccessorImpl.invoke(NativeMethodAccessorImpl.java:62)\r\n\tat sun.reflect.DelegatingMethodAccessorImpl.invoke(DelegatingMethodAccessorImpl.java:43)\r\n\tat java.lang.reflect.Method.invoke(Method.java:498)\r\n\tat org.codehaus.groovy.reflection.CachedMethod.invoke(CachedMethod.java:98)\r\n\tat groovy.lang.MetaMethod.doMethodInvoke(MetaMethod.java:325)\r\n\tat org.codehaus.groovy.runtime.metaclass.ClosureMetaClass.invokeMethod(ClosureMetaClass.java:264)\r\n\tat groovy.lang.MetaClassImpl.invokeMethod(MetaClassImpl.java:1034)\r\n\tat groovy.lang.Closure.call(Closure.java:420)\r\n\tat groovy.lang.Closure.call(Closure.java:414)\r\n\tat com.kms.katalon.core.keyword.internal.KeywordMain.runKeyword(KeywordMain.groovy:74)\r\n\tat com.kms.katalon.core.keyword.internal.KeywordMain.runKeyword(KeywordMain.groovy:68)\r\n\tat com.kms.katalon.core.keyword.internal.KeywordMain$runKeyword.call(Unknown Source)\r\n\tat com.kms.katalon.core.cucumber.keyword.CucumberBuiltinKeywords.runFeatureFile(CucumberBuiltinKeywords.groovy:75)\r\n\tat com.kms.katalon.core.cucumber.keyword.CucumberBuiltinKeywords$runFeatureFile$0.callStatic(Unknown Source)\r\n\tat com.kms.katalon.core.cucumber.keyword.CucumberBuiltinKeywords.runFeatureFile(CucumberBuiltinKeywords.groovy:248)\r\n\tat com.kms.katalon.core.cucumber.keyword.CucumberBuiltinKeywords$runFeatureFile.call(Unknown Source)\r\n\tat Script1665597665036.run(Script1665597665036.groovy:20)\r\n\tat com.kms.katalon.core.main.ScriptEngine.run(ScriptEngine.java:194)\r\n\tat com.kms.katalon.core.main.ScriptEngine.runScriptAsRawText(ScriptEngine.java:119)\r\n\tat com.kms.katalon.core.main.TestCaseExecutor.runScript(TestCaseExecutor.java:448)\r\n\tat com.kms.katalon.core.main.TestCaseExecutor.doExecute(TestCaseExecutor.java:439)\r\n\tat com.kms.katalon.core.main.TestCaseExecutor.processExecutionPhase(TestCaseExecutor.java:418)\r\n\tat com.kms.katalon.core.main.TestCaseExecutor.accessMainPhase(TestCaseExecutor.java:410)\r\n\tat com.kms.katalon.core.main.TestCaseExecutor.execute(TestCaseExecutor.java:285)\r\n\tat com.kms.katalon.core.main.TestCaseExecutor.execute(TestCaseExecutor.java:369)\r\n\tat com.kms.katalon.core.common.CommonExecutor.accessTestCaseMainPhase(CommonExecutor.java:65)\r\n\tat com.kms.katalon.core.main.TestSuiteExecutor.accessTestSuiteMainPhase(TestSuiteExecutor.java:151)\r\n\tat com.kms.katalon.core.main.TestSuiteExecutor.execute(TestSuiteExecutor.java:106)\r\n\tat com.kms.katalon.core.main.TestCaseMain.startTestSuite(TestCaseMain.java:185)\r\n\tat com.kms.katalon.core.main.TestCaseMain$startTestSuite$0.call(Unknown Source)\r\n\tat org.codehaus.groovy.runtime.callsite.CallSiteArray.defaultCall(CallSiteArray.java:47)\r\n\tat org.codehaus.groovy.runtime.callsite.AbstractCallSite.call(AbstractCallSite.java:116)\r\n\tat org.codehaus.groovy.runtime.callsite.AbstractCallSite.call(AbstractCallSite.java:144)\r\n\tat TempTestSuite1667399942804.run(TempTestSuite1667399942804.groovy:36)\r\n\tat groovy.lang.GroovyShell.runScriptOrMainOrTestOrRunnable(GroovyShell.java:263)\r\n\tat groovy.lang.GroovyShell.run(GroovyShell.java:507)\r\n\tat groovy.lang.GroovyShell.run(GroovyShell.java:496)\r\n\tat groovy.ui.GroovyMain.processOnce(GroovyMain.java:597)\r\n\tat groovy.ui.GroovyMain.run(GroovyMain.java:329)\r\n\tat groovy.ui.GroovyMain.process(GroovyMain.java:315)\r\n\tat groovy.ui.GroovyMain.processArgs(GroovyMain.java:134)\r\n\tat groovy.ui.GroovyMain.main(GroovyMain.java:114)\r\n\tat sun.reflect.NativeMethodAccessorImpl.invoke0(Native Method)\r\n\tat sun.reflect.NativeMethodAccessorImpl.invoke(NativeMethodAccessorImpl.java:62)\r\n\tat sun.reflect.DelegatingMethodAccessorImpl.invoke(DelegatingMethodAccessorImpl.java:43)\r\n\tat java.lang.reflect.Method.invoke(Method.java:498)\r\n\tat org.codehaus.groovy.tools.GroovyStarter.rootLoader(GroovyStarter.java:116)\r\n\tat org.codehaus.groovy.tools.GroovyStarter.main(GroovyStarter.java:138)\r\nCaused by: com.kms.katalon.core.exception.StepFailedException: Unable to select option by value \u0027tfa_1188\u0027 of object \u0027Object Repository/FormFields/Grad152/selectTOE\u0027 \r\n\tat com.kms.katalon.core.webui.keyword.internal.WebUIKeywordMain.stepFailed(WebUIKeywordMain.groovy:64)\r\n\tat com.kms.katalon.core.webui.keyword.internal.WebUIKeywordMain.runKeyword(WebUIKeywordMain.groovy:26)\r\n\tat com.kms.katalon.core.webui.keyword.builtin.SelectOptionByValueKeyword.selectOptionByValue(SelectOptionByValueKeyword.groovy:99)\r\n\tat com.kms.katalon.core.webui.keyword.builtin.SelectOptionByValueKeyword.execute(SelectOptionByValueKeyword.groovy:71)\r\n\tat com.kms.katalon.core.keyword.internal.KeywordExecutor.executeKeywordForPlatform(KeywordExecutor.groovy:74)\r\n\tat com.kms.katalon.core.webui.keyword.WebUiBuiltInKeywords.selectOptionByValue(WebUiBuiltInKeywords.groovy:1168)\r\n\tat com.kms.katalon.core.webui.keyword.WebUiBuiltInKeywords$selectOptionByValue$3.call(Unknown Source)\r\n\tat forms.Graduate152.SelectATermOfEnrollment(Graduate152.groovy:79)\r\n\tat cucumber.runtime.Utils$1.call(Utils.java:26)\r\n\tat cucumber.runtime.Timeout.timeout(Timeout.java:16)\r\n\tat cucumber.runtime.Utils.invoke(Utils.java:20)\r\n\tat cucumber.runtime.java.JavaStepDefinition.execute(JavaStepDefinition.java:48)\r\n\tat cucumber.runtime.PickleStepDefinitionMatch.runStep(PickleStepDefinitionMatch.java:50)\r\n\tat cucumber.runner.TestStep.executeStep(TestStep.java:68)\r\n\tat cucumber.runner.TestStep.run(TestStep.java:50)\r\n\tat cucumber.runner.PickleStepTestStep.run(PickleStepTestStep.java:53)\r\n\tat cucumber.runner.TestCase.run(TestCase.java:47)\r\n\tat cucumber.runner.Runner.runPickle(Runner.java:44)\r\n\tat cucumber.runtime.Runtime.runFeature(Runtime.java:120)\r\n\tat cucumber.runtime.Runtime.run(Runtime.java:106)\r\n\tat cucumber.api.cli.Main.run(Main.java:35)\r\n\tat cucumber.api.cli.Main$run.call(Unknown Source)\r\n\tat com.kms.katalon.core.cucumber.keyword.CucumberBuiltinKeywords$_runFeatureFile_closure1.doCall(CucumberBuiltinKeywords.groovy:108)\r\n\tat com.kms.katalon.core.cucumber.keyword.CucumberBuiltinKeywords$_runFeatureFile_closure1.doCall(CucumberBuiltinKeywords.groovy)\r\n\tat com.kms.katalon.core.keyword.internal.KeywordMain.runKeyword(KeywordMain.groovy:74)\r\n\tat com.kms.katalon.core.keyword.internal.KeywordMain.runKeyword(KeywordMain.groovy:68)\r\n\tat com.kms.katalon.core.keyword.internal.KeywordMain$runKeyword.call(Unknown Source)\r\n\tat com.kms.katalon.core.cucumber.keyword.CucumberBuiltinKeywords.runFeatureFile(CucumberBuiltinKeywords.groovy:75)\r\n\tat com.kms.katalon.core.cucumber.keyword.CucumberBuiltinKeywords$runFeatureFile$0.callStatic(Unknown Source)\r\n\tat com.kms.katalon.core.cucumber.keyword.CucumberBuiltinKeywords.runFeatureFile(CucumberBuiltinKeywords.groovy:248)\r\n\tat com.kms.katalon.core.cucumber.keyword.CucumberBuiltinKeywords$runFeatureFile.call(Unknown Source)\r\n\tat Graduate152.run(Graduate152:20)\r\n\tat com.kms.katalon.core.main.ScriptEngine.run(ScriptEngine.java:194)\r\n\tat com.kms.katalon.core.main.ScriptEngine.runScriptAsRawText(ScriptEngine.java:119)\r\n\tat com.kms.katalon.core.main.TestCaseExecutor.runScript(TestCaseExecutor.java:448)\r\n\tat com.kms.katalon.core.main.TestCaseExecutor.doExecute(TestCaseExecutor.java:439)\r\n\tat com.kms.katalon.core.main.TestCaseExecutor.processExecutionPhase(TestCaseExecutor.java:418)\r\n\tat com.kms.katalon.core.main.TestCaseExecutor.accessMainPhase(TestCaseExecutor.java:410)\r\n\tat com.kms.katalon.core.main.TestCaseExecutor.execute(TestCaseExecutor.java:285)\r\n\tat com.kms.katalon.core.main.TestCaseExecutor.execute(TestCaseExecutor.java:369)\r\n\tat com.kms.katalon.core.common.CommonExecutor.accessTestCaseMainPhase(CommonExecutor.java:65)\r\n\tat com.kms.katalon.core.main.TestSuiteExecutor.accessTestSuiteMainPhase(TestSuiteExecutor.java:151)\r\n\tat com.kms.katalon.core.main.TestSuiteExecutor.execute(TestSuiteExecutor.java:106)\r\n\tat com.kms.katalon.core.main.TestCaseMain.startTestSuite(TestCaseMain.java:185)\r\n\tat com.kms.katalon.core.main.TestCaseMain$startTestSuite$0.call(Unknown Source)\r\n\tat TempTestSuite1667399942804.run(TempTestSuite1667399942804.groovy:36)\r\nCaused by: org.openqa.selenium.NoSuchElementException: Cannot locate option with value: tfa_1188\nFor documentation on this error, please visit: https://www.seleniumhq.org/exceptions/no_such_element.html\nBuild info: version: \u00273.141.59\u0027, revision: \u0027e82be7d358\u0027, time: \u00272018-11-14T08:25:53\u0027\nSystem info: host: \u0027L18-0032\u0027, ip: \u002710.0.0.226\u0027, os.name: \u0027Windows 10\u0027, os.arch: \u0027amd64\u0027, os.version: \u002710.0\u0027, java.version: \u00271.8.0_181\u0027\nDriver info: driver.version: unknown\r\n\tat org.openqa.selenium.support.ui.Select.findOptionsByValue(Select.java:283)\r\n\tat org.openqa.selenium.support.ui.Select.selectByValue(Select.java:186)\r\n\tat com.kms.katalon.core.webui.common.WebUiCommonHelper.selectOrDeselectOptionsByValue(WebUiCommonHelper.java:266)\r\n\tat com.kms.katalon.core.webui.keyword.builtin.SelectOptionByValueKeyword$_selectOptionByValue_closure1.doCall(SelectOptionByValueKeyword.groovy:88)\r\n\tat com.kms.katalon.core.webui.keyword.builtin.SelectOptionByValueKeyword$_selectOptionByValue_closure1.call(SelectOptionByValueKeyword.groovy)\r\n\tat com.kms.katalon.core.webui.keyword.internal.WebUIKeywordMain.runKeyword(WebUIKeywordMain.groovy:20)\r\n\t... 44 more\r\n",
              "duration": 1544525300,
              "status": "failed"
            },
            "line": 12,
            "name": "I select a term \"tfa_1188\"",
            "match": {
              "arguments": [
                {
                  "val": "\"tfa_1188\"",
                  "offset": 16
                }
              ],
              "location": "Graduate152.SelectATermOfEnrollment(String)"
            },
            "keyword": "And ",
            "BDD_STEP_UUID": "8fba1951-eff5-440b-8f97-b595e407fa83"
          },
          {
            "result": {
              "status": "skipped"
            },
            "line": 13,
            "name": "I input a phone number",
            "match": {
              "location": "Graduate152.inputPhoneNumber()"
            },
            "keyword": "And ",
            "BDD_STEP_UUID": "fa489a52-0c72-4e8e-9c5b-7f48d2b00ea6"
          },
          {
            "result": {
              "status": "skipped"
            },
            "line": 14,
            "name": "I select a country",
            "match": {
              "location": "Graduate152.SelectACountry()"
            },
            "keyword": "And ",
            "BDD_STEP_UUID": "a33c1d64-267b-4b8b-8275-c082148158a0"
          },
          {
            "result": {
              "status": "skipped"
            },
            "line": 15,
            "name": "I input a state",
            "match": {
              "location": "Graduate152.inputState()"
            },
            "keyword": "And ",
            "BDD_STEP_UUID": "21c3cfac-ce47-496f-8d08-e34197c7cde7"
          },
          {
            "result": {
              "status": "skipped"
            },
            "line": 16,
            "name": "I input a city",
            "match": {
              "location": "Graduate152.inputCity()"
            },
            "keyword": "And ",
            "BDD_STEP_UUID": "75403aad-5082-4b14-af6b-c7487f3751ac"
          },
          {
            "result": {
              "status": "skipped"
            },
            "line": 17,
            "name": "I input the postal code",
            "match": {
              "location": "Graduate152.inputPostalZode()"
            },
            "keyword": "And ",
            "BDD_STEP_UUID": "3e20b859-dbaa-4d5a-8771-54c342f3d6ed"
          },
          {
            "result": {
              "status": "skipped"
            },
            "line": 18,
            "name": "I click the submit button",
            "match": {
              "location": "Graduate152.clickSubmit()"
            },
            "keyword": "And ",
            "BDD_STEP_UUID": "55f1e234-17b6-4be6-9c75-7c2b7b92cefa"
          },
          {
            "result": {
              "status": "skipped"
            },
            "line": 19,
            "name": "I am on the correct \"https://www.babson.edu/graduate/admissions/thank-you/\" page",
            "match": {
              "arguments": [
                {
                  "val": "\"https://www.babson.edu/graduate/admissions/thank-you/\"",
                  "offset": 20
                }
              ],
              "location": "Graduate152.thankYouPage(String)"
            },
            "keyword": "And ",
            "BDD_STEP_UUID": "7bda3ef6-0b6a-41d4-a3f0-31a9ea2781f1"
          },
          {
            "result": {
              "status": "skipped"
            },
            "line": 20,
            "name": "I get the submit request",
            "match": {
              "location": "Graduate152.submitRequest()"
            },
            "keyword": "And ",
            "BDD_STEP_UUID": "9bd72fc8-c37d-49d5-b25c-f4072efc117c"
          },
          {
            "result": {
              "status": "skipped"
            },
            "line": 21,
            "name": "I delete the form record",
            "match": {
              "location": "Graduate152.deleteRequest()"
            },
            "keyword": "Then ",
            "BDD_STEP_UUID": "9f691647-b9e7-4120-81b2-6dc9e77387e6"
          }
        ],
        "tags": [
          {
            "name": "@Form"
          },
          {
            "name": "@152"
          },
          {
            "name": "@Graduate"
          },
          {
            "name": "@Grad"
          },
          {
            "name": "@152"
          },
          {
            "name": "@smoke"
          }
        ]
      },
      {
        "BDD_TESTRUN_UUID": "1f879ae9-ef5f-40d1-87be-dbce9c9209da",
        "line": 28,
        "name": "Submit Certificate Management Form",
        "description": "",
        "id": "admission/graduate-school/certificate-in-advanced-management/;submit-certificate-management-form;;5",
        "type": "scenario",
        "keyword": "Scenario Outline",
        "steps": [
          {
            "result": {
              "duration": 8190320100,
              "status": "passed"
            },
            "line": 7,
            "name": "I am on the homepage",
            "match": {
              "location": "Graduate152.Homepage()"
            },
            "keyword": "Given ",
            "BDD_STEP_UUID": "f0ffaae9-6624-404a-a5b2-c9d473adcea3"
          },
          {
            "result": {
              "duration": 3043691200,
              "status": "passed"
            },
            "line": 8,
            "name": "I am on the form \"https://www.babson.edu/academics/graduate-school/mba/\" page",
            "match": {
              "arguments": [
                {
                  "val": "\"https://www.babson.edu/academics/graduate-school/mba/\"",
                  "offset": 17
                }
              ],
              "location": "Graduate152.FormPage(String)"
            },
            "keyword": "When ",
            "BDD_STEP_UUID": "413c898b-8aa8-4803-a7d1-232b8e2bc094"
          },
          {
            "result": {
              "duration": 2273767300,
              "status": "passed"
            },
            "line": 9,
            "name": "I input the first and last name on the form",
            "match": {
              "location": "Graduate152.FirstLastName()"
            },
            "keyword": "And ",
            "BDD_STEP_UUID": "843f5e64-d7a0-4581-a5f6-abc72267792e"
          },
          {
            "result": {
              "duration": 993007800,
              "status": "passed"
            },
            "line": 10,
            "name": "I input an email address",
            "match": {
              "location": "Graduate152.inputEmail()"
            },
            "keyword": "And ",
            "BDD_STEP_UUID": "ffb0feb0-0f23-4bec-aed0-a3a2ae5cf7ae"
          },
          {
            "result": {
              "duration": 870864400,
              "status": "passed"
            },
            "line": 11,
            "name": "I select a program \"tfa_1043\"",
            "match": {
              "arguments": [
                {
                  "val": "\"tfa_1043\"",
                  "offset": 19
                }
              ],
              "location": "Graduate152.SelectAProgramOfInterest(String)"
            },
            "keyword": "And ",
            "BDD_STEP_UUID": "92aa6c5b-3abc-4542-b1ac-7dfc2ff3d1bc"
          },
          {
            "result": {
              "duration": 874394600,
              "status": "passed"
            },
            "line": 12,
            "name": "I select a term \"tfa_1223\"",
            "match": {
              "arguments": [
                {
                  "val": "\"tfa_1223\"",
                  "offset": 16
                }
              ],
              "location": "Graduate152.SelectATermOfEnrollment(String)"
            },
            "keyword": "And ",
            "BDD_STEP_UUID": "717d9ffd-fbbd-4680-a078-d933c838472f"
          },
          {
            "result": {
              "duration": 808139700,
              "status": "passed"
            },
            "line": 13,
            "name": "I input a phone number",
            "match": {
              "location": "Graduate152.inputPhoneNumber()"
            },
            "keyword": "And ",
            "BDD_STEP_UUID": "ecb05a68-c67e-46c8-a3de-100d50995eac"
          },
          {
            "result": {
              "duration": 802099500,
              "status": "passed"
            },
            "line": 14,
            "name": "I select a country",
            "match": {
              "location": "Graduate152.SelectACountry()"
            },
            "keyword": "And ",
            "BDD_STEP_UUID": "3d035093-b751-40b8-b9ff-23e0b1120fe9"
          },
          {
            "result": {
              "duration": 762249500,
              "status": "passed"
            },
            "line": 15,
            "name": "I input a state",
            "match": {
              "location": "Graduate152.inputState()"
            },
            "keyword": "And ",
            "BDD_STEP_UUID": "75544cfd-3437-4e13-91aa-32ff19415597"
          },
          {
            "result": {
              "duration": 828035500,
              "status": "passed"
            },
            "line": 16,
            "name": "I input a city",
            "match": {
              "location": "Graduate152.inputCity()"
            },
            "keyword": "And ",
            "BDD_STEP_UUID": "9836bf01-588c-498d-a43b-83c1c7263264"
          },
          {
            "result": {
              "duration": 873208000,
              "status": "passed"
            },
            "line": 17,
            "name": "I input the postal code",
            "match": {
              "location": "Graduate152.inputPostalZode()"
            },
            "keyword": "And ",
            "BDD_STEP_UUID": "df41b8f5-80e5-45a0-a98b-889e0c5b6558"
          },
          {
            "result": {
              "duration": 5792197300,
              "status": "passed"
            },
            "line": 18,
            "name": "I click the submit button",
            "match": {
              "location": "Graduate152.clickSubmit()"
            },
            "keyword": "And ",
            "BDD_STEP_UUID": "12dae3ce-a427-4fb7-95b0-04673713ce90"
          },
          {
            "result": {
              "duration": 1414559900,
              "status": "passed"
            },
            "line": 19,
            "name": "I am on the correct \"https://www.babson.edu/graduate/admissions/thank-you/\" page",
            "match": {
              "arguments": [
                {
                  "val": "\"https://www.babson.edu/graduate/admissions/thank-you/\"",
                  "offset": 20
                }
              ],
              "location": "Graduate152.thankYouPage(String)"
            },
            "keyword": "And ",
            "BDD_STEP_UUID": "d7dd9c5f-560c-4071-a174-76c8e09f73ce"
          },
          {
            "result": {
              "duration": 2273812000,
              "status": "passed"
            },
            "line": 20,
            "name": "I get the submit request",
            "match": {
              "location": "Graduate152.submitRequest()"
            },
            "keyword": "And ",
            "BDD_STEP_UUID": "a621cffe-e5a9-4a99-9cc3-07b9342e4bc8"
          },
          {
            "result": {
              "duration": 4905983000,
              "status": "passed"
            },
            "line": 21,
            "name": "I delete the form record",
            "match": {
              "location": "Graduate152.deleteRequest()"
            },
            "keyword": "Then ",
            "BDD_STEP_UUID": "1d4e42c9-3e55-4192-a1b0-5786ab2bea5c"
          }
        ],
        "tags": [
          {
            "name": "@Form"
          },
          {
            "name": "@152"
          },
          {
            "name": "@Graduate"
          },
          {
            "name": "@Grad"
          },
          {
            "name": "@152"
          },
          {
            "name": "@smoke"
          }
        ]
      },
      {
        "BDD_TESTRUN_UUID": "1e4f257e-0755-4db8-9466-77fd838eff13",
        "line": 29,
        "name": "Submit Certificate Management Form",
        "description": "",
        "id": "admission/graduate-school/certificate-in-advanced-management/;submit-certificate-management-form;;6",
        "type": "scenario",
        "keyword": "Scenario Outline",
        "steps": [
          {
            "result": {
              "duration": 5309921200,
              "status": "passed"
            },
            "line": 7,
            "name": "I am on the homepage",
            "match": {
              "location": "Graduate152.Homepage()"
            },
            "keyword": "Given ",
            "BDD_STEP_UUID": "9f61312a-529f-4a9e-884f-3dc46d75da99"
          },
          {
            "result": {
              "duration": 2850854600,
              "status": "passed"
            },
            "line": 8,
            "name": "I am on the form \"https://www.babson.edu/academics/graduate-school/mba/mba-miami/\" page",
            "match": {
              "arguments": [
                {
                  "val": "\"https://www.babson.edu/academics/graduate-school/mba/mba-miami/\"",
                  "offset": 17
                }
              ],
              "location": "Graduate152.FormPage(String)"
            },
            "keyword": "When ",
            "BDD_STEP_UUID": "4a404860-046f-47ef-a2bd-692c66dd41b9"
          },
          {
            "result": {
              "duration": 2502441300,
              "status": "passed"
            },
            "line": 9,
            "name": "I input the first and last name on the form",
            "match": {
              "location": "Graduate152.FirstLastName()"
            },
            "keyword": "And ",
            "BDD_STEP_UUID": "c96f2426-279a-4e01-bb3a-d218ea77030c"
          },
          {
            "result": {
              "duration": 898557000,
              "status": "passed"
            },
            "line": 10,
            "name": "I input an email address",
            "match": {
              "location": "Graduate152.inputEmail()"
            },
            "keyword": "And ",
            "BDD_STEP_UUID": "93c52538-5dc3-4523-81c9-609416a078e5"
          },
          {
            "result": {
              "duration": 858856300,
              "status": "passed"
            },
            "line": 11,
            "name": "I select a program \"tfa_1208\"",
            "match": {
              "arguments": [
                {
                  "val": "\"tfa_1208\"",
                  "offset": 19
                }
              ],
              "location": "Graduate152.SelectAProgramOfInterest(String)"
            },
            "keyword": "And ",
            "BDD_STEP_UUID": "684d8c45-463f-48c5-ad26-c42dfe4aa107"
          },
          {
            "result": {
              "duration": 833620100,
              "status": "passed"
            },
            "line": 12,
            "name": "I select a term \"tfa_1226\"",
            "match": {
              "arguments": [
                {
                  "val": "\"tfa_1226\"",
                  "offset": 16
                }
              ],
              "location": "Graduate152.SelectATermOfEnrollment(String)"
            },
            "keyword": "And ",
            "BDD_STEP_UUID": "900427a9-92ef-4862-b944-f953d812537c"
          },
          {
            "result": {
              "duration": 767762800,
              "status": "passed"
            },
            "line": 13,
            "name": "I input a phone number",
            "match": {
              "location": "Graduate152.inputPhoneNumber()"
            },
            "keyword": "And ",
            "BDD_STEP_UUID": "af4791d0-3fbb-4819-b557-38f93c1cdbb1"
          },
          {
            "result": {
              "duration": 711299900,
              "status": "passed"
            },
            "line": 14,
            "name": "I select a country",
            "match": {
              "location": "Graduate152.SelectACountry()"
            },
            "keyword": "And ",
            "BDD_STEP_UUID": "43b6dfa9-c58c-403a-9188-025c49ea746b"
          },
          {
            "result": {
              "duration": 780371600,
              "status": "passed"
            },
            "line": 15,
            "name": "I input a state",
            "match": {
              "location": "Graduate152.inputState()"
            },
            "keyword": "And ",
            "BDD_STEP_UUID": "a2d46e1d-fdc5-443f-9250-ba242591f7f7"
          },
          {
            "result": {
              "duration": 870158800,
              "status": "passed"
            },
            "line": 16,
            "name": "I input a city",
            "match": {
              "location": "Graduate152.inputCity()"
            },
            "keyword": "And ",
            "BDD_STEP_UUID": "4db1c66b-b2ec-4d3a-9369-779ce0abea8b"
          },
          {
            "result": {
              "duration": 897884100,
              "status": "passed"
            },
            "line": 17,
            "name": "I input the postal code",
            "match": {
              "location": "Graduate152.inputPostalZode()"
            },
            "keyword": "And ",
            "BDD_STEP_UUID": "41266637-e4b2-43ee-88d1-804ff832254d"
          },
          {
            "result": {
              "duration": 5714272900,
              "status": "passed"
            },
            "line": 18,
            "name": "I click the submit button",
            "match": {
              "location": "Graduate152.clickSubmit()"
            },
            "keyword": "And ",
            "BDD_STEP_UUID": "7811e2a1-9995-4fbf-8946-ae37639a4d6f"
          },
          {
            "result": {
              "duration": 1746252100,
              "status": "passed"
            },
            "line": 19,
            "name": "I am on the correct \"https://www.babson.edu/graduate/admissions/thank-you/\" page",
            "match": {
              "arguments": [
                {
                  "val": "\"https://www.babson.edu/graduate/admissions/thank-you/\"",
                  "offset": 20
                }
              ],
              "location": "Graduate152.thankYouPage(String)"
            },
            "keyword": "And ",
            "BDD_STEP_UUID": "0f7536ed-681e-45f1-96a4-de6badccd4ec"
          },
          {
            "result": {
              "duration": 2246661400,
              "status": "passed"
            },
            "line": 20,
            "name": "I get the submit request",
            "match": {
              "location": "Graduate152.submitRequest()"
            },
            "keyword": "And ",
            "BDD_STEP_UUID": "d79631bd-96c6-492f-a4c9-3ce1ee416070"
          },
          {
            "result": {
              "duration": 4668133700,
              "status": "passed"
            },
            "line": 21,
            "name": "I delete the form record",
            "match": {
              "location": "Graduate152.deleteRequest()"
            },
            "keyword": "Then ",
            "BDD_STEP_UUID": "3a01d15b-f6c4-4235-b500-af496ca2a07c"
          }
        ],
        "tags": [
          {
            "name": "@Form"
          },
          {
            "name": "@152"
          },
          {
            "name": "@Graduate"
          },
          {
            "name": "@Grad"
          },
          {
            "name": "@152"
          },
          {
            "name": "@smoke"
          }
        ]
      },
      {
        "BDD_TESTRUN_UUID": "d952e84b-05b9-4f9b-be58-2e408dd1decb",
        "line": 30,
        "name": "Submit Certificate Management Form",
        "description": "",
        "id": "admission/graduate-school/certificate-in-advanced-management/;submit-certificate-management-form;;7",
        "type": "scenario",
        "keyword": "Scenario Outline",
        "steps": [
          {
            "result": {
              "duration": 5312168000,
              "status": "passed"
            },
            "line": 7,
            "name": "I am on the homepage",
            "match": {
              "location": "Graduate152.Homepage()"
            },
            "keyword": "Given ",
            "BDD_STEP_UUID": "18c2384e-40c0-403a-84b1-dd3b44c0f950"
          },
          {
            "result": {
              "duration": 2144264000,
              "status": "passed"
            },
            "line": 8,
            "name": "I am on the form \"https://www.babson.edu/academics/graduate-school/ms-business-analytics/\" page",
            "match": {
              "arguments": [
                {
                  "val": "\"https://www.babson.edu/academics/graduate-school/ms-business-analytics/\"",
                  "offset": 17
                }
              ],
              "location": "Graduate152.FormPage(String)"
            },
            "keyword": "When ",
            "BDD_STEP_UUID": "544063bf-38fb-43ed-b72c-340b9b660d0b"
          },
          {
            "result": {
              "duration": 2087264100,
              "status": "passed"
            },
            "line": 9,
            "name": "I input the first and last name on the form",
            "match": {
              "location": "Graduate152.FirstLastName()"
            },
            "keyword": "And ",
            "BDD_STEP_UUID": "e02cc335-676b-4d9d-aa61-82d3c110d473"
          },
          {
            "result": {
              "duration": 901302000,
              "status": "passed"
            },
            "line": 10,
            "name": "I input an email address",
            "match": {
              "location": "Graduate152.inputEmail()"
            },
            "keyword": "And ",
            "BDD_STEP_UUID": "e6f6a859-fd2f-4bb9-aaf9-85302b34627f"
          },
          {
            "result": {
              "duration": 856649400,
              "status": "passed"
            },
            "line": 11,
            "name": "I select a program \"tfa_1208\"",
            "match": {
              "arguments": [
                {
                  "val": "\"tfa_1208\"",
                  "offset": 19
                }
              ],
              "location": "Graduate152.SelectAProgramOfInterest(String)"
            },
            "keyword": "And ",
            "BDD_STEP_UUID": "e16f35e2-cfe4-400c-a3ad-6937b2248cf8"
          },
          {
            "result": {
              "duration": 842214400,
              "status": "passed"
            },
            "line": 12,
            "name": "I select a term \"tfa_1269\"",
            "match": {
              "arguments": [
                {
                  "val": "\"tfa_1269\"",
                  "offset": 16
                }
              ],
              "location": "Graduate152.SelectATermOfEnrollment(String)"
            },
            "keyword": "And ",
            "BDD_STEP_UUID": "f27f1887-36d7-4a84-a579-6b7740b2b36c"
          },
          {
            "result": {
              "duration": 740048000,
              "status": "passed"
            },
            "line": 13,
            "name": "I input a phone number",
            "match": {
              "location": "Graduate152.inputPhoneNumber()"
            },
            "keyword": "And ",
            "BDD_STEP_UUID": "60f7381b-e346-40b0-8b9f-4182abe096ef"
          },
          {
            "result": {
              "duration": 745704700,
              "status": "passed"
            },
            "line": 14,
            "name": "I select a country",
            "match": {
              "location": "Graduate152.SelectACountry()"
            },
            "keyword": "And ",
            "BDD_STEP_UUID": "a49df53a-55e8-4fae-accb-4ffee7717e13"
          },
          {
            "result": {
              "duration": 803068100,
              "status": "passed"
            },
            "line": 15,
            "name": "I input a state",
            "match": {
              "location": "Graduate152.inputState()"
            },
            "keyword": "And ",
            "BDD_STEP_UUID": "450cde48-ba49-4286-84f1-40e4654fcc66"
          },
          {
            "result": {
              "duration": 874905800,
              "status": "passed"
            },
            "line": 16,
            "name": "I input a city",
            "match": {
              "location": "Graduate152.inputCity()"
            },
            "keyword": "And ",
            "BDD_STEP_UUID": "1a18fbc1-4771-4d1c-bcd2-b7b4461a063a"
          },
          {
            "result": {
              "duration": 888088300,
              "status": "passed"
            },
            "line": 17,
            "name": "I input the postal code",
            "match": {
              "location": "Graduate152.inputPostalZode()"
            },
            "keyword": "And ",
            "BDD_STEP_UUID": "190834c0-1382-467d-b57e-c15bb0318564"
          },
          {
            "result": {
              "duration": 5997828600,
              "status": "passed"
            },
            "line": 18,
            "name": "I click the submit button",
            "match": {
              "location": "Graduate152.clickSubmit()"
            },
            "keyword": "And ",
            "BDD_STEP_UUID": "12a1b4fe-3c68-4255-a063-ab3bd5faede7"
          },
          {
            "result": {
              "duration": 2877252900,
              "status": "passed"
            },
            "line": 19,
            "name": "I am on the correct \"https://www.babson.edu/graduate/admissions/thank-you/\" page",
            "match": {
              "arguments": [
                {
                  "val": "\"https://www.babson.edu/graduate/admissions/thank-you/\"",
                  "offset": 20
                }
              ],
              "location": "Graduate152.thankYouPage(String)"
            },
            "keyword": "And ",
            "BDD_STEP_UUID": "be5a35f7-6ed2-4428-8f11-f378f1b85bae"
          },
          {
            "result": {
              "duration": 2226370000,
              "status": "passed"
            },
            "line": 20,
            "name": "I get the submit request",
            "match": {
              "location": "Graduate152.submitRequest()"
            },
            "keyword": "And ",
            "BDD_STEP_UUID": "05723e72-4e55-48b4-8f78-d6f0a583b529"
          },
          {
            "result": {
              "duration": 4575674200,
              "status": "passed"
            },
            "line": 21,
            "name": "I delete the form record",
            "match": {
              "location": "Graduate152.deleteRequest()"
            },
            "keyword": "Then ",
            "BDD_STEP_UUID": "96f161f0-503e-46a2-9cde-472152952925"
          }
        ],
        "tags": [
          {
            "name": "@Form"
          },
          {
            "name": "@152"
          },
          {
            "name": "@Graduate"
          },
          {
            "name": "@Grad"
          },
          {
            "name": "@152"
          },
          {
            "name": "@smoke"
          }
        ]
      },
      {
        "BDD_TESTRUN_UUID": "47c5de49-a1c1-458c-907f-bda8faf1fe47",
        "line": 31,
        "name": "Submit Certificate Management Form",
        "description": "",
        "id": "admission/graduate-school/certificate-in-advanced-management/;submit-certificate-management-form;;8",
        "type": "scenario",
        "keyword": "Scenario Outline",
        "steps": [
          {
            "result": {
              "duration": 5471306200,
              "status": "passed"
            },
            "line": 7,
            "name": "I am on the homepage",
            "match": {
              "location": "Graduate152.Homepage()"
            },
            "keyword": "Given ",
            "BDD_STEP_UUID": "e0b442a6-a1e6-4cde-887f-9b3ab49d902b"
          },
          {
            "result": {
              "duration": 2110408200,
              "status": "passed"
            },
            "line": 8,
            "name": "I am on the form \"https://www.babson.edu/academics/graduate-school/ms-in-entrepreneurial-leadership/\" page",
            "match": {
              "arguments": [
                {
                  "val": "\"https://www.babson.edu/academics/graduate-school/ms-in-entrepreneurial-leadership/\"",
                  "offset": 17
                }
              ],
              "location": "Graduate152.FormPage(String)"
            },
            "keyword": "When ",
            "BDD_STEP_UUID": "b4367dfd-8c66-402a-9522-1dd45c107254"
          },
          {
            "result": {
              "duration": 2302242300,
              "status": "passed"
            },
            "line": 9,
            "name": "I input the first and last name on the form",
            "match": {
              "location": "Graduate152.FirstLastName()"
            },
            "keyword": "And ",
            "BDD_STEP_UUID": "1e593dad-9ddd-4e28-a80b-3b8f284c5439"
          },
          {
            "result": {
              "duration": 1266648400,
              "status": "passed"
            },
            "line": 10,
            "name": "I input an email address",
            "match": {
              "location": "Graduate152.inputEmail()"
            },
            "keyword": "And ",
            "BDD_STEP_UUID": "e8385949-97ab-4d6a-adae-78d7aff6a0fd"
          },
          {
            "result": {
              "duration": 861956400,
              "status": "passed"
            },
            "line": 11,
            "name": "I select a program \"tfa_1122\"",
            "match": {
              "arguments": [
                {
                  "val": "\"tfa_1122\"",
                  "offset": 19
                }
              ],
              "location": "Graduate152.SelectAProgramOfInterest(String)"
            },
            "keyword": "And ",
            "BDD_STEP_UUID": "dafdfec1-4818-42e4-b425-7571f93c3ab2"
          },
          {
            "result": {
              "duration": 931291600,
              "status": "passed"
            },
            "line": 12,
            "name": "I select a term \"tfa_1277\"",
            "match": {
              "arguments": [
                {
                  "val": "\"tfa_1277\"",
                  "offset": 16
                }
              ],
              "location": "Graduate152.SelectATermOfEnrollment(String)"
            },
            "keyword": "And ",
            "BDD_STEP_UUID": "57525571-d319-4cde-9912-512bace730ad"
          },
          {
            "result": {
              "duration": 744904400,
              "status": "passed"
            },
            "line": 13,
            "name": "I input a phone number",
            "match": {
              "location": "Graduate152.inputPhoneNumber()"
            },
            "keyword": "And ",
            "BDD_STEP_UUID": "941986ec-2d1c-4fe1-8c56-35b7190fe5ca"
          },
          {
            "result": {
              "duration": 742964800,
              "status": "passed"
            },
            "line": 14,
            "name": "I select a country",
            "match": {
              "location": "Graduate152.SelectACountry()"
            },
            "keyword": "And ",
            "BDD_STEP_UUID": "ecfd1a71-5112-4d10-a02b-8810ebade361"
          },
          {
            "result": {
              "duration": 771999300,
              "status": "passed"
            },
            "line": 15,
            "name": "I input a state",
            "match": {
              "location": "Graduate152.inputState()"
            },
            "keyword": "And ",
            "BDD_STEP_UUID": "5aa39f49-bb23-42f4-94cc-07d15fbf7a55"
          },
          {
            "result": {
              "duration": 826746600,
              "status": "passed"
            },
            "line": 16,
            "name": "I input a city",
            "match": {
              "location": "Graduate152.inputCity()"
            },
            "keyword": "And ",
            "BDD_STEP_UUID": "cbd653e3-1913-4fa5-b0ae-4aa3c3e5ee4f"
          },
          {
            "result": {
              "duration": 913835900,
              "status": "passed"
            },
            "line": 17,
            "name": "I input the postal code",
            "match": {
              "location": "Graduate152.inputPostalZode()"
            },
            "keyword": "And ",
            "BDD_STEP_UUID": "df727d72-887b-4810-beaf-b403e73f2bc1"
          },
          {
            "result": {
              "duration": 7196378100,
              "status": "passed"
            },
            "line": 18,
            "name": "I click the submit button",
            "match": {
              "location": "Graduate152.clickSubmit()"
            },
            "keyword": "And ",
            "BDD_STEP_UUID": "8b319ff9-f5ae-4112-a25b-e8296fd5c79a"
          },
          {
            "result": {
              "duration": 1672174900,
              "status": "passed"
            },
            "line": 19,
            "name": "I am on the correct \"https://www.babson.edu/graduate/admissions/thank-you/\" page",
            "match": {
              "arguments": [
                {
                  "val": "\"https://www.babson.edu/graduate/admissions/thank-you/\"",
                  "offset": 20
                }
              ],
              "location": "Graduate152.thankYouPage(String)"
            },
            "keyword": "And ",
            "BDD_STEP_UUID": "74a615be-ae5c-4ace-8ef6-b8af868c124a"
          },
          {
            "result": {
              "duration": 2247437100,
              "status": "passed"
            },
            "line": 20,
            "name": "I get the submit request",
            "match": {
              "location": "Graduate152.submitRequest()"
            },
            "keyword": "And ",
            "BDD_STEP_UUID": "2eabdcfd-dddf-483c-8ba8-f9d9efa747ea"
          },
          {
            "result": {
              "duration": 4546834700,
              "status": "passed"
            },
            "line": 21,
            "name": "I delete the form record",
            "match": {
              "location": "Graduate152.deleteRequest()"
            },
            "keyword": "Then ",
            "BDD_STEP_UUID": "e8a2d580-88d7-4ed0-8877-78d4dcb3875d"
          }
        ],
        "tags": [
          {
            "name": "@Form"
          },
          {
            "name": "@152"
          },
          {
            "name": "@Graduate"
          },
          {
            "name": "@Grad"
          },
          {
            "name": "@152"
          },
          {
            "name": "@smoke"
          }
        ]
      },
      {
        "BDD_TESTRUN_UUID": "5e37a6c1-933f-41f8-adcd-fba77edf5093",
        "line": 32,
        "name": "Submit Certificate Management Form",
        "description": "",
        "id": "admission/graduate-school/certificate-in-advanced-management/;submit-certificate-management-form;;9",
        "type": "scenario",
        "keyword": "Scenario Outline",
        "steps": [
          {
            "result": {
              "duration": 6296438700,
              "status": "passed"
            },
            "line": 7,
            "name": "I am on the homepage",
            "match": {
              "location": "Graduate152.Homepage()"
            },
            "keyword": "Given ",
            "BDD_STEP_UUID": "2ed5d067-5fd5-46df-ac35-44f8dc0010d3"
          },
          {
            "result": {
              "duration": 2458889600,
              "status": "passed"
            },
            "line": 8,
            "name": "I am on the form \"https://www.babson.edu/academics/graduate-school/mba/part-time-mba/\" page",
            "match": {
              "arguments": [
                {
                  "val": "\"https://www.babson.edu/academics/graduate-school/mba/part-time-mba/\"",
                  "offset": 17
                }
              ],
              "location": "Graduate152.FormPage(String)"
            },
            "keyword": "When ",
            "BDD_STEP_UUID": "7d9a698f-8876-48b9-bc60-bf9efeb6d556"
          },
          {
            "result": {
              "duration": 2237323900,
              "status": "passed"
            },
            "line": 9,
            "name": "I input the first and last name on the form",
            "match": {
              "location": "Graduate152.FirstLastName()"
            },
            "keyword": "And ",
            "BDD_STEP_UUID": "a4e9a544-487f-4689-a3ab-68ab6c08d113"
          },
          {
            "result": {
              "duration": 923196500,
              "status": "passed"
            },
            "line": 10,
            "name": "I input an email address",
            "match": {
              "location": "Graduate152.inputEmail()"
            },
            "keyword": "And ",
            "BDD_STEP_UUID": "309352e3-5eca-4df3-a813-6c9e3d2d1752"
          },
          {
            "result": {
              "duration": 824421100,
              "status": "passed"
            },
            "line": 11,
            "name": "I select a program \"tfa_1063\"",
            "match": {
              "arguments": [
                {
                  "val": "\"tfa_1063\"",
                  "offset": 19
                }
              ],
              "location": "Graduate152.SelectAProgramOfInterest(String)"
            },
            "keyword": "And ",
            "BDD_STEP_UUID": "c8640430-3797-442f-9112-681b604b6af6"
          },
          {
            "result": {
              "duration": 895446800,
              "status": "passed"
            },
            "line": 12,
            "name": "I select a term \"tfa_1281\"",
            "match": {
              "arguments": [
                {
                  "val": "\"tfa_1281\"",
                  "offset": 16
                }
              ],
              "location": "Graduate152.SelectATermOfEnrollment(String)"
            },
            "keyword": "And ",
            "BDD_STEP_UUID": "57199a2f-0f04-45cc-ba3f-3fb641f00d10"
          },
          {
            "result": {
              "duration": 783180800,
              "status": "passed"
            },
            "line": 13,
            "name": "I input a phone number",
            "match": {
              "location": "Graduate152.inputPhoneNumber()"
            },
            "keyword": "And ",
            "BDD_STEP_UUID": "f9f4b872-a21e-4ebd-816b-1dfcb96b3142"
          },
          {
            "result": {
              "duration": 739276000,
              "status": "passed"
            },
            "line": 14,
            "name": "I select a country",
            "match": {
              "location": "Graduate152.SelectACountry()"
            },
            "keyword": "And ",
            "BDD_STEP_UUID": "69f51e09-b072-4bb1-8651-830af984cee3"
          },
          {
            "result": {
              "duration": 755111800,
              "status": "passed"
            },
            "line": 15,
            "name": "I input a state",
            "match": {
              "location": "Graduate152.inputState()"
            },
            "keyword": "And ",
            "BDD_STEP_UUID": "cbfc716f-898d-45de-bcbb-b628127808c5"
          },
          {
            "result": {
              "duration": 862801700,
              "status": "passed"
            },
            "line": 16,
            "name": "I input a city",
            "match": {
              "location": "Graduate152.inputCity()"
            },
            "keyword": "And ",
            "BDD_STEP_UUID": "93f3b685-2ab9-49d0-b2d6-f37fa43eeb54"
          },
          {
            "result": {
              "duration": 849672300,
              "status": "passed"
            },
            "line": 17,
            "name": "I input the postal code",
            "match": {
              "location": "Graduate152.inputPostalZode()"
            },
            "keyword": "And ",
            "BDD_STEP_UUID": "9b0ecd62-71b0-4616-bfe4-dcbae9b9dd60"
          },
          {
            "result": {
              "duration": 4600025400,
              "status": "passed"
            },
            "line": 18,
            "name": "I click the submit button",
            "match": {
              "location": "Graduate152.clickSubmit()"
            },
            "keyword": "And ",
            "BDD_STEP_UUID": "ff2e1f29-3662-4508-b987-372247a5aea2"
          },
          {
            "result": {
              "duration": 2278120600,
              "status": "passed"
            },
            "line": 19,
            "name": "I am on the correct \"https://www.babson.edu/graduate/admissions/thank-you/\" page",
            "match": {
              "arguments": [
                {
                  "val": "\"https://www.babson.edu/graduate/admissions/thank-you/\"",
                  "offset": 20
                }
              ],
              "location": "Graduate152.thankYouPage(String)"
            },
            "keyword": "And ",
            "BDD_STEP_UUID": "f7a438cd-a911-430f-8a58-086a4335d3b1"
          },
          {
            "result": {
              "duration": 2247835100,
              "status": "passed"
            },
            "line": 20,
            "name": "I get the submit request",
            "match": {
              "location": "Graduate152.submitRequest()"
            },
            "keyword": "And ",
            "BDD_STEP_UUID": "e11d0cde-ed89-4d13-9a73-cc3ff6fcb7ee"
          },
          {
            "result": {
              "duration": 3608905600,
              "status": "passed"
            },
            "line": 21,
            "name": "I delete the form record",
            "match": {
              "location": "Graduate152.deleteRequest()"
            },
            "keyword": "Then ",
            "BDD_STEP_UUID": "d4c7ebfb-d6b2-4917-8824-568cc302d3b0"
          }
        ],
        "tags": [
          {
            "name": "@Form"
          },
          {
            "name": "@152"
          },
          {
            "name": "@Graduate"
          },
          {
            "name": "@Grad"
          },
          {
            "name": "@152"
          },
          {
            "name": "@smoke"
          }
        ]
      },
      {
        "BDD_TESTRUN_UUID": "7c7ce618-133b-473a-ad60-954179ceab58",
        "line": 33,
        "name": "Submit Certificate Management Form",
        "description": "",
        "id": "admission/graduate-school/certificate-in-advanced-management/;submit-certificate-management-form;;10",
        "type": "scenario",
        "keyword": "Scenario Outline",
        "steps": [
          {
            "result": {
              "duration": 6163771900,
              "status": "passed"
            },
            "line": 7,
            "name": "I am on the homepage",
            "match": {
              "location": "Graduate152.Homepage()"
            },
            "keyword": "Given ",
            "BDD_STEP_UUID": "d66112cd-3eab-4c36-977a-4f16afa742ec"
          },
          {
            "result": {
              "duration": 2269850700,
              "status": "passed"
            },
            "line": 8,
            "name": "I am on the form \"https://www.babson.edu/admission/graduate-school/request-information/\" page",
            "match": {
              "arguments": [
                {
                  "val": "\"https://www.babson.edu/admission/graduate-school/request-information/\"",
                  "offset": 17
                }
              ],
              "location": "Graduate152.FormPage(String)"
            },
            "keyword": "When ",
            "BDD_STEP_UUID": "a48f453d-49bc-4db0-91b9-a3ac38c9e25d"
          },
          {
            "result": {
              "duration": 1718159600,
              "status": "passed"
            },
            "line": 9,
            "name": "I input the first and last name on the form",
            "match": {
              "location": "Graduate152.FirstLastName()"
            },
            "keyword": "And ",
            "BDD_STEP_UUID": "495aaf07-ee51-4ee7-8707-e012ff3610a2"
          },
          {
            "result": {
              "duration": 847396300,
              "status": "passed"
            },
            "line": 10,
            "name": "I input an email address",
            "match": {
              "location": "Graduate152.inputEmail()"
            },
            "keyword": "And ",
            "BDD_STEP_UUID": "1385df9a-beeb-4b42-9693-0f00ac69acae"
          },
          {
            "result": {
              "duration": 852578700,
              "status": "passed"
            },
            "line": 11,
            "name": "I select a program \"tfa_1075\"",
            "match": {
              "arguments": [
                {
                  "val": "\"tfa_1075\"",
                  "offset": 19
                }
              ],
              "location": "Graduate152.SelectAProgramOfInterest(String)"
            },
            "keyword": "And ",
            "BDD_STEP_UUID": "95a465f6-7a8b-4eed-b4cf-3080bb9518a2"
          },
          {
            "result": {
              "duration": 822022700,
              "status": "passed"
            },
            "line": 12,
            "name": "I select a term \"tfa_1251\"",
            "match": {
              "arguments": [
                {
                  "val": "\"tfa_1251\"",
                  "offset": 16
                }
              ],
              "location": "Graduate152.SelectATermOfEnrollment(String)"
            },
            "keyword": "And ",
            "BDD_STEP_UUID": "10557585-07ec-4fb4-b5eb-b306a0304f50"
          },
          {
            "result": {
              "duration": 744225400,
              "status": "passed"
            },
            "line": 13,
            "name": "I input a phone number",
            "match": {
              "location": "Graduate152.inputPhoneNumber()"
            },
            "keyword": "And ",
            "BDD_STEP_UUID": "ea0990ea-4255-49f7-8e49-acfa6f9a3cad"
          },
          {
            "result": {
              "duration": 726731900,
              "status": "passed"
            },
            "line": 14,
            "name": "I select a country",
            "match": {
              "location": "Graduate152.SelectACountry()"
            },
            "keyword": "And ",
            "BDD_STEP_UUID": "daf09cab-f9e3-4f71-906d-55a2c5947699"
          },
          {
            "result": {
              "duration": 750073800,
              "status": "passed"
            },
            "line": 15,
            "name": "I input a state",
            "match": {
              "location": "Graduate152.inputState()"
            },
            "keyword": "And ",
            "BDD_STEP_UUID": "c782add9-8d5b-4ff8-9c9a-fe7699626417"
          },
          {
            "result": {
              "duration": 829427400,
              "status": "passed"
            },
            "line": 16,
            "name": "I input a city",
            "match": {
              "location": "Graduate152.inputCity()"
            },
            "keyword": "And ",
            "BDD_STEP_UUID": "26d6b1de-d273-498a-ab6a-cda9a9b9c9c3"
          },
          {
            "result": {
              "duration": 819121900,
              "status": "passed"
            },
            "line": 17,
            "name": "I input the postal code",
            "match": {
              "location": "Graduate152.inputPostalZode()"
            },
            "keyword": "And ",
            "BDD_STEP_UUID": "3edd47a2-5eb8-4698-b933-fe2fe0a01515"
          },
          {
            "result": {
              "duration": 5478707200,
              "status": "passed"
            },
            "line": 18,
            "name": "I click the submit button",
            "match": {
              "location": "Graduate152.clickSubmit()"
            },
            "keyword": "And ",
            "BDD_STEP_UUID": "be959235-8596-4225-b844-43c489ed657f"
          },
          {
            "result": {
              "duration": 1501155500,
              "status": "passed"
            },
            "line": 19,
            "name": "I am on the correct \"https://www.babson.edu/graduate/admissions/thank-you/\" page",
            "match": {
              "arguments": [
                {
                  "val": "\"https://www.babson.edu/graduate/admissions/thank-you/\"",
                  "offset": 20
                }
              ],
              "location": "Graduate152.thankYouPage(String)"
            },
            "keyword": "And ",
            "BDD_STEP_UUID": "c8938f54-6ae6-426e-ac3b-1a3d201f3aa4"
          },
          {
            "result": {
              "duration": 2191770400,
              "status": "passed"
            },
            "line": 20,
            "name": "I get the submit request",
            "match": {
              "location": "Graduate152.submitRequest()"
            },
            "keyword": "And ",
            "BDD_STEP_UUID": "ec2ca887-03ce-41f3-914e-de000b75aaf0"
          },
          {
            "result": {
              "duration": 4330854800,
              "status": "passed"
            },
            "line": 21,
            "name": "I delete the form record",
            "match": {
              "location": "Graduate152.deleteRequest()"
            },
            "keyword": "Then ",
            "BDD_STEP_UUID": "daa96b0d-6ae8-480d-a2b5-20cc2fa82498"
          }
        ],
        "tags": [
          {
            "name": "@Form"
          },
          {
            "name": "@152"
          },
          {
            "name": "@Graduate"
          },
          {
            "name": "@Grad"
          },
          {
            "name": "@152"
          },
          {
            "name": "@smoke"
          }
        ]
      },
      {
        "BDD_TESTRUN_UUID": "869d10ff-d239-4d14-80bc-2039d7bb2f57",
        "line": 34,
        "name": "Submit Certificate Management Form",
        "description": "",
        "id": "admission/graduate-school/certificate-in-advanced-management/;submit-certificate-management-form;;11",
        "type": "scenario",
        "keyword": "Scenario Outline",
        "steps": [
          {
            "result": {
              "duration": 6026983100,
              "status": "passed"
            },
            "line": 7,
            "name": "I am on the homepage",
            "match": {
              "location": "Graduate152.Homepage()"
            },
            "keyword": "Given ",
            "BDD_STEP_UUID": "2ab751a1-2baa-49f6-bb8c-5632d3d947ef"
          },
          {
            "result": {
              "duration": 2125552600,
              "status": "passed"
            },
            "line": 8,
            "name": "I am on the form \"https://www.babson.edu/graduate/academics/part-time-business-programs/certificate-in-advanced-management/\" page",
            "match": {
              "arguments": [
                {
                  "val": "\"https://www.babson.edu/graduate/academics/part-time-business-programs/certificate-in-advanced-management/\"",
                  "offset": 17
                }
              ],
              "location": "Graduate152.FormPage(String)"
            },
            "keyword": "When ",
            "BDD_STEP_UUID": "17bf4abc-5bbf-4c4b-829c-9afa3f2dd255"
          },
          {
            "result": {
              "duration": 2205385800,
              "status": "passed"
            },
            "line": 9,
            "name": "I input the first and last name on the form",
            "match": {
              "location": "Graduate152.FirstLastName()"
            },
            "keyword": "And ",
            "BDD_STEP_UUID": "a6d32930-039c-44a6-adb2-f727eef4b60e"
          },
          {
            "result": {
              "duration": 928505700,
              "status": "passed"
            },
            "line": 10,
            "name": "I input an email address",
            "match": {
              "location": "Graduate152.inputEmail()"
            },
            "keyword": "And ",
            "BDD_STEP_UUID": "49332e8b-618a-497f-8880-6a9a1f875a5f"
          },
          {
            "result": {
              "duration": 832613000,
              "status": "passed"
            },
            "line": 11,
            "name": "I select a program \"tfa_1156\"",
            "match": {
              "arguments": [
                {
                  "val": "\"tfa_1156\"",
                  "offset": 19
                }
              ],
              "location": "Graduate152.SelectAProgramOfInterest(String)"
            },
            "keyword": "And ",
            "BDD_STEP_UUID": "f09116d9-f0dd-4387-af4d-0fa4947e91f4"
          },
          {
            "result": {
              "duration": 828667000,
              "status": "passed"
            },
            "line": 12,
            "name": "I select a term \"tfa_1246\"",
            "match": {
              "arguments": [
                {
                  "val": "\"tfa_1246\"",
                  "offset": 16
                }
              ],
              "location": "Graduate152.SelectATermOfEnrollment(String)"
            },
            "keyword": "And ",
            "BDD_STEP_UUID": "8b5d03db-fdd8-4eb1-b96e-ef7e4fe54242"
          },
          {
            "result": {
              "duration": 750889200,
              "status": "passed"
            },
            "line": 13,
            "name": "I input a phone number",
            "match": {
              "location": "Graduate152.inputPhoneNumber()"
            },
            "keyword": "And ",
            "BDD_STEP_UUID": "d0fd5cce-64fa-4b34-8492-b770ca62a1f3"
          },
          {
            "result": {
              "duration": 735674500,
              "status": "passed"
            },
            "line": 14,
            "name": "I select a country",
            "match": {
              "location": "Graduate152.SelectACountry()"
            },
            "keyword": "And ",
            "BDD_STEP_UUID": "44e59bdd-42f3-46ce-a72f-d891f51c2233"
          },
          {
            "result": {
              "duration": 759496200,
              "status": "passed"
            },
            "line": 15,
            "name": "I input a state",
            "match": {
              "location": "Graduate152.inputState()"
            },
            "keyword": "And ",
            "BDD_STEP_UUID": "6bff523a-2c09-4569-8c2e-09c57885d9af"
          },
          {
            "result": {
              "duration": 854687900,
              "status": "passed"
            },
            "line": 16,
            "name": "I input a city",
            "match": {
              "location": "Graduate152.inputCity()"
            },
            "keyword": "And ",
            "BDD_STEP_UUID": "cbfd3a32-744a-471f-93fe-6ab52ce5de8d"
          },
          {
            "result": {
              "duration": 895602700,
              "status": "passed"
            },
            "line": 17,
            "name": "I input the postal code",
            "match": {
              "location": "Graduate152.inputPostalZode()"
            },
            "keyword": "And ",
            "BDD_STEP_UUID": "e1f62e40-eea2-4718-b973-444ab47e56a1"
          },
          {
            "result": {
              "duration": 5459787800,
              "status": "passed"
            },
            "line": 18,
            "name": "I click the submit button",
            "match": {
              "location": "Graduate152.clickSubmit()"
            },
            "keyword": "And ",
            "BDD_STEP_UUID": "241f3e8c-3f7b-4c78-b361-acf13d52be48"
          },
          {
            "result": {
              "duration": 1480376200,
              "status": "passed"
            },
            "line": 19,
            "name": "I am on the correct \"https://www.babson.edu/graduate/admissions/thank-you/\" page",
            "match": {
              "arguments": [
                {
                  "val": "\"https://www.babson.edu/graduate/admissions/thank-you/\"",
                  "offset": 20
                }
              ],
              "location": "Graduate152.thankYouPage(String)"
            },
            "keyword": "And ",
            "BDD_STEP_UUID": "cc2ea0a4-62a6-4673-b786-75c4a81f0554"
          },
          {
            "result": {
              "duration": 2212273200,
              "status": "passed"
            },
            "line": 20,
            "name": "I get the submit request",
            "match": {
              "location": "Graduate152.submitRequest()"
            },
            "keyword": "And ",
            "BDD_STEP_UUID": "9daa5840-f368-4d84-9d05-ff1067385b2a"
          },
          {
            "result": {
              "duration": 4147725700,
              "status": "passed"
            },
            "line": 21,
            "name": "I delete the form record",
            "match": {
              "location": "Graduate152.deleteRequest()"
            },
            "keyword": "Then ",
            "BDD_STEP_UUID": "89062086-fb52-48a7-bb88-f9194dbb2763"
          }
        ],
        "tags": [
          {
            "name": "@Form"
          },
          {
            "name": "@152"
          },
          {
            "name": "@Graduate"
          },
          {
            "name": "@Grad"
          },
          {
            "name": "@152"
          },
          {
            "name": "@smoke"
          }
        ]
      }
    ],
    "name": "admission/graduate-school/certificate-in-advanced-management/",
    "description": "  I want to submit and verify form submits with the correct data",
    "id": "admission/graduate-school/certificate-in-advanced-management/",
    "keyword": "Feature",
    "uri": "C:/Users/rkeough/git/babson-automation/Include/features/Forms/152Graduate/Graduate152.feature",
    "tags": [
      {
        "name": "@Form",
        "type": "Tag",
        "location": {
          "line": 1,
          "column": 1
        }
      },
      {
        "name": "@152",
        "type": "Tag",
        "location": {
          "line": 1,
          "column": 7
        }
      },
      {
        "name": "@Graduate",
        "type": "Tag",
        "location": {
          "line": 1,
          "column": 12
        }
      }
    ]
  }
]