Suite/Test/Step Name,Browser,Description,Tag,Start time,End time,Duration,Status
Drupal_Check,Chrome 124.0.0.0,,,2024-04-25 09:56:25,2024-04-25 09:57:22,57.150s,PASSED
,,,,,,,
Test Cases/Drupal/Student_Portal_Homepage,Chrome 124.0.0.0,,,2024-04-25 09:56:25,2024-04-25 09:56:55,29.275s,PASSED
"openBrowser("""")",Chrome 124.0.0.0,,,2024-04-25 09:56:26,2024-04-25 09:56:28,2.310s,PASSED
maximizeWindow(),Chrome 124.0.0.0,,,2024-04-25 09:56:28,2024-04-25 09:56:28,0.137s,PASSED
"navigateToUrl(""https://intranet.babson.edu/user/login"")",Chrome 124.0.0.0,,,2024-04-25 09:56:28,2024-04-25 09:56:30,1.215s,PASSED
delay(2),Chrome 124.0.0.0,,,2024-04-25 09:56:30,2024-04-25 09:56:32,2.032s,PASSED
"click(findTestObject(""Drupal/input_Username_name""))",Chrome 124.0.0.0,,,2024-04-25 09:56:32,2024-04-25 09:56:32,0.407s,PASSED
"setText(findTestObject(""Object Repository/Drupal/input_Username_name""), ""test_editor"")",Chrome 124.0.0.0,,,2024-04-25 09:56:32,2024-04-25 09:56:33,0.652s,PASSED
"click(findTestObject(""Drupal/input_Password_pass""))",Chrome 124.0.0.0,,,2024-04-25 09:56:33,2024-04-25 09:56:33,0.347s,PASSED
"setEncryptedText(findTestObject(""Drupal/input_Password_pass""), ""idh87fIpnxr/jR6LHqLNqQ=="")",Chrome 124.0.0.0,,,2024-04-25 09:56:33,2024-04-25 09:56:33,0.413s,PASSED
"click(findTestObject(""Object Repository/Drupal/input_Federated login_op""))",Chrome 124.0.0.0,,,2024-04-25 09:56:33,2024-04-25 09:56:42,8.811s,PASSED
delay(5),Chrome 124.0.0.0,,,2024-04-25 09:56:42,2024-04-25 09:56:47,5.014s,PASSED
"click(findTestObject(""Object Repository/EduHomepage/Student Portal_Menu""))",Chrome 124.0.0.0,,,2024-04-25 09:56:47,2024-04-25 09:56:52,4.374s,PASSED
"click(findTestObject(""Drupal/TrendingLinksText""))",Chrome 124.0.0.0,,,2024-04-25 09:56:52,2024-04-25 09:56:53,1.841s,PASSED
"click(findTestObject(""Drupal/EventsText""))",Chrome 124.0.0.0,,,2024-04-25 09:56:53,2024-04-25 09:56:54,0.569s,PASSED
closeBrowser(),Chrome 124.0.0.0,,,2024-04-25 09:56:54,2024-04-25 09:56:55,0.667s,PASSED
Start listener action : sampleAfterTestCase,Chrome 124.0.0.0,,,2024-04-25 09:56:55,2024-04-25 09:56:55,0.007s,PASSED
Start listener action : sampleAfterTestCase,Chrome 124.0.0.0,,,2024-04-25 09:56:55,2024-04-25 09:56:55,0.005s,PASSED
,,,,,,,
Test Cases/Drupal/IT_Portal_Homepage,Chrome 124.0.0.0,,,2024-04-25 09:56:55,2024-04-25 09:57:22,27.672s,PASSED
"openBrowser("""")",Chrome 124.0.0.0,,,2024-04-25 09:56:55,2024-04-25 09:56:56,1.320s,PASSED
maximizeWindow(),Chrome 124.0.0.0,,,2024-04-25 09:56:56,2024-04-25 09:56:56,0.129s,PASSED
"navigateToUrl(""https://intranet.babson.edu/user/login"")",Chrome 124.0.0.0,,,2024-04-25 09:56:56,2024-04-25 09:56:58,1.139s,PASSED
delay(4),Chrome 124.0.0.0,,,2024-04-25 09:56:58,2024-04-25 09:57:02,4.001s,PASSED
"click(findTestObject(""Drupal/input_Username_name""))",Chrome 124.0.0.0,,,2024-04-25 09:57:02,2024-04-25 09:57:02,0.348s,PASSED
"setText(findTestObject(""Object Repository/Drupal/input_Username_name""), ""test_editor"")",Chrome 124.0.0.0,,,2024-04-25 09:57:02,2024-04-25 09:57:03,0.651s,PASSED
"click(findTestObject(""Drupal/input_Password_pass""))",Chrome 124.0.0.0,,,2024-04-25 09:57:03,2024-04-25 09:57:03,0.341s,PASSED
"setEncryptedText(findTestObject(""Drupal/input_Password_pass""), ""idh87fIpnxr/jR6LHqLNqQ=="")",Chrome 124.0.0.0,,,2024-04-25 09:57:03,2024-04-25 09:57:03,0.381s,PASSED
"click(findTestObject(""Object Repository/Drupal/input_Federated login_op""))",Chrome 124.0.0.0,,,2024-04-25 09:57:03,2024-04-25 09:57:09,5.269s,PASSED
delay(5),Chrome 124.0.0.0,,,2024-04-25 09:57:09,2024-04-25 09:57:14,5.015s,PASSED
"navigateToUrl(""https://intranet.babson.edu/it"")",Chrome 124.0.0.0,,,2024-04-25 09:57:14,2024-04-25 09:57:15,1.069s,PASSED
delay(5),Chrome 124.0.0.0,,,2024-04-25 09:57:15,2024-04-25 09:57:20,5.007s,PASSED
"click(findTestObject(""Object Repository/Drupal/Information_Technology_Menu""))",Chrome 124.0.0.0,,,2024-04-25 09:57:20,2024-04-25 09:57:21,1.634s,PASSED
"click(findTestObject(""Object Repository/Drupal/SearchText""))",Chrome 124.0.0.0,,,2024-04-25 09:57:21,2024-04-25 09:57:22,0.471s,PASSED
closeBrowser(),Chrome 124.0.0.0,,,2024-04-25 09:57:22,2024-04-25 09:57:22,0.660s,PASSED
Start listener action : sampleAfterTestCase,Chrome 124.0.0.0,,,2024-04-25 09:57:22,2024-04-25 09:57:22,0.003s,PASSED
Start listener action : sampleAfterTestCase,Chrome 124.0.0.0,,,2024-04-25 09:57:22,2024-04-25 09:57:22,0.007s,PASSED
