Suite/Test/Step Name,Browser,Description,Tag,Start time,End time,Duration,Status
Graduate152,Chrome 106.0.0.0,,,2022-11-02 10:39:15,2022-11-02 10:59:43,20m - 27.774s,FAILED
,,,,,,,
Test Cases/BDD/Forms/Graduate152,Chrome 106.0.0.0,,,2022-11-02 10:54:36,2022-11-02 10:59:43,5m - 6.552s,FAILED
"runFeatureFile(""Include/features/Forms/152Graduate/Graduate152.feature"")",Chrome 106.0.0.0,,,2022-11-02 10:54:36,2022-11-02 10:59:43,5m - 6.538s,FAILED
