[
  {
    "line": 2,
    "elements": [
      {
        "BDD_TESTRUN_UUID": "e7e8ab11-871c-4092-9a1f-4fb693ed9ed5",
        "line": 25,
        "name": "Submit Certificate Management Form",
        "description": "",
        "id": "admission/graduate-school/certificate-in-advanced-management/;submit-certificate-management-form;;2",
        "type": "scenario",
        "keyword": "Scenario Outline",
        "steps": [
          {
            "result": {
              "error_message": "com.kms.katalon.core.webui.exception.BrowserNotOpenedException: Browser is not opened\nBuild info: version: \u00273.141.59\u0027, revision: \u0027e82be7d358\u0027, time: \u00272018-11-14T08:25:53\u0027\nSystem info: host: \u0027L18-0032\u0027, ip: \u002710.0.0.226\u0027, os.name: \u0027Windows 10\u0027, os.arch: \u0027amd64\u0027, os.version: \u002710.0\u0027, java.version: \u00271.8.0_181\u0027\nDriver info: driver.version: DriverFactory$getWebDriver\r\n\tat com.kms.katalon.core.webui.driver.DriverFactory.verifyWebDriverIsOpen(DriverFactory.java:985)\r\n\tat com.kms.katalon.core.webui.driver.DriverFactory.verifyWebDriver(DriverFactory.java:970)\r\n\tat com.kms.katalon.core.webui.driver.DriverFactory.getWebDriver(DriverFactory.java:956)\r\n\tat com.kms.katalon.core.webui.driver.DriverFactory$getWebDriver.call(Unknown Source)\r\n\tat org.codehaus.groovy.runtime.callsite.CallSiteArray.defaultCall(CallSiteArray.java:47)\r\n\tat org.codehaus.groovy.runtime.callsite.AbstractCallSite.call(AbstractCallSite.java:116)\r\n\tat org.codehaus.groovy.runtime.callsite.AbstractCallSite.call(AbstractCallSite.java:120)\r\n\tat forms.Graduate152.Homepage(Graduate152.groovy:50)\r\n\tat ✽.I am on the homepage(C:/Users/rkeough/git/babson-automation/Include/features/Forms/152Graduate/Graduate152.feature:7)\r\n",
              "duration": 4442175000,
              "status": "failed"
            },
            "line": 7,
            "name": "I am on the homepage",
            "match": {
              "location": "Graduate152.Homepage()"
            },
            "keyword": "Given ",
            "BDD_STEP_UUID": "926f0a93-2112-4493-8227-e45d0d43c15b"
          },
          {
            "result": {
              "status": "skipped"
            },
            "line": 8,
            "name": "I am on the form \"https://www.babson.edu/academics/graduate-school/\" page",
            "match": {
              "arguments": [
                {
                  "val": "\"https://www.babson.edu/academics/graduate-school/\"",
                  "offset": 17
                }
              ],
              "location": "Graduate152.FormPage(String)"
            },
            "keyword": "When ",
            "BDD_STEP_UUID": "fd6680f4-ae3d-4899-8117-66ec81aac6af"
          },
          {
            "result": {
              "status": "skipped"
            },
            "line": 9,
            "name": "I input the first and last name on the form",
            "match": {
              "location": "Graduate152.FirstLastName()"
            },
            "keyword": "And ",
            "BDD_STEP_UUID": "4a44b606-a9ad-4851-8d3d-e068ddd8d9a4"
          },
          {
            "result": {
              "status": "skipped"
            },
            "line": 10,
            "name": "I input an email address",
            "match": {
              "location": "Graduate152.inputEmail()"
            },
            "keyword": "And ",
            "BDD_STEP_UUID": "552202b9-1e2d-491c-9e67-bc6069c4eeef"
          },
          {
            "result": {
              "status": "skipped"
            },
            "line": 11,
            "name": "I select a program \"tfa_1184\"",
            "match": {
              "arguments": [
                {
                  "val": "\"tfa_1184\"",
                  "offset": 19
                }
              ],
              "location": "Graduate152.SelectAProgramOfInterest(String)"
            },
            "keyword": "And ",
            "BDD_STEP_UUID": "02c0c8c1-6cc1-4844-8708-6abf7505bc54"
          },
          {
            "result": {
              "status": "skipped"
            },
            "line": 12,
            "name": "I select a term \"tfa_1186\"",
            "match": {
              "arguments": [
                {
                  "val": "\"tfa_1186\"",
                  "offset": 16
                }
              ],
              "location": "Graduate152.SelectATermOfEnrollment(String)"
            },
            "keyword": "And ",
            "BDD_STEP_UUID": "d72c2100-8ee2-47d4-9e56-cbca4721e72c"
          },
          {
            "result": {
              "status": "skipped"
            },
            "line": 13,
            "name": "I input a phone number",
            "match": {
              "location": "Graduate152.inputPhoneNumber()"
            },
            "keyword": "And ",
            "BDD_STEP_UUID": "388e333b-a448-4f3e-b876-f607aa0730ea"
          },
          {
            "result": {
              "status": "skipped"
            },
            "line": 14,
            "name": "I select a country",
            "match": {
              "location": "Graduate152.SelectACountry()"
            },
            "keyword": "And ",
            "BDD_STEP_UUID": "62c16d3a-8d5d-40c5-929b-9c0bf952e1b5"
          },
          {
            "result": {
              "status": "skipped"
            },
            "line": 15,
            "name": "I input a state",
            "match": {
              "location": "Graduate152.inputState()"
            },
            "keyword": "And ",
            "BDD_STEP_UUID": "2a261d99-5652-4cbc-b42c-295c45875953"
          },
          {
            "result": {
              "status": "skipped"
            },
            "line": 16,
            "name": "I input a city",
            "match": {
              "location": "Graduate152.inputCity()"
            },
            "keyword": "And ",
            "BDD_STEP_UUID": "ada39d61-dfa2-4507-b8d6-d016283a8884"
          },
          {
            "result": {
              "status": "skipped"
            },
            "line": 17,
            "name": "I input the postal code",
            "match": {
              "location": "Graduate152.inputPostalZode()"
            },
            "keyword": "And ",
            "BDD_STEP_UUID": "d4eb8c50-fd2c-4a10-97aa-18a9e2266ada"
          },
          {
            "result": {
              "status": "skipped"
            },
            "line": 18,
            "name": "I click the submit button",
            "match": {
              "location": "Graduate152.clickSubmit()"
            },
            "keyword": "And ",
            "BDD_STEP_UUID": "7ca711e3-c82c-42e2-9469-638cb61ce24d"
          },
          {
            "result": {
              "status": "skipped"
            },
            "line": 19,
            "name": "I am on the correct \"https://www.babson.edu/graduate/admissions/thank-you/\" page",
            "match": {
              "arguments": [
                {
                  "val": "\"https://www.babson.edu/graduate/admissions/thank-you/\"",
                  "offset": 20
                }
              ],
              "location": "Graduate152.thankYouPage(String)"
            },
            "keyword": "And ",
            "BDD_STEP_UUID": "26b6e9c0-d981-42e3-90c6-964c80f6e8e3"
          },
          {
            "result": {
              "status": "skipped"
            },
            "line": 20,
            "name": "I get the submit request",
            "match": {
              "location": "Graduate152.submitRequest()"
            },
            "keyword": "And ",
            "BDD_STEP_UUID": "3399bb24-422e-488f-be73-012693851a16"
          },
          {
            "result": {
              "status": "skipped"
            },
            "line": 21,
            "name": "I delete the form record",
            "match": {
              "location": "Graduate152.deleteRequest()"
            },
            "keyword": "Then ",
            "BDD_STEP_UUID": "3a4ec12f-db3b-4bde-89eb-5ba12d79be39"
          }
        ],
        "tags": [
          {
            "name": "@Form"
          },
          {
            "name": "@152"
          },
          {
            "name": "@Graduate"
          },
          {
            "name": "@Grad"
          },
          {
            "name": "@152"
          },
          {
            "name": "@smoke"
          }
        ]
      },
      {
        "BDD_TESTRUN_UUID": "b7895f66-7ffa-4b2b-a9a4-a7e6fac42131",
        "line": 26,
        "name": "Submit Certificate Management Form",
        "description": "",
        "id": "admission/graduate-school/certificate-in-advanced-management/;submit-certificate-management-form;;3",
        "type": "scenario",
        "keyword": "Scenario Outline",
        "steps": [
          {
            "result": {
              "error_message": "com.kms.katalon.core.webui.exception.BrowserNotOpenedException: Browser is not opened\nBuild info: version: \u00273.141.59\u0027, revision: \u0027e82be7d358\u0027, time: \u00272018-11-14T08:25:53\u0027\nSystem info: host: \u0027L18-0032\u0027, ip: \u002710.0.0.226\u0027, os.name: \u0027Windows 10\u0027, os.arch: \u0027amd64\u0027, os.version: \u002710.0\u0027, java.version: \u00271.8.0_181\u0027\nDriver info: driver.version: DriverFactory$getWebDriver\r\n\tat com.kms.katalon.core.webui.driver.DriverFactory.verifyWebDriverIsOpen(DriverFactory.java:985)\r\n\tat com.kms.katalon.core.webui.driver.DriverFactory.verifyWebDriver(DriverFactory.java:970)\r\n\tat com.kms.katalon.core.webui.driver.DriverFactory.getWebDriver(DriverFactory.java:956)\r\n\tat com.kms.katalon.core.webui.driver.DriverFactory$getWebDriver.call(Unknown Source)\r\n\tat forms.Graduate152.Homepage(Graduate152.groovy:50)\r\n\tat ✽.I am on the homepage(C:/Users/rkeough/git/babson-automation/Include/features/Forms/152Graduate/Graduate152.feature:7)\r\n",
              "duration": 3170977500,
              "status": "failed"
            },
            "line": 7,
            "name": "I am on the homepage",
            "match": {
              "location": "Graduate152.Homepage()"
            },
            "keyword": "Given ",
            "BDD_STEP_UUID": "81feb94b-5193-4a35-a467-3c994d06e6b9"
          },
          {
            "result": {
              "status": "skipped"
            },
            "line": 8,
            "name": "I am on the form \"https://www.babson.edu/academics/graduate-school/mba/full-time-mba/\" page",
            "match": {
              "arguments": [
                {
                  "val": "\"https://www.babson.edu/academics/graduate-school/mba/full-time-mba/\"",
                  "offset": 17
                }
              ],
              "location": "Graduate152.FormPage(String)"
            },
            "keyword": "When ",
            "BDD_STEP_UUID": "3f67636d-9bdc-411c-ac55-214a8beea017"
          },
          {
            "result": {
              "status": "skipped"
            },
            "line": 9,
            "name": "I input the first and last name on the form",
            "match": {
              "location": "Graduate152.FirstLastName()"
            },
            "keyword": "And ",
            "BDD_STEP_UUID": "411b7c0c-ddb4-4db8-b05f-13bb4070f2ce"
          },
          {
            "result": {
              "status": "skipped"
            },
            "line": 10,
            "name": "I input an email address",
            "match": {
              "location": "Graduate152.inputEmail()"
            },
            "keyword": "And ",
            "BDD_STEP_UUID": "ba0e6f5e-a11e-4817-93d5-273d5f38a802"
          },
          {
            "result": {
              "status": "skipped"
            },
            "line": 11,
            "name": "I select a program \"tfa_1184\"",
            "match": {
              "arguments": [
                {
                  "val": "\"tfa_1184\"",
                  "offset": 19
                }
              ],
              "location": "Graduate152.SelectAProgramOfInterest(String)"
            },
            "keyword": "And ",
            "BDD_STEP_UUID": "a5a736ce-b32f-4287-8007-dae57807bba4"
          },
          {
            "result": {
              "status": "skipped"
            },
            "line": 12,
            "name": "I select a term \"tfa_1257\"",
            "match": {
              "arguments": [
                {
                  "val": "\"tfa_1257\"",
                  "offset": 16
                }
              ],
              "location": "Graduate152.SelectATermOfEnrollment(String)"
            },
            "keyword": "And ",
            "BDD_STEP_UUID": "6e331183-a346-42e3-a97d-6c8e50a19b3c"
          },
          {
            "result": {
              "status": "skipped"
            },
            "line": 13,
            "name": "I input a phone number",
            "match": {
              "location": "Graduate152.inputPhoneNumber()"
            },
            "keyword": "And ",
            "BDD_STEP_UUID": "a8209cbf-a712-464b-b94e-0428ca5174af"
          },
          {
            "result": {
              "status": "skipped"
            },
            "line": 14,
            "name": "I select a country",
            "match": {
              "location": "Graduate152.SelectACountry()"
            },
            "keyword": "And ",
            "BDD_STEP_UUID": "51b0c6fe-e5a6-4ec1-8d0c-4a0cd65d5bb9"
          },
          {
            "result": {
              "status": "skipped"
            },
            "line": 15,
            "name": "I input a state",
            "match": {
              "location": "Graduate152.inputState()"
            },
            "keyword": "And ",
            "BDD_STEP_UUID": "48785ecb-ab3d-45c4-864a-bdfc5927ce82"
          },
          {
            "result": {
              "status": "skipped"
            },
            "line": 16,
            "name": "I input a city",
            "match": {
              "location": "Graduate152.inputCity()"
            },
            "keyword": "And ",
            "BDD_STEP_UUID": "a7ef144e-9352-417b-a3ae-d426e4ce0c32"
          },
          {
            "result": {
              "status": "skipped"
            },
            "line": 17,
            "name": "I input the postal code",
            "match": {
              "location": "Graduate152.inputPostalZode()"
            },
            "keyword": "And ",
            "BDD_STEP_UUID": "6bec4879-b146-4068-8176-a8007dcd71eb"
          },
          {
            "result": {
              "status": "skipped"
            },
            "line": 18,
            "name": "I click the submit button",
            "match": {
              "location": "Graduate152.clickSubmit()"
            },
            "keyword": "And ",
            "BDD_STEP_UUID": "580cdc1d-d0a0-43aa-ba21-fdadeb5fc60f"
          },
          {
            "result": {
              "status": "skipped"
            },
            "line": 19,
            "name": "I am on the correct \"https://www.babson.edu/graduate/admissions/thank-you/\" page",
            "match": {
              "arguments": [
                {
                  "val": "\"https://www.babson.edu/graduate/admissions/thank-you/\"",
                  "offset": 20
                }
              ],
              "location": "Graduate152.thankYouPage(String)"
            },
            "keyword": "And ",
            "BDD_STEP_UUID": "2c10de71-346f-4480-aac0-bd089228d8e3"
          },
          {
            "result": {
              "status": "skipped"
            },
            "line": 20,
            "name": "I get the submit request",
            "match": {
              "location": "Graduate152.submitRequest()"
            },
            "keyword": "And ",
            "BDD_STEP_UUID": "c1ceabf2-7451-4af3-bb3f-bd605de13bce"
          },
          {
            "result": {
              "status": "skipped"
            },
            "line": 21,
            "name": "I delete the form record",
            "match": {
              "location": "Graduate152.deleteRequest()"
            },
            "keyword": "Then ",
            "BDD_STEP_UUID": "09caf50e-fca9-48ce-941d-58802fc17b57"
          }
        ],
        "tags": [
          {
            "name": "@Form"
          },
          {
            "name": "@152"
          },
          {
            "name": "@Graduate"
          },
          {
            "name": "@Grad"
          },
          {
            "name": "@152"
          },
          {
            "name": "@smoke"
          }
        ]
      },
      {
        "BDD_TESTRUN_UUID": "aac09487-a8e3-47f0-9b50-f2c0c34cff07",
        "line": 27,
        "name": "Submit Certificate Management Form",
        "description": "",
        "id": "admission/graduate-school/certificate-in-advanced-management/;submit-certificate-management-form;;4",
        "type": "scenario",
        "keyword": "Scenario Outline",
        "steps": [
          {
            "result": {
              "error_message": "com.kms.katalon.core.webui.exception.BrowserNotOpenedException: Browser is not opened\nBuild info: version: \u00273.141.59\u0027, revision: \u0027e82be7d358\u0027, time: \u00272018-11-14T08:25:53\u0027\nSystem info: host: \u0027L18-0032\u0027, ip: \u002710.0.0.226\u0027, os.name: \u0027Windows 10\u0027, os.arch: \u0027amd64\u0027, os.version: \u002710.0\u0027, java.version: \u00271.8.0_181\u0027\nDriver info: driver.version: DriverFactory$getWebDriver\r\n\tat com.kms.katalon.core.webui.driver.DriverFactory.verifyWebDriverIsOpen(DriverFactory.java:985)\r\n\tat com.kms.katalon.core.webui.driver.DriverFactory.verifyWebDriver(DriverFactory.java:970)\r\n\tat com.kms.katalon.core.webui.driver.DriverFactory.getWebDriver(DriverFactory.java:956)\r\n\tat com.kms.katalon.core.webui.driver.DriverFactory$getWebDriver.call(Unknown Source)\r\n\tat forms.Graduate152.Homepage(Graduate152.groovy:50)\r\n\tat ✽.I am on the homepage(C:/Users/rkeough/git/babson-automation/Include/features/Forms/152Graduate/Graduate152.feature:7)\r\n",
              "duration": 2107361600,
              "status": "failed"
            },
            "line": 7,
            "name": "I am on the homepage",
            "match": {
              "location": "Graduate152.Homepage()"
            },
            "keyword": "Given ",
            "BDD_STEP_UUID": "62b8679f-e31c-49b0-a5c7-4945143e2a01"
          },
          {
            "result": {
              "status": "skipped"
            },
            "line": 8,
            "name": "I am on the form \"https://www.babson.edu/business-programs-wes/master-of-science-in-management-in-entrepreneurial-leadership/\" page",
            "match": {
              "arguments": [
                {
                  "val": "\"https://www.babson.edu/business-programs-wes/master-of-science-in-management-in-entrepreneurial-leadership/\"",
                  "offset": 17
                }
              ],
              "location": "Graduate152.FormPage(String)"
            },
            "keyword": "When ",
            "BDD_STEP_UUID": "da42897c-8b20-4067-be47-7389dd7c1013"
          },
          {
            "result": {
              "status": "skipped"
            },
            "line": 9,
            "name": "I input the first and last name on the form",
            "match": {
              "location": "Graduate152.FirstLastName()"
            },
            "keyword": "And ",
            "BDD_STEP_UUID": "fd8d56b4-1f1f-4200-9d1e-7f2b3db68864"
          },
          {
            "result": {
              "status": "skipped"
            },
            "line": 10,
            "name": "I input an email address",
            "match": {
              "location": "Graduate152.inputEmail()"
            },
            "keyword": "And ",
            "BDD_STEP_UUID": "766a4628-b3c1-4e57-890b-fe776b8e44c1"
          },
          {
            "result": {
              "status": "skipped"
            },
            "line": 11,
            "name": "I select a program \"tfa_1043\"",
            "match": {
              "arguments": [
                {
                  "val": "\"tfa_1043\"",
                  "offset": 19
                }
              ],
              "location": "Graduate152.SelectAProgramOfInterest(String)"
            },
            "keyword": "And ",
            "BDD_STEP_UUID": "8f5f9384-8bb0-4cf7-a8eb-321ed3195e49"
          },
          {
            "result": {
              "status": "skipped"
            },
            "line": 12,
            "name": "I select a term \"tfa_1188\"",
            "match": {
              "arguments": [
                {
                  "val": "\"tfa_1188\"",
                  "offset": 16
                }
              ],
              "location": "Graduate152.SelectATermOfEnrollment(String)"
            },
            "keyword": "And ",
            "BDD_STEP_UUID": "3d55b040-2efa-42a4-b810-40b3b664cf9f"
          },
          {
            "result": {
              "status": "skipped"
            },
            "line": 13,
            "name": "I input a phone number",
            "match": {
              "location": "Graduate152.inputPhoneNumber()"
            },
            "keyword": "And ",
            "BDD_STEP_UUID": "8eabb566-62c3-45db-8292-3bc0e42f14ce"
          },
          {
            "result": {
              "status": "skipped"
            },
            "line": 14,
            "name": "I select a country",
            "match": {
              "location": "Graduate152.SelectACountry()"
            },
            "keyword": "And ",
            "BDD_STEP_UUID": "8ebe3ea0-575e-4b1d-90c4-936f9165f9f2"
          },
          {
            "result": {
              "status": "skipped"
            },
            "line": 15,
            "name": "I input a state",
            "match": {
              "location": "Graduate152.inputState()"
            },
            "keyword": "And ",
            "BDD_STEP_UUID": "f7871a4f-ed6b-4484-aada-77ce06004adc"
          },
          {
            "result": {
              "status": "skipped"
            },
            "line": 16,
            "name": "I input a city",
            "match": {
              "location": "Graduate152.inputCity()"
            },
            "keyword": "And ",
            "BDD_STEP_UUID": "4a116960-626b-47eb-8c98-0e82a7d4831d"
          },
          {
            "result": {
              "status": "skipped"
            },
            "line": 17,
            "name": "I input the postal code",
            "match": {
              "location": "Graduate152.inputPostalZode()"
            },
            "keyword": "And ",
            "BDD_STEP_UUID": "6a8d01bb-5da5-4ec0-bb47-943efbb08ff3"
          },
          {
            "result": {
              "status": "skipped"
            },
            "line": 18,
            "name": "I click the submit button",
            "match": {
              "location": "Graduate152.clickSubmit()"
            },
            "keyword": "And ",
            "BDD_STEP_UUID": "02aa08b9-5583-4c80-bd04-cc7eb9532648"
          },
          {
            "result": {
              "status": "skipped"
            },
            "line": 19,
            "name": "I am on the correct \"https://www.babson.edu/graduate/admissions/thank-you/\" page",
            "match": {
              "arguments": [
                {
                  "val": "\"https://www.babson.edu/graduate/admissions/thank-you/\"",
                  "offset": 20
                }
              ],
              "location": "Graduate152.thankYouPage(String)"
            },
            "keyword": "And ",
            "BDD_STEP_UUID": "b0c0a2e1-02ce-4b56-aa03-c6c0c0ccbcfa"
          },
          {
            "result": {
              "status": "skipped"
            },
            "line": 20,
            "name": "I get the submit request",
            "match": {
              "location": "Graduate152.submitRequest()"
            },
            "keyword": "And ",
            "BDD_STEP_UUID": "7b9e3bc8-8eb9-41d8-8f5d-9504a55e59e2"
          },
          {
            "result": {
              "status": "skipped"
            },
            "line": 21,
            "name": "I delete the form record",
            "match": {
              "location": "Graduate152.deleteRequest()"
            },
            "keyword": "Then ",
            "BDD_STEP_UUID": "ed4cca2b-c2b1-4cb3-ae7e-4045e2e6047d"
          }
        ],
        "tags": [
          {
            "name": "@Form"
          },
          {
            "name": "@152"
          },
          {
            "name": "@Graduate"
          },
          {
            "name": "@Grad"
          },
          {
            "name": "@152"
          },
          {
            "name": "@smoke"
          }
        ]
      },
      {
        "BDD_TESTRUN_UUID": "f154ed48-b425-4c6d-bc23-eef04573385d",
        "line": 28,
        "name": "Submit Certificate Management Form",
        "description": "",
        "id": "admission/graduate-school/certificate-in-advanced-management/;submit-certificate-management-form;;5",
        "type": "scenario",
        "keyword": "Scenario Outline",
        "steps": [
          {
            "result": {
              "error_message": "com.kms.katalon.core.webui.exception.BrowserNotOpenedException: Browser is not opened\nBuild info: version: \u00273.141.59\u0027, revision: \u0027e82be7d358\u0027, time: \u00272018-11-14T08:25:53\u0027\nSystem info: host: \u0027L18-0032\u0027, ip: \u002710.0.0.226\u0027, os.name: \u0027Windows 10\u0027, os.arch: \u0027amd64\u0027, os.version: \u002710.0\u0027, java.version: \u00271.8.0_181\u0027\nDriver info: driver.version: DriverFactory$getWebDriver\r\n\tat com.kms.katalon.core.webui.driver.DriverFactory.verifyWebDriverIsOpen(DriverFactory.java:985)\r\n\tat com.kms.katalon.core.webui.driver.DriverFactory.verifyWebDriver(DriverFactory.java:970)\r\n\tat com.kms.katalon.core.webui.driver.DriverFactory.getWebDriver(DriverFactory.java:956)\r\n\tat com.kms.katalon.core.webui.driver.DriverFactory$getWebDriver.call(Unknown Source)\r\n\tat forms.Graduate152.Homepage(Graduate152.groovy:50)\r\n\tat ✽.I am on the homepage(C:/Users/rkeough/git/babson-automation/Include/features/Forms/152Graduate/Graduate152.feature:7)\r\n",
              "duration": 2244984900,
              "status": "failed"
            },
            "line": 7,
            "name": "I am on the homepage",
            "match": {
              "location": "Graduate152.Homepage()"
            },
            "keyword": "Given ",
            "BDD_STEP_UUID": "9d977da2-8444-44f0-b106-f238e42dd8ca"
          },
          {
            "result": {
              "status": "skipped"
            },
            "line": 8,
            "name": "I am on the form \"https://www.babson.edu/academics/graduate-school/mba/\" page",
            "match": {
              "arguments": [
                {
                  "val": "\"https://www.babson.edu/academics/graduate-school/mba/\"",
                  "offset": 17
                }
              ],
              "location": "Graduate152.FormPage(String)"
            },
            "keyword": "When ",
            "BDD_STEP_UUID": "8a5e57d4-33bb-45fc-9f68-4fe68856c792"
          },
          {
            "result": {
              "status": "skipped"
            },
            "line": 9,
            "name": "I input the first and last name on the form",
            "match": {
              "location": "Graduate152.FirstLastName()"
            },
            "keyword": "And ",
            "BDD_STEP_UUID": "a64a3426-8454-421c-9d92-5c9465189d93"
          },
          {
            "result": {
              "status": "skipped"
            },
            "line": 10,
            "name": "I input an email address",
            "match": {
              "location": "Graduate152.inputEmail()"
            },
            "keyword": "And ",
            "BDD_STEP_UUID": "212055e6-4744-4024-86eb-a6604d8eee62"
          },
          {
            "result": {
              "status": "skipped"
            },
            "line": 11,
            "name": "I select a program \"tfa_1043\"",
            "match": {
              "arguments": [
                {
                  "val": "\"tfa_1043\"",
                  "offset": 19
                }
              ],
              "location": "Graduate152.SelectAProgramOfInterest(String)"
            },
            "keyword": "And ",
            "BDD_STEP_UUID": "abc8914b-6083-48f1-868b-e97b4aa1e9a5"
          },
          {
            "result": {
              "status": "skipped"
            },
            "line": 12,
            "name": "I select a term \"tfa_1223\"",
            "match": {
              "arguments": [
                {
                  "val": "\"tfa_1223\"",
                  "offset": 16
                }
              ],
              "location": "Graduate152.SelectATermOfEnrollment(String)"
            },
            "keyword": "And ",
            "BDD_STEP_UUID": "25149de6-b658-45d3-8c06-886d59fa173e"
          },
          {
            "result": {
              "status": "skipped"
            },
            "line": 13,
            "name": "I input a phone number",
            "match": {
              "location": "Graduate152.inputPhoneNumber()"
            },
            "keyword": "And ",
            "BDD_STEP_UUID": "97d67567-924d-4262-9c71-92b2c64deba7"
          },
          {
            "result": {
              "status": "skipped"
            },
            "line": 14,
            "name": "I select a country",
            "match": {
              "location": "Graduate152.SelectACountry()"
            },
            "keyword": "And ",
            "BDD_STEP_UUID": "99ab4aee-56f1-47f2-9c80-4328991d53e2"
          },
          {
            "result": {
              "status": "skipped"
            },
            "line": 15,
            "name": "I input a state",
            "match": {
              "location": "Graduate152.inputState()"
            },
            "keyword": "And ",
            "BDD_STEP_UUID": "cad0b35f-fc31-4367-828d-e98902d21982"
          },
          {
            "result": {
              "status": "skipped"
            },
            "line": 16,
            "name": "I input a city",
            "match": {
              "location": "Graduate152.inputCity()"
            },
            "keyword": "And ",
            "BDD_STEP_UUID": "6bf3a0c3-f58f-4919-ac9e-bcdfe3ff7e0c"
          },
          {
            "result": {
              "status": "skipped"
            },
            "line": 17,
            "name": "I input the postal code",
            "match": {
              "location": "Graduate152.inputPostalZode()"
            },
            "keyword": "And ",
            "BDD_STEP_UUID": "df91a6bf-98e7-45d4-8b7f-0280867e3115"
          },
          {
            "result": {
              "status": "skipped"
            },
            "line": 18,
            "name": "I click the submit button",
            "match": {
              "location": "Graduate152.clickSubmit()"
            },
            "keyword": "And ",
            "BDD_STEP_UUID": "b6160c38-060b-42f3-bbde-506a1d977d2f"
          },
          {
            "result": {
              "status": "skipped"
            },
            "line": 19,
            "name": "I am on the correct \"https://www.babson.edu/graduate/admissions/thank-you/\" page",
            "match": {
              "arguments": [
                {
                  "val": "\"https://www.babson.edu/graduate/admissions/thank-you/\"",
                  "offset": 20
                }
              ],
              "location": "Graduate152.thankYouPage(String)"
            },
            "keyword": "And ",
            "BDD_STEP_UUID": "a477097f-a2a7-412e-b755-7ef3ed7062e5"
          },
          {
            "result": {
              "status": "skipped"
            },
            "line": 20,
            "name": "I get the submit request",
            "match": {
              "location": "Graduate152.submitRequest()"
            },
            "keyword": "And ",
            "BDD_STEP_UUID": "0efb4049-aa09-436f-bcb6-fe3b3422e7b1"
          },
          {
            "result": {
              "status": "skipped"
            },
            "line": 21,
            "name": "I delete the form record",
            "match": {
              "location": "Graduate152.deleteRequest()"
            },
            "keyword": "Then ",
            "BDD_STEP_UUID": "f1fdde02-4b7d-40bb-b73b-2c9ef89f093b"
          }
        ],
        "tags": [
          {
            "name": "@Form"
          },
          {
            "name": "@152"
          },
          {
            "name": "@Graduate"
          },
          {
            "name": "@Grad"
          },
          {
            "name": "@152"
          },
          {
            "name": "@smoke"
          }
        ]
      },
      {
        "BDD_TESTRUN_UUID": "62a4c0ce-d126-4d2b-8a9f-a14a3e3b038a",
        "line": 29,
        "name": "Submit Certificate Management Form",
        "description": "",
        "id": "admission/graduate-school/certificate-in-advanced-management/;submit-certificate-management-form;;6",
        "type": "scenario",
        "keyword": "Scenario Outline",
        "steps": [
          {
            "result": {
              "error_message": "com.kms.katalon.core.webui.exception.BrowserNotOpenedException: Browser is not opened\nBuild info: version: \u00273.141.59\u0027, revision: \u0027e82be7d358\u0027, time: \u00272018-11-14T08:25:53\u0027\nSystem info: host: \u0027L18-0032\u0027, ip: \u002710.0.0.226\u0027, os.name: \u0027Windows 10\u0027, os.arch: \u0027amd64\u0027, os.version: \u002710.0\u0027, java.version: \u00271.8.0_181\u0027\nDriver info: driver.version: DriverFactory$getWebDriver\r\n\tat com.kms.katalon.core.webui.driver.DriverFactory.verifyWebDriverIsOpen(DriverFactory.java:985)\r\n\tat com.kms.katalon.core.webui.driver.DriverFactory.verifyWebDriver(DriverFactory.java:970)\r\n\tat com.kms.katalon.core.webui.driver.DriverFactory.getWebDriver(DriverFactory.java:956)\r\n\tat com.kms.katalon.core.webui.driver.DriverFactory$getWebDriver.call(Unknown Source)\r\n\tat forms.Graduate152.Homepage(Graduate152.groovy:50)\r\n\tat ✽.I am on the homepage(C:/Users/rkeough/git/babson-automation/Include/features/Forms/152Graduate/Graduate152.feature:7)\r\n",
              "duration": 2262601600,
              "status": "failed"
            },
            "line": 7,
            "name": "I am on the homepage",
            "match": {
              "location": "Graduate152.Homepage()"
            },
            "keyword": "Given ",
            "BDD_STEP_UUID": "36bda748-bb8c-48ef-a7ae-c0062838fca4"
          },
          {
            "result": {
              "status": "skipped"
            },
            "line": 8,
            "name": "I am on the form \"https://www.babson.edu/academics/graduate-school/mba/mba-miami/\" page",
            "match": {
              "arguments": [
                {
                  "val": "\"https://www.babson.edu/academics/graduate-school/mba/mba-miami/\"",
                  "offset": 17
                }
              ],
              "location": "Graduate152.FormPage(String)"
            },
            "keyword": "When ",
            "BDD_STEP_UUID": "dbb007f5-ce87-403a-b47b-530b24977d06"
          },
          {
            "result": {
              "status": "skipped"
            },
            "line": 9,
            "name": "I input the first and last name on the form",
            "match": {
              "location": "Graduate152.FirstLastName()"
            },
            "keyword": "And ",
            "BDD_STEP_UUID": "a97dfb32-0ee2-47d8-ae27-0710c09c5b2f"
          },
          {
            "result": {
              "status": "skipped"
            },
            "line": 10,
            "name": "I input an email address",
            "match": {
              "location": "Graduate152.inputEmail()"
            },
            "keyword": "And ",
            "BDD_STEP_UUID": "3e2bd403-e694-42e0-ace0-871c2777dac0"
          },
          {
            "result": {
              "status": "skipped"
            },
            "line": 11,
            "name": "I select a program \"tfa_1208\"",
            "match": {
              "arguments": [
                {
                  "val": "\"tfa_1208\"",
                  "offset": 19
                }
              ],
              "location": "Graduate152.SelectAProgramOfInterest(String)"
            },
            "keyword": "And ",
            "BDD_STEP_UUID": "855a420a-8959-44ed-9777-6cfcc6c0ff75"
          },
          {
            "result": {
              "status": "skipped"
            },
            "line": 12,
            "name": "I select a term \"tfa_1226\"",
            "match": {
              "arguments": [
                {
                  "val": "\"tfa_1226\"",
                  "offset": 16
                }
              ],
              "location": "Graduate152.SelectATermOfEnrollment(String)"
            },
            "keyword": "And ",
            "BDD_STEP_UUID": "bb5b1d3e-a57e-4bf2-87d8-b9d9e5fb6a53"
          },
          {
            "result": {
              "status": "skipped"
            },
            "line": 13,
            "name": "I input a phone number",
            "match": {
              "location": "Graduate152.inputPhoneNumber()"
            },
            "keyword": "And ",
            "BDD_STEP_UUID": "01318a6a-f3ba-4496-8602-83bcab463c64"
          },
          {
            "result": {
              "status": "skipped"
            },
            "line": 14,
            "name": "I select a country",
            "match": {
              "location": "Graduate152.SelectACountry()"
            },
            "keyword": "And ",
            "BDD_STEP_UUID": "2d4867d7-f1e6-43a6-bffe-36f049560384"
          },
          {
            "result": {
              "status": "skipped"
            },
            "line": 15,
            "name": "I input a state",
            "match": {
              "location": "Graduate152.inputState()"
            },
            "keyword": "And ",
            "BDD_STEP_UUID": "4a2568dc-0c1d-4e5c-a64c-0b84fd60965e"
          },
          {
            "result": {
              "status": "skipped"
            },
            "line": 16,
            "name": "I input a city",
            "match": {
              "location": "Graduate152.inputCity()"
            },
            "keyword": "And ",
            "BDD_STEP_UUID": "783d821a-84f7-415a-92d2-d868f8ac256c"
          },
          {
            "result": {
              "status": "skipped"
            },
            "line": 17,
            "name": "I input the postal code",
            "match": {
              "location": "Graduate152.inputPostalZode()"
            },
            "keyword": "And ",
            "BDD_STEP_UUID": "a1cc68a5-3f24-4679-a2f3-2524c9e021a3"
          },
          {
            "result": {
              "status": "skipped"
            },
            "line": 18,
            "name": "I click the submit button",
            "match": {
              "location": "Graduate152.clickSubmit()"
            },
            "keyword": "And ",
            "BDD_STEP_UUID": "bf2e907d-afcc-489d-95f9-ac5d1c2dcc35"
          },
          {
            "result": {
              "status": "skipped"
            },
            "line": 19,
            "name": "I am on the correct \"https://www.babson.edu/graduate/admissions/thank-you/\" page",
            "match": {
              "arguments": [
                {
                  "val": "\"https://www.babson.edu/graduate/admissions/thank-you/\"",
                  "offset": 20
                }
              ],
              "location": "Graduate152.thankYouPage(String)"
            },
            "keyword": "And ",
            "BDD_STEP_UUID": "e3236ecb-51f3-47b6-8a12-83848aa3c865"
          },
          {
            "result": {
              "status": "skipped"
            },
            "line": 20,
            "name": "I get the submit request",
            "match": {
              "location": "Graduate152.submitRequest()"
            },
            "keyword": "And ",
            "BDD_STEP_UUID": "24649a6b-1f88-4766-8967-6514167ed1ca"
          },
          {
            "result": {
              "status": "skipped"
            },
            "line": 21,
            "name": "I delete the form record",
            "match": {
              "location": "Graduate152.deleteRequest()"
            },
            "keyword": "Then ",
            "BDD_STEP_UUID": "255d3fe5-7fd1-4a7d-96dd-7f7081a84caf"
          }
        ],
        "tags": [
          {
            "name": "@Form"
          },
          {
            "name": "@152"
          },
          {
            "name": "@Graduate"
          },
          {
            "name": "@Grad"
          },
          {
            "name": "@152"
          },
          {
            "name": "@smoke"
          }
        ]
      },
      {
        "BDD_TESTRUN_UUID": "00e9e54a-c47c-4c46-b77b-a5dcc2ce93c8",
        "line": 30,
        "name": "Submit Certificate Management Form",
        "description": "",
        "id": "admission/graduate-school/certificate-in-advanced-management/;submit-certificate-management-form;;7",
        "type": "scenario",
        "keyword": "Scenario Outline",
        "steps": [
          {
            "result": {
              "error_message": "com.kms.katalon.core.webui.exception.BrowserNotOpenedException: Browser is not opened\nBuild info: version: \u00273.141.59\u0027, revision: \u0027e82be7d358\u0027, time: \u00272018-11-14T08:25:53\u0027\nSystem info: host: \u0027L18-0032\u0027, ip: \u002710.0.0.226\u0027, os.name: \u0027Windows 10\u0027, os.arch: \u0027amd64\u0027, os.version: \u002710.0\u0027, java.version: \u00271.8.0_181\u0027\nDriver info: driver.version: DriverFactory$getWebDriver\r\n\tat com.kms.katalon.core.webui.driver.DriverFactory.verifyWebDriverIsOpen(DriverFactory.java:985)\r\n\tat com.kms.katalon.core.webui.driver.DriverFactory.verifyWebDriver(DriverFactory.java:970)\r\n\tat com.kms.katalon.core.webui.driver.DriverFactory.getWebDriver(DriverFactory.java:956)\r\n\tat com.kms.katalon.core.webui.driver.DriverFactory$getWebDriver.call(Unknown Source)\r\n\tat forms.Graduate152.Homepage(Graduate152.groovy:50)\r\n\tat ✽.I am on the homepage(C:/Users/rkeough/git/babson-automation/Include/features/Forms/152Graduate/Graduate152.feature:7)\r\n",
              "duration": 2047709100,
              "status": "failed"
            },
            "line": 7,
            "name": "I am on the homepage",
            "match": {
              "location": "Graduate152.Homepage()"
            },
            "keyword": "Given ",
            "BDD_STEP_UUID": "39f19532-642d-48b9-83dc-a40cc8596f10"
          },
          {
            "result": {
              "status": "skipped"
            },
            "line": 8,
            "name": "I am on the form \"https://www.babson.edu/academics/graduate-school/ms-business-analytics/\" page",
            "match": {
              "arguments": [
                {
                  "val": "\"https://www.babson.edu/academics/graduate-school/ms-business-analytics/\"",
                  "offset": 17
                }
              ],
              "location": "Graduate152.FormPage(String)"
            },
            "keyword": "When ",
            "BDD_STEP_UUID": "78004fe3-d7f5-4160-8d60-b9d83f15d654"
          },
          {
            "result": {
              "status": "skipped"
            },
            "line": 9,
            "name": "I input the first and last name on the form",
            "match": {
              "location": "Graduate152.FirstLastName()"
            },
            "keyword": "And ",
            "BDD_STEP_UUID": "ec9d4a42-5342-4776-8f33-db1e41f6acb5"
          },
          {
            "result": {
              "status": "skipped"
            },
            "line": 10,
            "name": "I input an email address",
            "match": {
              "location": "Graduate152.inputEmail()"
            },
            "keyword": "And ",
            "BDD_STEP_UUID": "530ff5bf-edee-4490-affb-6b5eb78ff768"
          },
          {
            "result": {
              "status": "skipped"
            },
            "line": 11,
            "name": "I select a program \"tfa_1208\"",
            "match": {
              "arguments": [
                {
                  "val": "\"tfa_1208\"",
                  "offset": 19
                }
              ],
              "location": "Graduate152.SelectAProgramOfInterest(String)"
            },
            "keyword": "And ",
            "BDD_STEP_UUID": "483e9e09-2fb0-4256-bbd8-43def11e0ccc"
          },
          {
            "result": {
              "status": "skipped"
            },
            "line": 12,
            "name": "I select a term \"tfa_1269\"",
            "match": {
              "arguments": [
                {
                  "val": "\"tfa_1269\"",
                  "offset": 16
                }
              ],
              "location": "Graduate152.SelectATermOfEnrollment(String)"
            },
            "keyword": "And ",
            "BDD_STEP_UUID": "a6fbf874-58b6-4050-8730-a55bcf559925"
          },
          {
            "result": {
              "status": "skipped"
            },
            "line": 13,
            "name": "I input a phone number",
            "match": {
              "location": "Graduate152.inputPhoneNumber()"
            },
            "keyword": "And ",
            "BDD_STEP_UUID": "d6944de2-0bed-4f2b-a94b-86b60c78d732"
          },
          {
            "result": {
              "status": "skipped"
            },
            "line": 14,
            "name": "I select a country",
            "match": {
              "location": "Graduate152.SelectACountry()"
            },
            "keyword": "And ",
            "BDD_STEP_UUID": "ceaff212-642f-4aad-a393-b51f3fbb5346"
          },
          {
            "result": {
              "status": "skipped"
            },
            "line": 15,
            "name": "I input a state",
            "match": {
              "location": "Graduate152.inputState()"
            },
            "keyword": "And ",
            "BDD_STEP_UUID": "04b55913-b650-435f-bd78-66f8f896f1c9"
          },
          {
            "result": {
              "status": "skipped"
            },
            "line": 16,
            "name": "I input a city",
            "match": {
              "location": "Graduate152.inputCity()"
            },
            "keyword": "And ",
            "BDD_STEP_UUID": "0c05d131-7001-4880-8cee-0570b60eaaa5"
          },
          {
            "result": {
              "status": "skipped"
            },
            "line": 17,
            "name": "I input the postal code",
            "match": {
              "location": "Graduate152.inputPostalZode()"
            },
            "keyword": "And ",
            "BDD_STEP_UUID": "867a72a0-4962-44f0-b123-0535f6d300a5"
          },
          {
            "result": {
              "status": "skipped"
            },
            "line": 18,
            "name": "I click the submit button",
            "match": {
              "location": "Graduate152.clickSubmit()"
            },
            "keyword": "And ",
            "BDD_STEP_UUID": "1c65ec88-a315-4b9b-8c75-479aea0f43d3"
          },
          {
            "result": {
              "status": "skipped"
            },
            "line": 19,
            "name": "I am on the correct \"https://www.babson.edu/graduate/admissions/thank-you/\" page",
            "match": {
              "arguments": [
                {
                  "val": "\"https://www.babson.edu/graduate/admissions/thank-you/\"",
                  "offset": 20
                }
              ],
              "location": "Graduate152.thankYouPage(String)"
            },
            "keyword": "And ",
            "BDD_STEP_UUID": "2a3c9d40-a43d-46e4-b8a8-1ff69b657427"
          },
          {
            "result": {
              "status": "skipped"
            },
            "line": 20,
            "name": "I get the submit request",
            "match": {
              "location": "Graduate152.submitRequest()"
            },
            "keyword": "And ",
            "BDD_STEP_UUID": "a500af33-1746-40d3-9435-749d1df3d959"
          },
          {
            "result": {
              "status": "skipped"
            },
            "line": 21,
            "name": "I delete the form record",
            "match": {
              "location": "Graduate152.deleteRequest()"
            },
            "keyword": "Then ",
            "BDD_STEP_UUID": "5417ccb5-41d2-46ca-9127-47524b006fcf"
          }
        ],
        "tags": [
          {
            "name": "@Form"
          },
          {
            "name": "@152"
          },
          {
            "name": "@Graduate"
          },
          {
            "name": "@Grad"
          },
          {
            "name": "@152"
          },
          {
            "name": "@smoke"
          }
        ]
      },
      {
        "BDD_TESTRUN_UUID": "034da170-a4fe-49dc-9321-c662cc6f9ece",
        "line": 31,
        "name": "Submit Certificate Management Form",
        "description": "",
        "id": "admission/graduate-school/certificate-in-advanced-management/;submit-certificate-management-form;;8",
        "type": "scenario",
        "keyword": "Scenario Outline",
        "steps": [
          {
            "result": {
              "error_message": "com.kms.katalon.core.webui.exception.BrowserNotOpenedException: Browser is not opened\nBuild info: version: \u00273.141.59\u0027, revision: \u0027e82be7d358\u0027, time: \u00272018-11-14T08:25:53\u0027\nSystem info: host: \u0027L18-0032\u0027, ip: \u002710.0.0.226\u0027, os.name: \u0027Windows 10\u0027, os.arch: \u0027amd64\u0027, os.version: \u002710.0\u0027, java.version: \u00271.8.0_181\u0027\nDriver info: driver.version: DriverFactory$getWebDriver\r\n\tat com.kms.katalon.core.webui.driver.DriverFactory.verifyWebDriverIsOpen(DriverFactory.java:985)\r\n\tat com.kms.katalon.core.webui.driver.DriverFactory.verifyWebDriver(DriverFactory.java:970)\r\n\tat com.kms.katalon.core.webui.driver.DriverFactory.getWebDriver(DriverFactory.java:956)\r\n\tat com.kms.katalon.core.webui.driver.DriverFactory$getWebDriver.call(Unknown Source)\r\n\tat forms.Graduate152.Homepage(Graduate152.groovy:50)\r\n\tat ✽.I am on the homepage(C:/Users/rkeough/git/babson-automation/Include/features/Forms/152Graduate/Graduate152.feature:7)\r\n",
              "duration": 1903360100,
              "status": "failed"
            },
            "line": 7,
            "name": "I am on the homepage",
            "match": {
              "location": "Graduate152.Homepage()"
            },
            "keyword": "Given ",
            "BDD_STEP_UUID": "a6e656d5-3e41-4831-a9b2-23b0b24d66bb"
          },
          {
            "result": {
              "status": "skipped"
            },
            "line": 8,
            "name": "I am on the form \"https://www.babson.edu/academics/graduate-school/ms-in-entrepreneurial-leadership/\" page",
            "match": {
              "arguments": [
                {
                  "val": "\"https://www.babson.edu/academics/graduate-school/ms-in-entrepreneurial-leadership/\"",
                  "offset": 17
                }
              ],
              "location": "Graduate152.FormPage(String)"
            },
            "keyword": "When ",
            "BDD_STEP_UUID": "dfb2de0a-4750-479e-9172-f035460262c6"
          },
          {
            "result": {
              "status": "skipped"
            },
            "line": 9,
            "name": "I input the first and last name on the form",
            "match": {
              "location": "Graduate152.FirstLastName()"
            },
            "keyword": "And ",
            "BDD_STEP_UUID": "09efeff3-535a-4e5e-9eee-cbb8f91949b6"
          },
          {
            "result": {
              "status": "skipped"
            },
            "line": 10,
            "name": "I input an email address",
            "match": {
              "location": "Graduate152.inputEmail()"
            },
            "keyword": "And ",
            "BDD_STEP_UUID": "e90cbb91-ad3c-493f-a3a1-df6876db216c"
          },
          {
            "result": {
              "status": "skipped"
            },
            "line": 11,
            "name": "I select a program \"tfa_1122\"",
            "match": {
              "arguments": [
                {
                  "val": "\"tfa_1122\"",
                  "offset": 19
                }
              ],
              "location": "Graduate152.SelectAProgramOfInterest(String)"
            },
            "keyword": "And ",
            "BDD_STEP_UUID": "6867f9bc-012c-4a0a-b551-07cb08a58bfd"
          },
          {
            "result": {
              "status": "skipped"
            },
            "line": 12,
            "name": "I select a term \"tfa_1277\"",
            "match": {
              "arguments": [
                {
                  "val": "\"tfa_1277\"",
                  "offset": 16
                }
              ],
              "location": "Graduate152.SelectATermOfEnrollment(String)"
            },
            "keyword": "And ",
            "BDD_STEP_UUID": "9af3b415-5a9c-47bc-bff1-8e8733d9fc37"
          },
          {
            "result": {
              "status": "skipped"
            },
            "line": 13,
            "name": "I input a phone number",
            "match": {
              "location": "Graduate152.inputPhoneNumber()"
            },
            "keyword": "And ",
            "BDD_STEP_UUID": "7c556015-9901-406c-a1b7-d39a95001f9f"
          },
          {
            "result": {
              "status": "skipped"
            },
            "line": 14,
            "name": "I select a country",
            "match": {
              "location": "Graduate152.SelectACountry()"
            },
            "keyword": "And ",
            "BDD_STEP_UUID": "31f89e63-5224-45fd-93b6-3f828b1fbea2"
          },
          {
            "result": {
              "status": "skipped"
            },
            "line": 15,
            "name": "I input a state",
            "match": {
              "location": "Graduate152.inputState()"
            },
            "keyword": "And ",
            "BDD_STEP_UUID": "32dde62d-c0b7-42fd-a85d-f0cc9b1c789e"
          },
          {
            "result": {
              "status": "skipped"
            },
            "line": 16,
            "name": "I input a city",
            "match": {
              "location": "Graduate152.inputCity()"
            },
            "keyword": "And ",
            "BDD_STEP_UUID": "55e2001b-994a-4882-8cc0-a23c196567bf"
          },
          {
            "result": {
              "status": "skipped"
            },
            "line": 17,
            "name": "I input the postal code",
            "match": {
              "location": "Graduate152.inputPostalZode()"
            },
            "keyword": "And ",
            "BDD_STEP_UUID": "984fb76b-d070-43a1-b0d6-824c1828478f"
          },
          {
            "result": {
              "status": "skipped"
            },
            "line": 18,
            "name": "I click the submit button",
            "match": {
              "location": "Graduate152.clickSubmit()"
            },
            "keyword": "And ",
            "BDD_STEP_UUID": "6b2c0a7e-966f-463f-9cd1-d9e3d6d425fe"
          },
          {
            "result": {
              "status": "skipped"
            },
            "line": 19,
            "name": "I am on the correct \"https://www.babson.edu/graduate/admissions/thank-you/\" page",
            "match": {
              "arguments": [
                {
                  "val": "\"https://www.babson.edu/graduate/admissions/thank-you/\"",
                  "offset": 20
                }
              ],
              "location": "Graduate152.thankYouPage(String)"
            },
            "keyword": "And ",
            "BDD_STEP_UUID": "c7f8ae9b-49ac-4c54-b43c-a8f021a8e626"
          },
          {
            "result": {
              "status": "skipped"
            },
            "line": 20,
            "name": "I get the submit request",
            "match": {
              "location": "Graduate152.submitRequest()"
            },
            "keyword": "And ",
            "BDD_STEP_UUID": "4aa86569-818c-4f9c-a0af-d4d4e8c00bca"
          },
          {
            "result": {
              "status": "skipped"
            },
            "line": 21,
            "name": "I delete the form record",
            "match": {
              "location": "Graduate152.deleteRequest()"
            },
            "keyword": "Then ",
            "BDD_STEP_UUID": "73f2f0fe-7f19-4518-ae40-e2d9ee98b853"
          }
        ],
        "tags": [
          {
            "name": "@Form"
          },
          {
            "name": "@152"
          },
          {
            "name": "@Graduate"
          },
          {
            "name": "@Grad"
          },
          {
            "name": "@152"
          },
          {
            "name": "@smoke"
          }
        ]
      },
      {
        "BDD_TESTRUN_UUID": "4227f1b9-03de-45fa-95fa-0049a9f25673",
        "line": 32,
        "name": "Submit Certificate Management Form",
        "description": "",
        "id": "admission/graduate-school/certificate-in-advanced-management/;submit-certificate-management-form;;9",
        "type": "scenario",
        "keyword": "Scenario Outline",
        "steps": [
          {
            "result": {
              "error_message": "com.kms.katalon.core.webui.exception.BrowserNotOpenedException: Browser is not opened\nBuild info: version: \u00273.141.59\u0027, revision: \u0027e82be7d358\u0027, time: \u00272018-11-14T08:25:53\u0027\nSystem info: host: \u0027L18-0032\u0027, ip: \u002710.0.0.226\u0027, os.name: \u0027Windows 10\u0027, os.arch: \u0027amd64\u0027, os.version: \u002710.0\u0027, java.version: \u00271.8.0_181\u0027\nDriver info: driver.version: DriverFactory$getWebDriver\r\n\tat com.kms.katalon.core.webui.driver.DriverFactory.verifyWebDriverIsOpen(DriverFactory.java:985)\r\n\tat com.kms.katalon.core.webui.driver.DriverFactory.verifyWebDriver(DriverFactory.java:970)\r\n\tat com.kms.katalon.core.webui.driver.DriverFactory.getWebDriver(DriverFactory.java:956)\r\n\tat com.kms.katalon.core.webui.driver.DriverFactory$getWebDriver.call(Unknown Source)\r\n\tat forms.Graduate152.Homepage(Graduate152.groovy:50)\r\n\tat ✽.I am on the homepage(C:/Users/rkeough/git/babson-automation/Include/features/Forms/152Graduate/Graduate152.feature:7)\r\n",
              "duration": 1922238700,
              "status": "failed"
            },
            "line": 7,
            "name": "I am on the homepage",
            "match": {
              "location": "Graduate152.Homepage()"
            },
            "keyword": "Given ",
            "BDD_STEP_UUID": "38a701c8-4d03-4e4b-990c-5fc34ff21d6b"
          },
          {
            "result": {
              "status": "skipped"
            },
            "line": 8,
            "name": "I am on the form \"https://www.babson.edu/academics/graduate-school/mba/part-time-mba/\" page",
            "match": {
              "arguments": [
                {
                  "val": "\"https://www.babson.edu/academics/graduate-school/mba/part-time-mba/\"",
                  "offset": 17
                }
              ],
              "location": "Graduate152.FormPage(String)"
            },
            "keyword": "When ",
            "BDD_STEP_UUID": "9a3ae24b-7da0-4886-8f25-d6df6f68dbd0"
          },
          {
            "result": {
              "status": "skipped"
            },
            "line": 9,
            "name": "I input the first and last name on the form",
            "match": {
              "location": "Graduate152.FirstLastName()"
            },
            "keyword": "And ",
            "BDD_STEP_UUID": "3c841a3a-aa15-4da2-ab9d-86e3f60ad767"
          },
          {
            "result": {
              "status": "skipped"
            },
            "line": 10,
            "name": "I input an email address",
            "match": {
              "location": "Graduate152.inputEmail()"
            },
            "keyword": "And ",
            "BDD_STEP_UUID": "db8490d1-e524-4d2d-895e-5e7fbaa18ec5"
          },
          {
            "result": {
              "status": "skipped"
            },
            "line": 11,
            "name": "I select a program \"tfa_1063\"",
            "match": {
              "arguments": [
                {
                  "val": "\"tfa_1063\"",
                  "offset": 19
                }
              ],
              "location": "Graduate152.SelectAProgramOfInterest(String)"
            },
            "keyword": "And ",
            "BDD_STEP_UUID": "13510385-d166-44cb-a218-0868ddc6fac0"
          },
          {
            "result": {
              "status": "skipped"
            },
            "line": 12,
            "name": "I select a term \"tfa_1281\"",
            "match": {
              "arguments": [
                {
                  "val": "\"tfa_1281\"",
                  "offset": 16
                }
              ],
              "location": "Graduate152.SelectATermOfEnrollment(String)"
            },
            "keyword": "And ",
            "BDD_STEP_UUID": "97335486-b11e-427b-8a56-1dac05b55047"
          },
          {
            "result": {
              "status": "skipped"
            },
            "line": 13,
            "name": "I input a phone number",
            "match": {
              "location": "Graduate152.inputPhoneNumber()"
            },
            "keyword": "And ",
            "BDD_STEP_UUID": "fa0f0fb9-7379-404b-afc4-e258a636eb53"
          },
          {
            "result": {
              "status": "skipped"
            },
            "line": 14,
            "name": "I select a country",
            "match": {
              "location": "Graduate152.SelectACountry()"
            },
            "keyword": "And ",
            "BDD_STEP_UUID": "75e271f3-0fda-4bdb-b6db-304e15efb004"
          },
          {
            "result": {
              "status": "skipped"
            },
            "line": 15,
            "name": "I input a state",
            "match": {
              "location": "Graduate152.inputState()"
            },
            "keyword": "And ",
            "BDD_STEP_UUID": "a2c86d2a-b48c-41cb-b5e2-3be3c9fdece1"
          },
          {
            "result": {
              "status": "skipped"
            },
            "line": 16,
            "name": "I input a city",
            "match": {
              "location": "Graduate152.inputCity()"
            },
            "keyword": "And ",
            "BDD_STEP_UUID": "e9a39f62-d06d-4afc-b8f5-c6611c9d8f18"
          },
          {
            "result": {
              "status": "skipped"
            },
            "line": 17,
            "name": "I input the postal code",
            "match": {
              "location": "Graduate152.inputPostalZode()"
            },
            "keyword": "And ",
            "BDD_STEP_UUID": "11c6ad23-1553-4c15-96ff-bebfbdd42158"
          },
          {
            "result": {
              "status": "skipped"
            },
            "line": 18,
            "name": "I click the submit button",
            "match": {
              "location": "Graduate152.clickSubmit()"
            },
            "keyword": "And ",
            "BDD_STEP_UUID": "d0c2f65c-088e-4003-87ad-ecf7597bef88"
          },
          {
            "result": {
              "status": "skipped"
            },
            "line": 19,
            "name": "I am on the correct \"https://www.babson.edu/graduate/admissions/thank-you/\" page",
            "match": {
              "arguments": [
                {
                  "val": "\"https://www.babson.edu/graduate/admissions/thank-you/\"",
                  "offset": 20
                }
              ],
              "location": "Graduate152.thankYouPage(String)"
            },
            "keyword": "And ",
            "BDD_STEP_UUID": "fc77cb66-1225-4f67-95a3-f506a5220440"
          },
          {
            "result": {
              "status": "skipped"
            },
            "line": 20,
            "name": "I get the submit request",
            "match": {
              "location": "Graduate152.submitRequest()"
            },
            "keyword": "And ",
            "BDD_STEP_UUID": "6f627a57-3f65-42f3-aff8-8a9af8baba69"
          },
          {
            "result": {
              "status": "skipped"
            },
            "line": 21,
            "name": "I delete the form record",
            "match": {
              "location": "Graduate152.deleteRequest()"
            },
            "keyword": "Then ",
            "BDD_STEP_UUID": "81421c4c-465d-42b1-a58f-0df9ce630cb3"
          }
        ],
        "tags": [
          {
            "name": "@Form"
          },
          {
            "name": "@152"
          },
          {
            "name": "@Graduate"
          },
          {
            "name": "@Grad"
          },
          {
            "name": "@152"
          },
          {
            "name": "@smoke"
          }
        ]
      },
      {
        "BDD_TESTRUN_UUID": "0ec328b9-2294-45b5-a9ad-c73d497b8359",
        "line": 33,
        "name": "Submit Certificate Management Form",
        "description": "",
        "id": "admission/graduate-school/certificate-in-advanced-management/;submit-certificate-management-form;;10",
        "type": "scenario",
        "keyword": "Scenario Outline",
        "steps": [
          {
            "result": {
              "error_message": "com.kms.katalon.core.webui.exception.BrowserNotOpenedException: Browser is not opened\nBuild info: version: \u00273.141.59\u0027, revision: \u0027e82be7d358\u0027, time: \u00272018-11-14T08:25:53\u0027\nSystem info: host: \u0027L18-0032\u0027, ip: \u002710.0.0.226\u0027, os.name: \u0027Windows 10\u0027, os.arch: \u0027amd64\u0027, os.version: \u002710.0\u0027, java.version: \u00271.8.0_181\u0027\nDriver info: driver.version: DriverFactory$getWebDriver\r\n\tat com.kms.katalon.core.webui.driver.DriverFactory.verifyWebDriverIsOpen(DriverFactory.java:985)\r\n\tat com.kms.katalon.core.webui.driver.DriverFactory.verifyWebDriver(DriverFactory.java:970)\r\n\tat com.kms.katalon.core.webui.driver.DriverFactory.getWebDriver(DriverFactory.java:956)\r\n\tat com.kms.katalon.core.webui.driver.DriverFactory$getWebDriver.call(Unknown Source)\r\n\tat forms.Graduate152.Homepage(Graduate152.groovy:50)\r\n\tat ✽.I am on the homepage(C:/Users/rkeough/git/babson-automation/Include/features/Forms/152Graduate/Graduate152.feature:7)\r\n",
              "duration": 2273433200,
              "status": "failed"
            },
            "line": 7,
            "name": "I am on the homepage",
            "match": {
              "location": "Graduate152.Homepage()"
            },
            "keyword": "Given ",
            "BDD_STEP_UUID": "a6e857f3-b137-46e2-928f-6f1a6b67f7ed"
          },
          {
            "result": {
              "status": "skipped"
            },
            "line": 8,
            "name": "I am on the form \"https://www.babson.edu/admission/graduate-school/request-information/\" page",
            "match": {
              "arguments": [
                {
                  "val": "\"https://www.babson.edu/admission/graduate-school/request-information/\"",
                  "offset": 17
                }
              ],
              "location": "Graduate152.FormPage(String)"
            },
            "keyword": "When ",
            "BDD_STEP_UUID": "110ae061-bab9-4d29-b744-ed891756f5d6"
          },
          {
            "result": {
              "status": "skipped"
            },
            "line": 9,
            "name": "I input the first and last name on the form",
            "match": {
              "location": "Graduate152.FirstLastName()"
            },
            "keyword": "And ",
            "BDD_STEP_UUID": "ec0ee12b-fe83-4015-94da-29f3c5875738"
          },
          {
            "result": {
              "status": "skipped"
            },
            "line": 10,
            "name": "I input an email address",
            "match": {
              "location": "Graduate152.inputEmail()"
            },
            "keyword": "And ",
            "BDD_STEP_UUID": "45992740-7649-424e-9869-a63f0ab46746"
          },
          {
            "result": {
              "status": "skipped"
            },
            "line": 11,
            "name": "I select a program \"tfa_1075\"",
            "match": {
              "arguments": [
                {
                  "val": "\"tfa_1075\"",
                  "offset": 19
                }
              ],
              "location": "Graduate152.SelectAProgramOfInterest(String)"
            },
            "keyword": "And ",
            "BDD_STEP_UUID": "57ce02f0-6780-4099-8be6-d0abe59a0236"
          },
          {
            "result": {
              "status": "skipped"
            },
            "line": 12,
            "name": "I select a term \"tfa_1251\"",
            "match": {
              "arguments": [
                {
                  "val": "\"tfa_1251\"",
                  "offset": 16
                }
              ],
              "location": "Graduate152.SelectATermOfEnrollment(String)"
            },
            "keyword": "And ",
            "BDD_STEP_UUID": "4aecaccf-a1b9-4c04-8b3e-db231f8b1d78"
          },
          {
            "result": {
              "status": "skipped"
            },
            "line": 13,
            "name": "I input a phone number",
            "match": {
              "location": "Graduate152.inputPhoneNumber()"
            },
            "keyword": "And ",
            "BDD_STEP_UUID": "2bc8d44e-09af-461f-907f-cbe1ccb4435b"
          },
          {
            "result": {
              "status": "skipped"
            },
            "line": 14,
            "name": "I select a country",
            "match": {
              "location": "Graduate152.SelectACountry()"
            },
            "keyword": "And ",
            "BDD_STEP_UUID": "c7d1650c-8994-4ced-a665-e1e62e806604"
          },
          {
            "result": {
              "status": "skipped"
            },
            "line": 15,
            "name": "I input a state",
            "match": {
              "location": "Graduate152.inputState()"
            },
            "keyword": "And ",
            "BDD_STEP_UUID": "7a0bfe8e-3362-4785-b8c5-7cd1b38d153b"
          },
          {
            "result": {
              "status": "skipped"
            },
            "line": 16,
            "name": "I input a city",
            "match": {
              "location": "Graduate152.inputCity()"
            },
            "keyword": "And ",
            "BDD_STEP_UUID": "66e4ad29-f9fa-47b7-b4e5-5df3d31ab22c"
          },
          {
            "result": {
              "status": "skipped"
            },
            "line": 17,
            "name": "I input the postal code",
            "match": {
              "location": "Graduate152.inputPostalZode()"
            },
            "keyword": "And ",
            "BDD_STEP_UUID": "1f1694bc-9626-4e7b-91a1-94fe60e9c7f4"
          },
          {
            "result": {
              "status": "skipped"
            },
            "line": 18,
            "name": "I click the submit button",
            "match": {
              "location": "Graduate152.clickSubmit()"
            },
            "keyword": "And ",
            "BDD_STEP_UUID": "5b077d84-98ea-43e3-9545-fc06b373047b"
          },
          {
            "result": {
              "status": "skipped"
            },
            "line": 19,
            "name": "I am on the correct \"https://www.babson.edu/graduate/admissions/thank-you/\" page",
            "match": {
              "arguments": [
                {
                  "val": "\"https://www.babson.edu/graduate/admissions/thank-you/\"",
                  "offset": 20
                }
              ],
              "location": "Graduate152.thankYouPage(String)"
            },
            "keyword": "And ",
            "BDD_STEP_UUID": "5d0c418a-eeb6-461a-9eb4-7da245728b5d"
          },
          {
            "result": {
              "status": "skipped"
            },
            "line": 20,
            "name": "I get the submit request",
            "match": {
              "location": "Graduate152.submitRequest()"
            },
            "keyword": "And ",
            "BDD_STEP_UUID": "2ee3ec91-1cc8-4811-8115-3d2a30356343"
          },
          {
            "result": {
              "status": "skipped"
            },
            "line": 21,
            "name": "I delete the form record",
            "match": {
              "location": "Graduate152.deleteRequest()"
            },
            "keyword": "Then ",
            "BDD_STEP_UUID": "a43aba0f-b6c1-4c07-b5a6-6827d8d3c372"
          }
        ],
        "tags": [
          {
            "name": "@Form"
          },
          {
            "name": "@152"
          },
          {
            "name": "@Graduate"
          },
          {
            "name": "@Grad"
          },
          {
            "name": "@152"
          },
          {
            "name": "@smoke"
          }
        ]
      },
      {
        "BDD_TESTRUN_UUID": "f1c303d6-8506-40dd-959d-c74b2c6a1daf",
        "line": 34,
        "name": "Submit Certificate Management Form",
        "description": "",
        "id": "admission/graduate-school/certificate-in-advanced-management/;submit-certificate-management-form;;11",
        "type": "scenario",
        "keyword": "Scenario Outline",
        "steps": [
          {
            "result": {
              "error_message": "com.kms.katalon.core.webui.exception.BrowserNotOpenedException: Browser is not opened\nBuild info: version: \u00273.141.59\u0027, revision: \u0027e82be7d358\u0027, time: \u00272018-11-14T08:25:53\u0027\nSystem info: host: \u0027L18-0032\u0027, ip: \u002710.0.0.226\u0027, os.name: \u0027Windows 10\u0027, os.arch: \u0027amd64\u0027, os.version: \u002710.0\u0027, java.version: \u00271.8.0_181\u0027\nDriver info: driver.version: DriverFactory$getWebDriver\r\n\tat com.kms.katalon.core.webui.driver.DriverFactory.verifyWebDriverIsOpen(DriverFactory.java:985)\r\n\tat com.kms.katalon.core.webui.driver.DriverFactory.verifyWebDriver(DriverFactory.java:970)\r\n\tat com.kms.katalon.core.webui.driver.DriverFactory.getWebDriver(DriverFactory.java:956)\r\n\tat com.kms.katalon.core.webui.driver.DriverFactory$getWebDriver.call(Unknown Source)\r\n\tat forms.Graduate152.Homepage(Graduate152.groovy:50)\r\n\tat ✽.I am on the homepage(C:/Users/rkeough/git/babson-automation/Include/features/Forms/152Graduate/Graduate152.feature:7)\r\n",
              "duration": 2028343300,
              "status": "failed"
            },
            "line": 7,
            "name": "I am on the homepage",
            "match": {
              "location": "Graduate152.Homepage()"
            },
            "keyword": "Given ",
            "BDD_STEP_UUID": "b28dc152-8d11-4b6a-8aa7-638d35631185"
          },
          {
            "result": {
              "status": "skipped"
            },
            "line": 8,
            "name": "I am on the form \"https://www.babson.edu/graduate/academics/part-time-business-programs/certificate-in-advanced-management/\" page",
            "match": {
              "arguments": [
                {
                  "val": "\"https://www.babson.edu/graduate/academics/part-time-business-programs/certificate-in-advanced-management/\"",
                  "offset": 17
                }
              ],
              "location": "Graduate152.FormPage(String)"
            },
            "keyword": "When ",
            "BDD_STEP_UUID": "d400d169-36e4-4cbd-bedd-97ef9f27f37f"
          },
          {
            "result": {
              "status": "skipped"
            },
            "line": 9,
            "name": "I input the first and last name on the form",
            "match": {
              "location": "Graduate152.FirstLastName()"
            },
            "keyword": "And ",
            "BDD_STEP_UUID": "cb102970-a47b-460a-bb9b-34eb7eb21e79"
          },
          {
            "result": {
              "status": "skipped"
            },
            "line": 10,
            "name": "I input an email address",
            "match": {
              "location": "Graduate152.inputEmail()"
            },
            "keyword": "And ",
            "BDD_STEP_UUID": "c96faf46-c866-47f5-b9dd-4b5d1965b2bf"
          },
          {
            "result": {
              "status": "skipped"
            },
            "line": 11,
            "name": "I select a program \"tfa_1156\"",
            "match": {
              "arguments": [
                {
                  "val": "\"tfa_1156\"",
                  "offset": 19
                }
              ],
              "location": "Graduate152.SelectAProgramOfInterest(String)"
            },
            "keyword": "And ",
            "BDD_STEP_UUID": "8b42ef47-4720-4317-82d0-2716b1fcdcf0"
          },
          {
            "result": {
              "status": "skipped"
            },
            "line": 12,
            "name": "I select a term \"tfa_1246\"",
            "match": {
              "arguments": [
                {
                  "val": "\"tfa_1246\"",
                  "offset": 16
                }
              ],
              "location": "Graduate152.SelectATermOfEnrollment(String)"
            },
            "keyword": "And ",
            "BDD_STEP_UUID": "7aba8750-c5cf-4701-916a-d4ff9259526f"
          },
          {
            "result": {
              "status": "skipped"
            },
            "line": 13,
            "name": "I input a phone number",
            "match": {
              "location": "Graduate152.inputPhoneNumber()"
            },
            "keyword": "And ",
            "BDD_STEP_UUID": "9f40f5bd-6429-4d46-8c7d-4b517e2dd766"
          },
          {
            "result": {
              "status": "skipped"
            },
            "line": 14,
            "name": "I select a country",
            "match": {
              "location": "Graduate152.SelectACountry()"
            },
            "keyword": "And ",
            "BDD_STEP_UUID": "98b96544-b0a7-4377-9519-f13a53dd9ace"
          },
          {
            "result": {
              "status": "skipped"
            },
            "line": 15,
            "name": "I input a state",
            "match": {
              "location": "Graduate152.inputState()"
            },
            "keyword": "And ",
            "BDD_STEP_UUID": "82dd8776-f817-49ae-8264-8c1813720310"
          },
          {
            "result": {
              "status": "skipped"
            },
            "line": 16,
            "name": "I input a city",
            "match": {
              "location": "Graduate152.inputCity()"
            },
            "keyword": "And ",
            "BDD_STEP_UUID": "3092a5e4-c134-4ca6-b142-c8482cbd2208"
          },
          {
            "result": {
              "status": "skipped"
            },
            "line": 17,
            "name": "I input the postal code",
            "match": {
              "location": "Graduate152.inputPostalZode()"
            },
            "keyword": "And ",
            "BDD_STEP_UUID": "32fb4344-e73b-4095-ac9e-24904f2f9b82"
          },
          {
            "result": {
              "status": "skipped"
            },
            "line": 18,
            "name": "I click the submit button",
            "match": {
              "location": "Graduate152.clickSubmit()"
            },
            "keyword": "And ",
            "BDD_STEP_UUID": "d06c3df7-3cea-4dd2-90b4-ce84fe16c85f"
          },
          {
            "result": {
              "status": "skipped"
            },
            "line": 19,
            "name": "I am on the correct \"https://www.babson.edu/graduate/admissions/thank-you/\" page",
            "match": {
              "arguments": [
                {
                  "val": "\"https://www.babson.edu/graduate/admissions/thank-you/\"",
                  "offset": 20
                }
              ],
              "location": "Graduate152.thankYouPage(String)"
            },
            "keyword": "And ",
            "BDD_STEP_UUID": "a0773f6f-d30f-40c2-989d-a1945311b7b0"
          },
          {
            "result": {
              "status": "skipped"
            },
            "line": 20,
            "name": "I get the submit request",
            "match": {
              "location": "Graduate152.submitRequest()"
            },
            "keyword": "And ",
            "BDD_STEP_UUID": "de00826f-783d-40fd-8e93-6253058d9e0e"
          },
          {
            "result": {
              "status": "skipped"
            },
            "line": 21,
            "name": "I delete the form record",
            "match": {
              "location": "Graduate152.deleteRequest()"
            },
            "keyword": "Then ",
            "BDD_STEP_UUID": "8c3ca0f0-7f09-4dc5-979f-f25e7fa817f9"
          }
        ],
        "tags": [
          {
            "name": "@Form"
          },
          {
            "name": "@152"
          },
          {
            "name": "@Graduate"
          },
          {
            "name": "@Grad"
          },
          {
            "name": "@152"
          },
          {
            "name": "@smoke"
          }
        ]
      }
    ],
    "name": "admission/graduate-school/certificate-in-advanced-management/",
    "description": "  I want to submit and verify form submits with the correct data",
    "id": "admission/graduate-school/certificate-in-advanced-management/",
    "keyword": "Feature",
    "uri": "C:/Users/rkeough/git/babson-automation/Include/features/Forms/152Graduate/Graduate152.feature",
    "tags": [
      {
        "name": "@Form",
        "type": "Tag",
        "location": {
          "line": 1,
          "column": 1
        }
      },
      {
        "name": "@152",
        "type": "Tag",
        "location": {
          "line": 1,
          "column": 7
        }
      },
      {
        "name": "@Graduate",
        "type": "Tag",
        "location": {
          "line": 1,
          "column": 12
        }
      }
    ]
  }
]