Suite/Test/Step Name,Browser,Description,Tag,Start time,End time,Duration,Status
StudentPortal_Check,Chrome 116.0.0.0,,,2023-09-22 14:20:40,2023-09-22 14:21:12,32.177s,PASSED
,,,,,,,
Test Cases/StudentPortal_Check,Chrome 116.0.0.0,,,2023-09-22 14:20:40,2023-09-22 14:21:12,31.937s,PASSED
"openBrowser("""")",Chrome 116.0.0.0,,,2023-09-22 14:20:40,2023-09-22 14:20:43,2.472s,PASSED
maximizeWindow(),Chrome 116.0.0.0,,,2023-09-22 14:20:43,2023-09-22 14:20:43,0.139s,PASSED
"navigateToUrl(""https://intranet.babson.edu/user/login"")",Chrome 116.0.0.0,,,2023-09-22 14:20:43,2023-09-22 14:20:44,0.657s,PASSED
delay(3),Chrome 116.0.0.0,,,2023-09-22 14:20:44,2023-09-22 14:20:47,3.027s,PASSED
"setText(findTestObject(""Object Repository/drupal/input_Username_name""), ""test_editor"")",Chrome 116.0.0.0,,,2023-09-22 14:20:47,2023-09-22 14:20:47,0.696s,PASSED
"setEncryptedText(findTestObject(""Object Repository/drupal/input_Password_pass""), ""idh87fIpnxr/jR6LHqLNqQ=="")",Chrome 116.0.0.0,,,2023-09-22 14:20:47,2023-09-22 14:20:48,0.427s,PASSED
"click(findTestObject(""Object Repository/drupal/input_Federated login_op""))",Chrome 116.0.0.0,,,2023-09-22 14:20:48,2023-09-22 14:20:53,5.651s,PASSED
delay(7),Chrome 116.0.0.0,,,2023-09-22 14:20:53,2023-09-22 14:21:00,7.002s,PASSED
"takeFullPageScreenshotAsCheckpoint(""homepage"")",Chrome 116.0.0.0,,,2023-09-22 14:21:00,2023-09-22 14:21:05,4.662s,PASSED
delay(6),Chrome 116.0.0.0,,,2023-09-22 14:21:05,2023-09-22 14:21:11,6.018s,PASSED
closeBrowser(),Chrome 116.0.0.0,,,2023-09-22 14:21:11,2023-09-22 14:21:12,0.896s,PASSED
