[
  {
    "line": 2,
    "elements": [
      {
        "line": 25,
        "name": "Submit Certificate Management Form",
        "description": "",
        "id": "admission/graduate-school/;submit-certificate-management-form;;2",
        "type": "scenario",
        "keyword": "Scenario Outline",
        "steps": [
          {
            "result": {
              "duration": 7659064600,
              "status": "passed"
            },
            "line": 7,
            "name": "I am on the homepage",
            "match": {
              "location": "Graduate152.Homepage()"
            },
            "keyword": "Given "
          },
          {
            "result": {
              "duration": 2129207600,
              "status": "passed"
            },
            "line": 8,
            "name": "I am on the form \"https://www.babson.edu/academics/graduate-school/\" page",
            "match": {
              "arguments": [
                {
                  "val": "\"https://www.babson.edu/academics/graduate-school/\"",
                  "offset": 17
                }
              ],
              "location": "Graduate152.FormPage(String)"
            },
            "keyword": "When "
          },
          {
            "result": {
              "duration": 2339931700,
              "status": "passed"
            },
            "line": 9,
            "name": "I input the first and last name on the form",
            "match": {
              "location": "Graduate152.FirstLastName()"
            },
            "keyword": "And "
          },
          {
            "result": {
              "duration": 924738100,
              "status": "passed"
            },
            "line": 10,
            "name": "I input an email address",
            "match": {
              "location": "Graduate152.inputEmail()"
            },
            "keyword": "And "
          },
          {
            "result": {
              "duration": 1209450400,
              "status": "passed"
            },
            "line": 11,
            "name": "I select a program \"tfa_1184\"",
            "match": {
              "arguments": [
                {
                  "val": "\"tfa_1184\"",
                  "offset": 19
                }
              ],
              "location": "Graduate152.SelectAProgramOfInterest(String)"
            },
            "keyword": "And "
          },
          {
            "result": {
              "duration": 1064862700,
              "status": "passed"
            },
            "line": 12,
            "name": "I select a term \"tfa_1186\"",
            "match": {
              "arguments": [
                {
                  "val": "\"tfa_1186\"",
                  "offset": 16
                }
              ],
              "location": "Graduate152.SelectATermOfEnrollment(String)"
            },
            "keyword": "And "
          },
          {
            "result": {
              "duration": 778879100,
              "status": "passed"
            },
            "line": 13,
            "name": "I input a phone number",
            "match": {
              "location": "Graduate152.inputPhoneNumber()"
            },
            "keyword": "And "
          },
          {
            "result": {
              "duration": 763212500,
              "status": "passed"
            },
            "line": 14,
            "name": "I select a country",
            "match": {
              "location": "Graduate152.SelectACountry()"
            },
            "keyword": "And "
          },
          {
            "result": {
              "duration": 898402000,
              "status": "passed"
            },
            "line": 15,
            "name": "I input a state",
            "match": {
              "location": "Graduate152.inputState()"
            },
            "keyword": "And "
          },
          {
            "result": {
              "duration": 938668500,
              "status": "passed"
            },
            "line": 16,
            "name": "I input a city",
            "match": {
              "location": "Graduate152.inputCity()"
            },
            "keyword": "And "
          },
          {
            "result": {
              "duration": 826511500,
              "status": "passed"
            },
            "line": 17,
            "name": "I input the postal code",
            "match": {
              "location": "Graduate152.inputPostalZode()"
            },
            "keyword": "And "
          },
          {
            "result": {
              "duration": 6057206800,
              "status": "passed"
            },
            "line": 18,
            "name": "I click the submit button",
            "match": {
              "location": "Graduate152.clickSubmit()"
            },
            "keyword": "And "
          },
          {
            "result": {
              "duration": 1514888400,
              "status": "passed"
            },
            "line": 19,
            "name": "I am on the correct \"https://www.babson.edu/graduate/admissions/thank-you/\" page",
            "match": {
              "arguments": [
                {
                  "val": "\"https://www.babson.edu/graduate/admissions/thank-you/\"",
                  "offset": 20
                }
              ],
              "location": "Graduate152.thankYouPage(String)"
            },
            "keyword": "And "
          },
          {
            "result": {
              "duration": 5678310700,
              "status": "passed"
            },
            "line": 20,
            "name": "I get the submit request",
            "match": {
              "location": "Graduate152.submitRequest()"
            },
            "keyword": "And "
          },
          {
            "result": {
              "duration": 4239581800,
              "status": "passed"
            },
            "line": 21,
            "name": "I delete the form record",
            "match": {
              "location": "Graduate152.deleteRequest()"
            },
            "keyword": "Then "
          }
        ],
        "tags": [
          {
            "name": "@Form"
          },
          {
            "name": "@152"
          },
          {
            "name": "@Graduate"
          },
          {
            "name": "@Grad"
          },
          {
            "name": "@152"
          },
          {
            "name": "@smoke"
          }
        ]
      },
      {
        "line": 26,
        "name": "Submit Certificate Management Form",
        "description": "",
        "id": "admission/graduate-school/;submit-certificate-management-form;;3",
        "type": "scenario",
        "keyword": "Scenario Outline",
        "steps": [
          {
            "result": {
              "duration": 4732337700,
              "status": "passed"
            },
            "line": 7,
            "name": "I am on the homepage",
            "match": {
              "location": "Graduate152.Homepage()"
            },
            "keyword": "Given "
          },
          {
            "result": {
              "duration": 2276078000,
              "status": "passed"
            },
            "line": 8,
            "name": "I am on the form \"https://www.babson.edu/academics/graduate-school/mba/full-time-mba/\" page",
            "match": {
              "arguments": [
                {
                  "val": "\"https://www.babson.edu/academics/graduate-school/mba/full-time-mba/\"",
                  "offset": 17
                }
              ],
              "location": "Graduate152.FormPage(String)"
            },
            "keyword": "When "
          },
          {
            "result": {
              "duration": 2128086500,
              "status": "passed"
            },
            "line": 9,
            "name": "I input the first and last name on the form",
            "match": {
              "location": "Graduate152.FirstLastName()"
            },
            "keyword": "And "
          },
          {
            "result": {
              "duration": 991015900,
              "status": "passed"
            },
            "line": 10,
            "name": "I input an email address",
            "match": {
              "location": "Graduate152.inputEmail()"
            },
            "keyword": "And "
          },
          {
            "result": {
              "duration": 848928000,
              "status": "passed"
            },
            "line": 11,
            "name": "I select a program \"tfa_1184\"",
            "match": {
              "arguments": [
                {
                  "val": "\"tfa_1184\"",
                  "offset": 19
                }
              ],
              "location": "Graduate152.SelectAProgramOfInterest(String)"
            },
            "keyword": "And "
          },
          {
            "result": {
              "duration": 826371200,
              "status": "passed"
            },
            "line": 12,
            "name": "I select a term \"tfa_1257\"",
            "match": {
              "arguments": [
                {
                  "val": "\"tfa_1257\"",
                  "offset": 16
                }
              ],
              "location": "Graduate152.SelectATermOfEnrollment(String)"
            },
            "keyword": "And "
          },
          {
            "result": {
              "duration": 850432200,
              "status": "passed"
            },
            "line": 13,
            "name": "I input a phone number",
            "match": {
              "location": "Graduate152.inputPhoneNumber()"
            },
            "keyword": "And "
          },
          {
            "result": {
              "duration": 709232900,
              "status": "passed"
            },
            "line": 14,
            "name": "I select a country",
            "match": {
              "location": "Graduate152.SelectACountry()"
            },
            "keyword": "And "
          },
          {
            "result": {
              "duration": 758027200,
              "status": "passed"
            },
            "line": 15,
            "name": "I input a state",
            "match": {
              "location": "Graduate152.inputState()"
            },
            "keyword": "And "
          },
          {
            "result": {
              "duration": 1066561800,
              "status": "passed"
            },
            "line": 16,
            "name": "I input a city",
            "match": {
              "location": "Graduate152.inputCity()"
            },
            "keyword": "And "
          },
          {
            "result": {
              "duration": 868546800,
              "status": "passed"
            },
            "line": 17,
            "name": "I input the postal code",
            "match": {
              "location": "Graduate152.inputPostalZode()"
            },
            "keyword": "And "
          },
          {
            "result": {
              "duration": 6343150200,
              "status": "passed"
            },
            "line": 18,
            "name": "I click the submit button",
            "match": {
              "location": "Graduate152.clickSubmit()"
            },
            "keyword": "And "
          },
          {
            "result": {
              "duration": 1367765300,
              "status": "passed"
            },
            "line": 19,
            "name": "I am on the correct \"https://www.babson.edu/graduate/admissions/thank-you/\" page",
            "match": {
              "arguments": [
                {
                  "val": "\"https://www.babson.edu/graduate/admissions/thank-you/\"",
                  "offset": 20
                }
              ],
              "location": "Graduate152.thankYouPage(String)"
            },
            "keyword": "And "
          },
          {
            "result": {
              "duration": 3324481100,
              "status": "passed"
            },
            "line": 20,
            "name": "I get the submit request",
            "match": {
              "location": "Graduate152.submitRequest()"
            },
            "keyword": "And "
          },
          {
            "result": {
              "duration": 4119947200,
              "status": "passed"
            },
            "line": 21,
            "name": "I delete the form record",
            "match": {
              "location": "Graduate152.deleteRequest()"
            },
            "keyword": "Then "
          }
        ],
        "tags": [
          {
            "name": "@Form"
          },
          {
            "name": "@152"
          },
          {
            "name": "@Graduate"
          },
          {
            "name": "@Grad"
          },
          {
            "name": "@152"
          },
          {
            "name": "@smoke"
          }
        ]
      },
      {
        "line": 27,
        "name": "Submit Certificate Management Form",
        "description": "",
        "id": "admission/graduate-school/;submit-certificate-management-form;;4",
        "type": "scenario",
        "keyword": "Scenario Outline",
        "steps": [
          {
            "result": {
              "duration": 5122362000,
              "status": "passed"
            },
            "line": 7,
            "name": "I am on the homepage",
            "match": {
              "location": "Graduate152.Homepage()"
            },
            "keyword": "Given "
          },
          {
            "result": {
              "duration": 2457050000,
              "status": "passed"
            },
            "line": 8,
            "name": "I am on the form \"https://www.babson.edu/academics/graduate-school/mba/\" page",
            "match": {
              "arguments": [
                {
                  "val": "\"https://www.babson.edu/academics/graduate-school/mba/\"",
                  "offset": 17
                }
              ],
              "location": "Graduate152.FormPage(String)"
            },
            "keyword": "When "
          },
          {
            "result": {
              "duration": 2457160500,
              "status": "passed"
            },
            "line": 9,
            "name": "I input the first and last name on the form",
            "match": {
              "location": "Graduate152.FirstLastName()"
            },
            "keyword": "And "
          },
          {
            "result": {
              "duration": 849353000,
              "status": "passed"
            },
            "line": 10,
            "name": "I input an email address",
            "match": {
              "location": "Graduate152.inputEmail()"
            },
            "keyword": "And "
          },
          {
            "result": {
              "duration": 824772000,
              "status": "passed"
            },
            "line": 11,
            "name": "I select a program \"tfa_1043\"",
            "match": {
              "arguments": [
                {
                  "val": "\"tfa_1043\"",
                  "offset": 19
                }
              ],
              "location": "Graduate152.SelectAProgramOfInterest(String)"
            },
            "keyword": "And "
          },
          {
            "result": {
              "duration": 838925600,
              "status": "passed"
            },
            "line": 12,
            "name": "I select a term \"tfa_1223\"",
            "match": {
              "arguments": [
                {
                  "val": "\"tfa_1223\"",
                  "offset": 16
                }
              ],
              "location": "Graduate152.SelectATermOfEnrollment(String)"
            },
            "keyword": "And "
          },
          {
            "result": {
              "duration": 771513600,
              "status": "passed"
            },
            "line": 13,
            "name": "I input a phone number",
            "match": {
              "location": "Graduate152.inputPhoneNumber()"
            },
            "keyword": "And "
          },
          {
            "result": {
              "duration": 818662200,
              "status": "passed"
            },
            "line": 14,
            "name": "I select a country",
            "match": {
              "location": "Graduate152.SelectACountry()"
            },
            "keyword": "And "
          },
          {
            "result": {
              "duration": 858148200,
              "status": "passed"
            },
            "line": 15,
            "name": "I input a state",
            "match": {
              "location": "Graduate152.inputState()"
            },
            "keyword": "And "
          },
          {
            "result": {
              "duration": 883137900,
              "status": "passed"
            },
            "line": 16,
            "name": "I input a city",
            "match": {
              "location": "Graduate152.inputCity()"
            },
            "keyword": "And "
          },
          {
            "result": {
              "duration": 999442900,
              "status": "passed"
            },
            "line": 17,
            "name": "I input the postal code",
            "match": {
              "location": "Graduate152.inputPostalZode()"
            },
            "keyword": "And "
          },
          {
            "result": {
              "duration": 5602720600,
              "status": "passed"
            },
            "line": 18,
            "name": "I click the submit button",
            "match": {
              "location": "Graduate152.clickSubmit()"
            },
            "keyword": "And "
          },
          {
            "result": {
              "duration": 1366716500,
              "status": "passed"
            },
            "line": 19,
            "name": "I am on the correct \"https://www.babson.edu/graduate/admissions/thank-you/\" page",
            "match": {
              "arguments": [
                {
                  "val": "\"https://www.babson.edu/graduate/admissions/thank-you/\"",
                  "offset": 20
                }
              ],
              "location": "Graduate152.thankYouPage(String)"
            },
            "keyword": "And "
          },
          {
            "result": {
              "duration": 3565822300,
              "status": "passed"
            },
            "line": 20,
            "name": "I get the submit request",
            "match": {
              "location": "Graduate152.submitRequest()"
            },
            "keyword": "And "
          },
          {
            "result": {
              "duration": 4658923100,
              "status": "passed"
            },
            "line": 21,
            "name": "I delete the form record",
            "match": {
              "location": "Graduate152.deleteRequest()"
            },
            "keyword": "Then "
          }
        ],
        "tags": [
          {
            "name": "@Form"
          },
          {
            "name": "@152"
          },
          {
            "name": "@Graduate"
          },
          {
            "name": "@Grad"
          },
          {
            "name": "@152"
          },
          {
            "name": "@smoke"
          }
        ]
      },
      {
        "line": 28,
        "name": "Submit Certificate Management Form",
        "description": "",
        "id": "admission/graduate-school/;submit-certificate-management-form;;5",
        "type": "scenario",
        "keyword": "Scenario Outline",
        "steps": [
          {
            "result": {
              "duration": 5110622300,
              "status": "passed"
            },
            "line": 7,
            "name": "I am on the homepage",
            "match": {
              "location": "Graduate152.Homepage()"
            },
            "keyword": "Given "
          },
          {
            "result": {
              "duration": 1975410700,
              "status": "passed"
            },
            "line": 8,
            "name": "I am on the form \"https://www.babson.edu/academics/graduate-school/mba/mba-miami/\" page",
            "match": {
              "arguments": [
                {
                  "val": "\"https://www.babson.edu/academics/graduate-school/mba/mba-miami/\"",
                  "offset": 17
                }
              ],
              "location": "Graduate152.FormPage(String)"
            },
            "keyword": "When "
          },
          {
            "result": {
              "duration": 2202940100,
              "status": "passed"
            },
            "line": 9,
            "name": "I input the first and last name on the form",
            "match": {
              "location": "Graduate152.FirstLastName()"
            },
            "keyword": "And "
          },
          {
            "result": {
              "duration": 991284200,
              "status": "passed"
            },
            "line": 10,
            "name": "I input an email address",
            "match": {
              "location": "Graduate152.inputEmail()"
            },
            "keyword": "And "
          },
          {
            "result": {
              "duration": 811993700,
              "status": "passed"
            },
            "line": 11,
            "name": "I select a program \"tfa_1208\"",
            "match": {
              "arguments": [
                {
                  "val": "\"tfa_1208\"",
                  "offset": 19
                }
              ],
              "location": "Graduate152.SelectAProgramOfInterest(String)"
            },
            "keyword": "And "
          },
          {
            "result": {
              "duration": 943609800,
              "status": "passed"
            },
            "line": 12,
            "name": "I select a term \"tfa_1226\"",
            "match": {
              "arguments": [
                {
                  "val": "\"tfa_1226\"",
                  "offset": 16
                }
              ],
              "location": "Graduate152.SelectATermOfEnrollment(String)"
            },
            "keyword": "And "
          },
          {
            "result": {
              "duration": 768340900,
              "status": "passed"
            },
            "line": 13,
            "name": "I input a phone number",
            "match": {
              "location": "Graduate152.inputPhoneNumber()"
            },
            "keyword": "And "
          },
          {
            "result": {
              "duration": 823011100,
              "status": "passed"
            },
            "line": 14,
            "name": "I select a country",
            "match": {
              "location": "Graduate152.SelectACountry()"
            },
            "keyword": "And "
          },
          {
            "result": {
              "duration": 772661900,
              "status": "passed"
            },
            "line": 15,
            "name": "I input a state",
            "match": {
              "location": "Graduate152.inputState()"
            },
            "keyword": "And "
          },
          {
            "result": {
              "duration": 933574800,
              "status": "passed"
            },
            "line": 16,
            "name": "I input a city",
            "match": {
              "location": "Graduate152.inputCity()"
            },
            "keyword": "And "
          },
          {
            "result": {
              "duration": 921362400,
              "status": "passed"
            },
            "line": 17,
            "name": "I input the postal code",
            "match": {
              "location": "Graduate152.inputPostalZode()"
            },
            "keyword": "And "
          },
          {
            "result": {
              "duration": 5592008800,
              "status": "passed"
            },
            "line": 18,
            "name": "I click the submit button",
            "match": {
              "location": "Graduate152.clickSubmit()"
            },
            "keyword": "And "
          },
          {
            "result": {
              "duration": 1432229300,
              "status": "passed"
            },
            "line": 19,
            "name": "I am on the correct \"https://www.babson.edu/graduate/admissions/thank-you/\" page",
            "match": {
              "arguments": [
                {
                  "val": "\"https://www.babson.edu/graduate/admissions/thank-you/\"",
                  "offset": 20
                }
              ],
              "location": "Graduate152.thankYouPage(String)"
            },
            "keyword": "And "
          },
          {
            "result": {
              "duration": 3362955000,
              "status": "passed"
            },
            "line": 20,
            "name": "I get the submit request",
            "match": {
              "location": "Graduate152.submitRequest()"
            },
            "keyword": "And "
          },
          {
            "result": {
              "duration": 8767884400,
              "status": "passed"
            },
            "line": 21,
            "name": "I delete the form record",
            "match": {
              "location": "Graduate152.deleteRequest()"
            },
            "keyword": "Then "
          }
        ],
        "tags": [
          {
            "name": "@Form"
          },
          {
            "name": "@152"
          },
          {
            "name": "@Graduate"
          },
          {
            "name": "@Grad"
          },
          {
            "name": "@152"
          },
          {
            "name": "@smoke"
          }
        ]
      },
      {
        "line": 29,
        "name": "Submit Certificate Management Form",
        "description": "",
        "id": "admission/graduate-school/;submit-certificate-management-form;;6",
        "type": "scenario",
        "keyword": "Scenario Outline",
        "steps": [
          {
            "result": {
              "duration": 4930988600,
              "status": "passed"
            },
            "line": 7,
            "name": "I am on the homepage",
            "match": {
              "location": "Graduate152.Homepage()"
            },
            "keyword": "Given "
          },
          {
            "result": {
              "duration": 2756851000,
              "status": "passed"
            },
            "line": 8,
            "name": "I am on the form \"https://www.babson.edu/academics/graduate-school/ms-business-analytics/\" page",
            "match": {
              "arguments": [
                {
                  "val": "\"https://www.babson.edu/academics/graduate-school/ms-business-analytics/\"",
                  "offset": 17
                }
              ],
              "location": "Graduate152.FormPage(String)"
            },
            "keyword": "When "
          },
          {
            "result": {
              "duration": 2319187600,
              "status": "passed"
            },
            "line": 9,
            "name": "I input the first and last name on the form",
            "match": {
              "location": "Graduate152.FirstLastName()"
            },
            "keyword": "And "
          },
          {
            "result": {
              "duration": 980176600,
              "status": "passed"
            },
            "line": 10,
            "name": "I input an email address",
            "match": {
              "location": "Graduate152.inputEmail()"
            },
            "keyword": "And "
          },
          {
            "result": {
              "duration": 1010778600,
              "status": "passed"
            },
            "line": 11,
            "name": "I select a program \"tfa_1208\"",
            "match": {
              "arguments": [
                {
                  "val": "\"tfa_1208\"",
                  "offset": 19
                }
              ],
              "location": "Graduate152.SelectAProgramOfInterest(String)"
            },
            "keyword": "And "
          },
          {
            "result": {
              "duration": 899818900,
              "status": "passed"
            },
            "line": 12,
            "name": "I select a term \"tfa_1269\"",
            "match": {
              "arguments": [
                {
                  "val": "\"tfa_1269\"",
                  "offset": 16
                }
              ],
              "location": "Graduate152.SelectATermOfEnrollment(String)"
            },
            "keyword": "And "
          },
          {
            "result": {
              "duration": 763446700,
              "status": "passed"
            },
            "line": 13,
            "name": "I input a phone number",
            "match": {
              "location": "Graduate152.inputPhoneNumber()"
            },
            "keyword": "And "
          },
          {
            "result": {
              "duration": 727591400,
              "status": "passed"
            },
            "line": 14,
            "name": "I select a country",
            "match": {
              "location": "Graduate152.SelectACountry()"
            },
            "keyword": "And "
          },
          {
            "result": {
              "duration": 861942500,
              "status": "passed"
            },
            "line": 15,
            "name": "I input a state",
            "match": {
              "location": "Graduate152.inputState()"
            },
            "keyword": "And "
          },
          {
            "result": {
              "duration": 908376900,
              "status": "passed"
            },
            "line": 16,
            "name": "I input a city",
            "match": {
              "location": "Graduate152.inputCity()"
            },
            "keyword": "And "
          },
          {
            "result": {
              "duration": 966783200,
              "status": "passed"
            },
            "line": 17,
            "name": "I input the postal code",
            "match": {
              "location": "Graduate152.inputPostalZode()"
            },
            "keyword": "And "
          },
          {
            "result": {
              "duration": 6254949500,
              "status": "passed"
            },
            "line": 18,
            "name": "I click the submit button",
            "match": {
              "location": "Graduate152.clickSubmit()"
            },
            "keyword": "And "
          },
          {
            "result": {
              "duration": 1407323800,
              "status": "passed"
            },
            "line": 19,
            "name": "I am on the correct \"https://www.babson.edu/graduate/admissions/thank-you/\" page",
            "match": {
              "arguments": [
                {
                  "val": "\"https://www.babson.edu/graduate/admissions/thank-you/\"",
                  "offset": 20
                }
              ],
              "location": "Graduate152.thankYouPage(String)"
            },
            "keyword": "And "
          },
          {
            "result": {
              "duration": 3401575000,
              "status": "passed"
            },
            "line": 20,
            "name": "I get the submit request",
            "match": {
              "location": "Graduate152.submitRequest()"
            },
            "keyword": "And "
          },
          {
            "result": {
              "duration": 4006279200,
              "status": "passed"
            },
            "line": 21,
            "name": "I delete the form record",
            "match": {
              "location": "Graduate152.deleteRequest()"
            },
            "keyword": "Then "
          }
        ],
        "tags": [
          {
            "name": "@Form"
          },
          {
            "name": "@152"
          },
          {
            "name": "@Graduate"
          },
          {
            "name": "@Grad"
          },
          {
            "name": "@152"
          },
          {
            "name": "@smoke"
          }
        ]
      },
      {
        "line": 30,
        "name": "Submit Certificate Management Form",
        "description": "",
        "id": "admission/graduate-school/;submit-certificate-management-form;;7",
        "type": "scenario",
        "keyword": "Scenario Outline",
        "steps": [
          {
            "result": {
              "duration": 5089008300,
              "status": "passed"
            },
            "line": 7,
            "name": "I am on the homepage",
            "match": {
              "location": "Graduate152.Homepage()"
            },
            "keyword": "Given "
          },
          {
            "result": {
              "duration": 2012786100,
              "status": "passed"
            },
            "line": 8,
            "name": "I am on the form \"https://www.babson.edu/academics/graduate-school/ms-in-entrepreneurial-leadership/\" page",
            "match": {
              "arguments": [
                {
                  "val": "\"https://www.babson.edu/academics/graduate-school/ms-in-entrepreneurial-leadership/\"",
                  "offset": 17
                }
              ],
              "location": "Graduate152.FormPage(String)"
            },
            "keyword": "When "
          },
          {
            "result": {
              "duration": 2316268700,
              "status": "passed"
            },
            "line": 9,
            "name": "I input the first and last name on the form",
            "match": {
              "location": "Graduate152.FirstLastName()"
            },
            "keyword": "And "
          },
          {
            "result": {
              "duration": 868842700,
              "status": "passed"
            },
            "line": 10,
            "name": "I input an email address",
            "match": {
              "location": "Graduate152.inputEmail()"
            },
            "keyword": "And "
          },
          {
            "result": {
              "duration": 796888300,
              "status": "passed"
            },
            "line": 11,
            "name": "I select a program \"tfa_1122\"",
            "match": {
              "arguments": [
                {
                  "val": "\"tfa_1122\"",
                  "offset": 19
                }
              ],
              "location": "Graduate152.SelectAProgramOfInterest(String)"
            },
            "keyword": "And "
          },
          {
            "result": {
              "duration": 884075600,
              "status": "passed"
            },
            "line": 12,
            "name": "I select a term \"tfa_1277\"",
            "match": {
              "arguments": [
                {
                  "val": "\"tfa_1277\"",
                  "offset": 16
                }
              ],
              "location": "Graduate152.SelectATermOfEnrollment(String)"
            },
            "keyword": "And "
          },
          {
            "result": {
              "duration": 1001864800,
              "status": "passed"
            },
            "line": 13,
            "name": "I input a phone number",
            "match": {
              "location": "Graduate152.inputPhoneNumber()"
            },
            "keyword": "And "
          },
          {
            "result": {
              "duration": 731542100,
              "status": "passed"
            },
            "line": 14,
            "name": "I select a country",
            "match": {
              "location": "Graduate152.SelectACountry()"
            },
            "keyword": "And "
          },
          {
            "result": {
              "duration": 891431600,
              "status": "passed"
            },
            "line": 15,
            "name": "I input a state",
            "match": {
              "location": "Graduate152.inputState()"
            },
            "keyword": "And "
          },
          {
            "result": {
              "duration": 849896800,
              "status": "passed"
            },
            "line": 16,
            "name": "I input a city",
            "match": {
              "location": "Graduate152.inputCity()"
            },
            "keyword": "And "
          },
          {
            "result": {
              "duration": 999204600,
              "status": "passed"
            },
            "line": 17,
            "name": "I input the postal code",
            "match": {
              "location": "Graduate152.inputPostalZode()"
            },
            "keyword": "And "
          },
          {
            "result": {
              "duration": 5460105300,
              "status": "passed"
            },
            "line": 18,
            "name": "I click the submit button",
            "match": {
              "location": "Graduate152.clickSubmit()"
            },
            "keyword": "And "
          },
          {
            "result": {
              "duration": 1415068500,
              "status": "passed"
            },
            "line": 19,
            "name": "I am on the correct \"https://www.babson.edu/graduate/admissions/thank-you/\" page",
            "match": {
              "arguments": [
                {
                  "val": "\"https://www.babson.edu/graduate/admissions/thank-you/\"",
                  "offset": 20
                }
              ],
              "location": "Graduate152.thankYouPage(String)"
            },
            "keyword": "And "
          },
          {
            "result": {
              "duration": 3364830600,
              "status": "passed"
            },
            "line": 20,
            "name": "I get the submit request",
            "match": {
              "location": "Graduate152.submitRequest()"
            },
            "keyword": "And "
          },
          {
            "result": {
              "duration": 3951055100,
              "status": "passed"
            },
            "line": 21,
            "name": "I delete the form record",
            "match": {
              "location": "Graduate152.deleteRequest()"
            },
            "keyword": "Then "
          }
        ],
        "tags": [
          {
            "name": "@Form"
          },
          {
            "name": "@152"
          },
          {
            "name": "@Graduate"
          },
          {
            "name": "@Grad"
          },
          {
            "name": "@152"
          },
          {
            "name": "@smoke"
          }
        ]
      },
      {
        "line": 31,
        "name": "Submit Certificate Management Form",
        "description": "",
        "id": "admission/graduate-school/;submit-certificate-management-form;;8",
        "type": "scenario",
        "keyword": "Scenario Outline",
        "steps": [
          {
            "result": {
              "duration": 4674099400,
              "status": "passed"
            },
            "line": 7,
            "name": "I am on the homepage",
            "match": {
              "location": "Graduate152.Homepage()"
            },
            "keyword": "Given "
          },
          {
            "result": {
              "duration": 1789130800,
              "status": "passed"
            },
            "line": 8,
            "name": "I am on the form \"https://www.babson.edu/academics/graduate-school/mba/part-time-mba/\" page",
            "match": {
              "arguments": [
                {
                  "val": "\"https://www.babson.edu/academics/graduate-school/mba/part-time-mba/\"",
                  "offset": 17
                }
              ],
              "location": "Graduate152.FormPage(String)"
            },
            "keyword": "When "
          },
          {
            "result": {
              "duration": 2432658700,
              "status": "passed"
            },
            "line": 9,
            "name": "I input the first and last name on the form",
            "match": {
              "location": "Graduate152.FirstLastName()"
            },
            "keyword": "And "
          },
          {
            "result": {
              "duration": 1021773200,
              "status": "passed"
            },
            "line": 10,
            "name": "I input an email address",
            "match": {
              "location": "Graduate152.inputEmail()"
            },
            "keyword": "And "
          },
          {
            "result": {
              "duration": 993810300,
              "status": "passed"
            },
            "line": 11,
            "name": "I select a program \"tfa_1063\"",
            "match": {
              "arguments": [
                {
                  "val": "\"tfa_1063\"",
                  "offset": 19
                }
              ],
              "location": "Graduate152.SelectAProgramOfInterest(String)"
            },
            "keyword": "And "
          },
          {
            "result": {
              "duration": 964514500,
              "status": "passed"
            },
            "line": 12,
            "name": "I select a term \"tfa_1281\"",
            "match": {
              "arguments": [
                {
                  "val": "\"tfa_1281\"",
                  "offset": 16
                }
              ],
              "location": "Graduate152.SelectATermOfEnrollment(String)"
            },
            "keyword": "And "
          },
          {
            "result": {
              "duration": 812833800,
              "status": "passed"
            },
            "line": 13,
            "name": "I input a phone number",
            "match": {
              "location": "Graduate152.inputPhoneNumber()"
            },
            "keyword": "And "
          },
          {
            "result": {
              "duration": 744921300,
              "status": "passed"
            },
            "line": 14,
            "name": "I select a country",
            "match": {
              "location": "Graduate152.SelectACountry()"
            },
            "keyword": "And "
          },
          {
            "result": {
              "duration": 766266800,
              "status": "passed"
            },
            "line": 15,
            "name": "I input a state",
            "match": {
              "location": "Graduate152.inputState()"
            },
            "keyword": "And "
          },
          {
            "result": {
              "duration": 823687300,
              "status": "passed"
            },
            "line": 16,
            "name": "I input a city",
            "match": {
              "location": "Graduate152.inputCity()"
            },
            "keyword": "And "
          },
          {
            "result": {
              "duration": 858075000,
              "status": "passed"
            },
            "line": 17,
            "name": "I input the postal code",
            "match": {
              "location": "Graduate152.inputPostalZode()"
            },
            "keyword": "And "
          },
          {
            "result": {
              "duration": 5008827600,
              "status": "passed"
            },
            "line": 18,
            "name": "I click the submit button",
            "match": {
              "location": "Graduate152.clickSubmit()"
            },
            "keyword": "And "
          },
          {
            "result": {
              "duration": 2068039100,
              "status": "passed"
            },
            "line": 19,
            "name": "I am on the correct \"https://www.babson.edu/graduate/admissions/thank-you/\" page",
            "match": {
              "arguments": [
                {
                  "val": "\"https://www.babson.edu/graduate/admissions/thank-you/\"",
                  "offset": 20
                }
              ],
              "location": "Graduate152.thankYouPage(String)"
            },
            "keyword": "And "
          },
          {
            "result": {
              "duration": 3364856200,
              "status": "passed"
            },
            "line": 20,
            "name": "I get the submit request",
            "match": {
              "location": "Graduate152.submitRequest()"
            },
            "keyword": "And "
          },
          {
            "result": {
              "duration": 3999710900,
              "status": "passed"
            },
            "line": 21,
            "name": "I delete the form record",
            "match": {
              "location": "Graduate152.deleteRequest()"
            },
            "keyword": "Then "
          }
        ],
        "tags": [
          {
            "name": "@Form"
          },
          {
            "name": "@152"
          },
          {
            "name": "@Graduate"
          },
          {
            "name": "@Grad"
          },
          {
            "name": "@152"
          },
          {
            "name": "@smoke"
          }
        ]
      },
      {
        "line": 32,
        "name": "Submit Certificate Management Form",
        "description": "",
        "id": "admission/graduate-school/;submit-certificate-management-form;;9",
        "type": "scenario",
        "keyword": "Scenario Outline",
        "steps": [
          {
            "result": {
              "duration": 5227152700,
              "status": "passed"
            },
            "line": 7,
            "name": "I am on the homepage",
            "match": {
              "location": "Graduate152.Homepage()"
            },
            "keyword": "Given "
          },
          {
            "result": {
              "duration": 2538807700,
              "status": "passed"
            },
            "line": 8,
            "name": "I am on the form \"https://www.babson.edu/admission/graduate-school/request-information/\" page",
            "match": {
              "arguments": [
                {
                  "val": "\"https://www.babson.edu/admission/graduate-school/request-information/\"",
                  "offset": 17
                }
              ],
              "location": "Graduate152.FormPage(String)"
            },
            "keyword": "When "
          },
          {
            "result": {
              "duration": 1811017300,
              "status": "passed"
            },
            "line": 9,
            "name": "I input the first and last name on the form",
            "match": {
              "location": "Graduate152.FirstLastName()"
            },
            "keyword": "And "
          },
          {
            "result": {
              "duration": 908691200,
              "status": "passed"
            },
            "line": 10,
            "name": "I input an email address",
            "match": {
              "location": "Graduate152.inputEmail()"
            },
            "keyword": "And "
          },
          {
            "result": {
              "duration": 1055394700,
              "status": "passed"
            },
            "line": 11,
            "name": "I select a program \"tfa_1075\"",
            "match": {
              "arguments": [
                {
                  "val": "\"tfa_1075\"",
                  "offset": 19
                }
              ],
              "location": "Graduate152.SelectAProgramOfInterest(String)"
            },
            "keyword": "And "
          },
          {
            "result": {
              "duration": 912403800,
              "status": "passed"
            },
            "line": 12,
            "name": "I select a term \"tfa_1251\"",
            "match": {
              "arguments": [
                {
                  "val": "\"tfa_1251\"",
                  "offset": 16
                }
              ],
              "location": "Graduate152.SelectATermOfEnrollment(String)"
            },
            "keyword": "And "
          },
          {
            "result": {
              "duration": 865628200,
              "status": "passed"
            },
            "line": 13,
            "name": "I input a phone number",
            "match": {
              "location": "Graduate152.inputPhoneNumber()"
            },
            "keyword": "And "
          },
          {
            "result": {
              "duration": 849894400,
              "status": "passed"
            },
            "line": 14,
            "name": "I select a country",
            "match": {
              "location": "Graduate152.SelectACountry()"
            },
            "keyword": "And "
          },
          {
            "result": {
              "duration": 787206800,
              "status": "passed"
            },
            "line": 15,
            "name": "I input a state",
            "match": {
              "location": "Graduate152.inputState()"
            },
            "keyword": "And "
          },
          {
            "result": {
              "duration": 788430000,
              "status": "passed"
            },
            "line": 16,
            "name": "I input a city",
            "match": {
              "location": "Graduate152.inputCity()"
            },
            "keyword": "And "
          },
          {
            "result": {
              "duration": 935451300,
              "status": "passed"
            },
            "line": 17,
            "name": "I input the postal code",
            "match": {
              "location": "Graduate152.inputPostalZode()"
            },
            "keyword": "And "
          },
          {
            "result": {
              "duration": 5264251600,
              "status": "passed"
            },
            "line": 18,
            "name": "I click the submit button",
            "match": {
              "location": "Graduate152.clickSubmit()"
            },
            "keyword": "And "
          },
          {
            "result": {
              "duration": 2787255900,
              "status": "passed"
            },
            "line": 19,
            "name": "I am on the correct \"https://www.babson.edu/graduate/admissions/thank-you/\" page",
            "match": {
              "arguments": [
                {
                  "val": "\"https://www.babson.edu/graduate/admissions/thank-you/\"",
                  "offset": 20
                }
              ],
              "location": "Graduate152.thankYouPage(String)"
            },
            "keyword": "And "
          },
          {
            "result": {
              "duration": 3559128300,
              "status": "passed"
            },
            "line": 20,
            "name": "I get the submit request",
            "match": {
              "location": "Graduate152.submitRequest()"
            },
            "keyword": "And "
          },
          {
            "result": {
              "duration": 4360837500,
              "status": "passed"
            },
            "line": 21,
            "name": "I delete the form record",
            "match": {
              "location": "Graduate152.deleteRequest()"
            },
            "keyword": "Then "
          }
        ],
        "tags": [
          {
            "name": "@Form"
          },
          {
            "name": "@152"
          },
          {
            "name": "@Graduate"
          },
          {
            "name": "@Grad"
          },
          {
            "name": "@152"
          },
          {
            "name": "@smoke"
          }
        ]
      },
      {
        "line": 33,
        "name": "Submit Certificate Management Form",
        "description": "",
        "id": "admission/graduate-school/;submit-certificate-management-form;;10",
        "type": "scenario",
        "keyword": "Scenario Outline",
        "steps": [
          {
            "result": {
              "duration": 4960359000,
              "status": "passed"
            },
            "line": 7,
            "name": "I am on the homepage",
            "match": {
              "location": "Graduate152.Homepage()"
            },
            "keyword": "Given "
          },
          {
            "result": {
              "duration": 2596616500,
              "status": "passed"
            },
            "line": 8,
            "name": "I am on the form \"https://www.babson.edu/graduate/academics/part-time-business-programs/certificate-in-advanced-management/\" page",
            "match": {
              "arguments": [
                {
                  "val": "\"https://www.babson.edu/graduate/academics/part-time-business-programs/certificate-in-advanced-management/\"",
                  "offset": 17
                }
              ],
              "location": "Graduate152.FormPage(String)"
            },
            "keyword": "When "
          },
          {
            "result": {
              "duration": 2486572000,
              "status": "passed"
            },
            "line": 9,
            "name": "I input the first and last name on the form",
            "match": {
              "location": "Graduate152.FirstLastName()"
            },
            "keyword": "And "
          },
          {
            "result": {
              "duration": 1108965500,
              "status": "passed"
            },
            "line": 10,
            "name": "I input an email address",
            "match": {
              "location": "Graduate152.inputEmail()"
            },
            "keyword": "And "
          },
          {
            "result": {
              "duration": 870688800,
              "status": "passed"
            },
            "line": 11,
            "name": "I select a program \"tfa_1156\"",
            "match": {
              "arguments": [
                {
                  "val": "\"tfa_1156\"",
                  "offset": 19
                }
              ],
              "location": "Graduate152.SelectAProgramOfInterest(String)"
            },
            "keyword": "And "
          },
          {
            "result": {
              "duration": 972724300,
              "status": "passed"
            },
            "line": 12,
            "name": "I select a term \"tfa_1246\"",
            "match": {
              "arguments": [
                {
                  "val": "\"tfa_1246\"",
                  "offset": 16
                }
              ],
              "location": "Graduate152.SelectATermOfEnrollment(String)"
            },
            "keyword": "And "
          },
          {
            "result": {
              "duration": 927385700,
              "status": "passed"
            },
            "line": 13,
            "name": "I input a phone number",
            "match": {
              "location": "Graduate152.inputPhoneNumber()"
            },
            "keyword": "And "
          },
          {
            "result": {
              "duration": 1096141900,
              "status": "passed"
            },
            "line": 14,
            "name": "I select a country",
            "match": {
              "location": "Graduate152.SelectACountry()"
            },
            "keyword": "And "
          },
          {
            "result": {
              "duration": 900520100,
              "status": "passed"
            },
            "line": 15,
            "name": "I input a state",
            "match": {
              "location": "Graduate152.inputState()"
            },
            "keyword": "And "
          },
          {
            "result": {
              "duration": 815812800,
              "status": "passed"
            },
            "line": 16,
            "name": "I input a city",
            "match": {
              "location": "Graduate152.inputCity()"
            },
            "keyword": "And "
          },
          {
            "result": {
              "duration": 1021854000,
              "status": "passed"
            },
            "line": 17,
            "name": "I input the postal code",
            "match": {
              "location": "Graduate152.inputPostalZode()"
            },
            "keyword": "And "
          },
          {
            "result": {
              "duration": 5777790400,
              "status": "passed"
            },
            "line": 18,
            "name": "I click the submit button",
            "match": {
              "location": "Graduate152.clickSubmit()"
            },
            "keyword": "And "
          },
          {
            "result": {
              "duration": 1704820900,
              "status": "passed"
            },
            "line": 19,
            "name": "I am on the correct \"https://www.babson.edu/graduate/admissions/thank-you/\" page",
            "match": {
              "arguments": [
                {
                  "val": "\"https://www.babson.edu/graduate/admissions/thank-you/\"",
                  "offset": 20
                }
              ],
              "location": "Graduate152.thankYouPage(String)"
            },
            "keyword": "And "
          },
          {
            "result": {
              "duration": 3489354200,
              "status": "passed"
            },
            "line": 20,
            "name": "I get the submit request",
            "match": {
              "location": "Graduate152.submitRequest()"
            },
            "keyword": "And "
          },
          {
            "result": {
              "duration": 4074870600,
              "status": "passed"
            },
            "line": 21,
            "name": "I delete the form record",
            "match": {
              "location": "Graduate152.deleteRequest()"
            },
            "keyword": "Then "
          }
        ],
        "tags": [
          {
            "name": "@Form"
          },
          {
            "name": "@152"
          },
          {
            "name": "@Graduate"
          },
          {
            "name": "@Grad"
          },
          {
            "name": "@152"
          },
          {
            "name": "@smoke"
          }
        ]
      }
    ],
    "name": "admission/graduate-school/",
    "description": "  I want to submit and verify form submits with the correct data",
    "id": "admission/graduate-school/",
    "keyword": "Feature",
    "uri": "C:/Users/rkeough/git/babson-automation/Include/features/Forms/152Graduate/Graduate152.feature",
    "tags": [
      {
        "name": "@Form",
        "type": "Tag",
        "location": {
          "line": 1,
          "column": 1
        }
      },
      {
        "name": "@152",
        "type": "Tag",
        "location": {
          "line": 1,
          "column": 7
        }
      },
      {
        "name": "@Graduate",
        "type": "Tag",
        "location": {
          "line": 1,
          "column": 12
        }
      }
    ]
  }
]