[
  {
    "line": 2,
    "elements": [
      {
        "BDD_TESTRUN_UUID": "b011ef0b-02d3-4654-936d-519d127e43a2",
        "line": 25,
        "name": "Submit Certificate Management Form",
        "description": "",
        "id": "admission/graduate-school/;submit-certificate-management-form;;2",
        "type": "scenario",
        "keyword": "Scenario Outline",
        "steps": [
          {
            "result": {
              "duration": 7659064600,
              "status": "passed"
            },
            "line": 7,
            "name": "I am on the homepage",
            "match": {
              "location": "Graduate152.Homepage()"
            },
            "keyword": "Given ",
            "BDD_STEP_UUID": "0e6eebb9-229f-4c4e-aebd-8c8095f51b7f"
          },
          {
            "result": {
              "duration": 2129207600,
              "status": "passed"
            },
            "line": 8,
            "name": "I am on the form \"https://www.babson.edu/academics/graduate-school/\" page",
            "match": {
              "arguments": [
                {
                  "val": "\"https://www.babson.edu/academics/graduate-school/\"",
                  "offset": 17
                }
              ],
              "location": "Graduate152.FormPage(String)"
            },
            "keyword": "When ",
            "BDD_STEP_UUID": "7a6d5921-c527-4a8b-aa38-d6027b6bfd1f"
          },
          {
            "result": {
              "duration": 2339931700,
              "status": "passed"
            },
            "line": 9,
            "name": "I input the first and last name on the form",
            "match": {
              "location": "Graduate152.FirstLastName()"
            },
            "keyword": "And ",
            "BDD_STEP_UUID": "50185898-58ce-4d5b-bdc4-190e16e3e15b"
          },
          {
            "result": {
              "duration": 924738100,
              "status": "passed"
            },
            "line": 10,
            "name": "I input an email address",
            "match": {
              "location": "Graduate152.inputEmail()"
            },
            "keyword": "And ",
            "BDD_STEP_UUID": "b38dfe17-6f6e-4b87-b22b-47bc3a810168"
          },
          {
            "result": {
              "duration": 1209450400,
              "status": "passed"
            },
            "line": 11,
            "name": "I select a program \"tfa_1184\"",
            "match": {
              "arguments": [
                {
                  "val": "\"tfa_1184\"",
                  "offset": 19
                }
              ],
              "location": "Graduate152.SelectAProgramOfInterest(String)"
            },
            "keyword": "And ",
            "BDD_STEP_UUID": "f4e8715b-c052-4b72-ad61-6c4b88e70548"
          },
          {
            "result": {
              "duration": 1064862700,
              "status": "passed"
            },
            "line": 12,
            "name": "I select a term \"tfa_1186\"",
            "match": {
              "arguments": [
                {
                  "val": "\"tfa_1186\"",
                  "offset": 16
                }
              ],
              "location": "Graduate152.SelectATermOfEnrollment(String)"
            },
            "keyword": "And ",
            "BDD_STEP_UUID": "b9387d5a-2732-4b93-855e-77fc0003abeb"
          },
          {
            "result": {
              "duration": 778879100,
              "status": "passed"
            },
            "line": 13,
            "name": "I input a phone number",
            "match": {
              "location": "Graduate152.inputPhoneNumber()"
            },
            "keyword": "And ",
            "BDD_STEP_UUID": "6c9b902f-05d5-4b20-bde5-329b46529c3e"
          },
          {
            "result": {
              "duration": 763212500,
              "status": "passed"
            },
            "line": 14,
            "name": "I select a country",
            "match": {
              "location": "Graduate152.SelectACountry()"
            },
            "keyword": "And ",
            "BDD_STEP_UUID": "a24cb4c3-44e5-4df4-b75d-21d6243ea76c"
          },
          {
            "result": {
              "duration": 898402000,
              "status": "passed"
            },
            "line": 15,
            "name": "I input a state",
            "match": {
              "location": "Graduate152.inputState()"
            },
            "keyword": "And ",
            "BDD_STEP_UUID": "6f7ccbca-a159-475b-aef7-9a8dee387c03"
          },
          {
            "result": {
              "duration": 938668500,
              "status": "passed"
            },
            "line": 16,
            "name": "I input a city",
            "match": {
              "location": "Graduate152.inputCity()"
            },
            "keyword": "And ",
            "BDD_STEP_UUID": "6bb8d268-9589-40e3-a8dc-bc10a9a089ae"
          },
          {
            "result": {
              "duration": 826511500,
              "status": "passed"
            },
            "line": 17,
            "name": "I input the postal code",
            "match": {
              "location": "Graduate152.inputPostalZode()"
            },
            "keyword": "And ",
            "BDD_STEP_UUID": "5f2ff0d1-f1be-4241-8e5a-4e0327828699"
          },
          {
            "result": {
              "duration": 6057206800,
              "status": "passed"
            },
            "line": 18,
            "name": "I click the submit button",
            "match": {
              "location": "Graduate152.clickSubmit()"
            },
            "keyword": "And ",
            "BDD_STEP_UUID": "e1f9d7f4-fb5a-44d9-b216-86d3ea51b0ae"
          },
          {
            "result": {
              "duration": 1514888400,
              "status": "passed"
            },
            "line": 19,
            "name": "I am on the correct \"https://www.babson.edu/graduate/admissions/thank-you/\" page",
            "match": {
              "arguments": [
                {
                  "val": "\"https://www.babson.edu/graduate/admissions/thank-you/\"",
                  "offset": 20
                }
              ],
              "location": "Graduate152.thankYouPage(String)"
            },
            "keyword": "And ",
            "BDD_STEP_UUID": "0a9af83d-ed03-435c-ab3b-43ea677b95a5"
          },
          {
            "result": {
              "duration": 5678310700,
              "status": "passed"
            },
            "line": 20,
            "name": "I get the submit request",
            "match": {
              "location": "Graduate152.submitRequest()"
            },
            "keyword": "And ",
            "BDD_STEP_UUID": "96220d24-abbc-4d2e-98dd-78c214a41ab3"
          },
          {
            "result": {
              "duration": 4239581800,
              "status": "passed"
            },
            "line": 21,
            "name": "I delete the form record",
            "match": {
              "location": "Graduate152.deleteRequest()"
            },
            "keyword": "Then ",
            "BDD_STEP_UUID": "3ff779fc-c53f-4e97-a9ed-8abb5a4a7544"
          }
        ],
        "tags": [
          {
            "name": "@Form"
          },
          {
            "name": "@152"
          },
          {
            "name": "@Graduate"
          },
          {
            "name": "@Grad"
          },
          {
            "name": "@152"
          },
          {
            "name": "@smoke"
          }
        ]
      },
      {
        "BDD_TESTRUN_UUID": "b8cd2f2b-6632-4a83-bbf5-b6f957c83b48",
        "line": 26,
        "name": "Submit Certificate Management Form",
        "description": "",
        "id": "admission/graduate-school/;submit-certificate-management-form;;3",
        "type": "scenario",
        "keyword": "Scenario Outline",
        "steps": [
          {
            "result": {
              "duration": 4732337700,
              "status": "passed"
            },
            "line": 7,
            "name": "I am on the homepage",
            "match": {
              "location": "Graduate152.Homepage()"
            },
            "keyword": "Given ",
            "BDD_STEP_UUID": "d47d6ce5-67fb-41c7-9fd8-c90a46c6d91a"
          },
          {
            "result": {
              "duration": 2276078000,
              "status": "passed"
            },
            "line": 8,
            "name": "I am on the form \"https://www.babson.edu/academics/graduate-school/mba/full-time-mba/\" page",
            "match": {
              "arguments": [
                {
                  "val": "\"https://www.babson.edu/academics/graduate-school/mba/full-time-mba/\"",
                  "offset": 17
                }
              ],
              "location": "Graduate152.FormPage(String)"
            },
            "keyword": "When ",
            "BDD_STEP_UUID": "bececced-2780-42a0-91a7-2becc0fc7018"
          },
          {
            "result": {
              "duration": 2128086500,
              "status": "passed"
            },
            "line": 9,
            "name": "I input the first and last name on the form",
            "match": {
              "location": "Graduate152.FirstLastName()"
            },
            "keyword": "And ",
            "BDD_STEP_UUID": "ce1a2f25-98a3-41d3-af3d-ce843ffc56b6"
          },
          {
            "result": {
              "duration": 991015900,
              "status": "passed"
            },
            "line": 10,
            "name": "I input an email address",
            "match": {
              "location": "Graduate152.inputEmail()"
            },
            "keyword": "And ",
            "BDD_STEP_UUID": "1f5fb7a5-1a82-4565-a3d9-b5e6993ad0ee"
          },
          {
            "result": {
              "duration": 848928000,
              "status": "passed"
            },
            "line": 11,
            "name": "I select a program \"tfa_1184\"",
            "match": {
              "arguments": [
                {
                  "val": "\"tfa_1184\"",
                  "offset": 19
                }
              ],
              "location": "Graduate152.SelectAProgramOfInterest(String)"
            },
            "keyword": "And ",
            "BDD_STEP_UUID": "a4efeee3-2f0e-4aa3-ab74-4b0dc775ed5f"
          },
          {
            "result": {
              "duration": 826371200,
              "status": "passed"
            },
            "line": 12,
            "name": "I select a term \"tfa_1257\"",
            "match": {
              "arguments": [
                {
                  "val": "\"tfa_1257\"",
                  "offset": 16
                }
              ],
              "location": "Graduate152.SelectATermOfEnrollment(String)"
            },
            "keyword": "And ",
            "BDD_STEP_UUID": "a6b96808-f3bf-455c-9830-9704abc9194e"
          },
          {
            "result": {
              "duration": 850432200,
              "status": "passed"
            },
            "line": 13,
            "name": "I input a phone number",
            "match": {
              "location": "Graduate152.inputPhoneNumber()"
            },
            "keyword": "And ",
            "BDD_STEP_UUID": "7f4302f1-448b-4a16-bb8e-13f6d8fd7420"
          },
          {
            "result": {
              "duration": 709232900,
              "status": "passed"
            },
            "line": 14,
            "name": "I select a country",
            "match": {
              "location": "Graduate152.SelectACountry()"
            },
            "keyword": "And ",
            "BDD_STEP_UUID": "2ac8a8a7-24dd-4158-8aea-f6de03746dab"
          },
          {
            "result": {
              "duration": 758027200,
              "status": "passed"
            },
            "line": 15,
            "name": "I input a state",
            "match": {
              "location": "Graduate152.inputState()"
            },
            "keyword": "And ",
            "BDD_STEP_UUID": "c7f4160c-2921-4214-886f-d28e7a082090"
          },
          {
            "result": {
              "duration": 1066561800,
              "status": "passed"
            },
            "line": 16,
            "name": "I input a city",
            "match": {
              "location": "Graduate152.inputCity()"
            },
            "keyword": "And ",
            "BDD_STEP_UUID": "0a70411e-0a7c-4cc9-80f1-a8af0603ead7"
          },
          {
            "result": {
              "duration": 868546800,
              "status": "passed"
            },
            "line": 17,
            "name": "I input the postal code",
            "match": {
              "location": "Graduate152.inputPostalZode()"
            },
            "keyword": "And ",
            "BDD_STEP_UUID": "85aa693f-5854-4c80-981d-6d3074fd7887"
          },
          {
            "result": {
              "duration": 6343150200,
              "status": "passed"
            },
            "line": 18,
            "name": "I click the submit button",
            "match": {
              "location": "Graduate152.clickSubmit()"
            },
            "keyword": "And ",
            "BDD_STEP_UUID": "06ee8b89-05d8-48e7-961b-643e560085c3"
          },
          {
            "result": {
              "duration": 1367765300,
              "status": "passed"
            },
            "line": 19,
            "name": "I am on the correct \"https://www.babson.edu/graduate/admissions/thank-you/\" page",
            "match": {
              "arguments": [
                {
                  "val": "\"https://www.babson.edu/graduate/admissions/thank-you/\"",
                  "offset": 20
                }
              ],
              "location": "Graduate152.thankYouPage(String)"
            },
            "keyword": "And ",
            "BDD_STEP_UUID": "e3b276bf-216b-4e18-aff6-56e5e53771d5"
          },
          {
            "result": {
              "duration": 3324481100,
              "status": "passed"
            },
            "line": 20,
            "name": "I get the submit request",
            "match": {
              "location": "Graduate152.submitRequest()"
            },
            "keyword": "And ",
            "BDD_STEP_UUID": "dd2c2903-a8ce-4524-bf35-8bebea33c79f"
          },
          {
            "result": {
              "duration": 4119947200,
              "status": "passed"
            },
            "line": 21,
            "name": "I delete the form record",
            "match": {
              "location": "Graduate152.deleteRequest()"
            },
            "keyword": "Then ",
            "BDD_STEP_UUID": "d0a700ea-4129-494b-9b9f-340ce7c88aaf"
          }
        ],
        "tags": [
          {
            "name": "@Form"
          },
          {
            "name": "@152"
          },
          {
            "name": "@Graduate"
          },
          {
            "name": "@Grad"
          },
          {
            "name": "@152"
          },
          {
            "name": "@smoke"
          }
        ]
      },
      {
        "BDD_TESTRUN_UUID": "ae0703b1-765b-4b8a-93ac-817caaf67c4a",
        "line": 27,
        "name": "Submit Certificate Management Form",
        "description": "",
        "id": "admission/graduate-school/;submit-certificate-management-form;;4",
        "type": "scenario",
        "keyword": "Scenario Outline",
        "steps": [
          {
            "result": {
              "duration": 5122362000,
              "status": "passed"
            },
            "line": 7,
            "name": "I am on the homepage",
            "match": {
              "location": "Graduate152.Homepage()"
            },
            "keyword": "Given ",
            "BDD_STEP_UUID": "5e062eaf-1489-4b05-ace1-d8379ebf3e0b"
          },
          {
            "result": {
              "duration": 2457050000,
              "status": "passed"
            },
            "line": 8,
            "name": "I am on the form \"https://www.babson.edu/academics/graduate-school/mba/\" page",
            "match": {
              "arguments": [
                {
                  "val": "\"https://www.babson.edu/academics/graduate-school/mba/\"",
                  "offset": 17
                }
              ],
              "location": "Graduate152.FormPage(String)"
            },
            "keyword": "When ",
            "BDD_STEP_UUID": "d278809a-5976-4ff1-9ca6-5a96b2f074bd"
          },
          {
            "result": {
              "duration": 2457160500,
              "status": "passed"
            },
            "line": 9,
            "name": "I input the first and last name on the form",
            "match": {
              "location": "Graduate152.FirstLastName()"
            },
            "keyword": "And ",
            "BDD_STEP_UUID": "73229e2b-93c9-48de-b2ec-4d29c5175d10"
          },
          {
            "result": {
              "duration": 849353000,
              "status": "passed"
            },
            "line": 10,
            "name": "I input an email address",
            "match": {
              "location": "Graduate152.inputEmail()"
            },
            "keyword": "And ",
            "BDD_STEP_UUID": "30c3c009-7bbb-488c-a200-c1e14aeca173"
          },
          {
            "result": {
              "duration": 824772000,
              "status": "passed"
            },
            "line": 11,
            "name": "I select a program \"tfa_1043\"",
            "match": {
              "arguments": [
                {
                  "val": "\"tfa_1043\"",
                  "offset": 19
                }
              ],
              "location": "Graduate152.SelectAProgramOfInterest(String)"
            },
            "keyword": "And ",
            "BDD_STEP_UUID": "bfe7ec6b-559f-4e76-99a1-315303b0ec0c"
          },
          {
            "result": {
              "duration": 838925600,
              "status": "passed"
            },
            "line": 12,
            "name": "I select a term \"tfa_1223\"",
            "match": {
              "arguments": [
                {
                  "val": "\"tfa_1223\"",
                  "offset": 16
                }
              ],
              "location": "Graduate152.SelectATermOfEnrollment(String)"
            },
            "keyword": "And ",
            "BDD_STEP_UUID": "f6cc3bbd-8d96-4a57-a0ec-39dbd097437d"
          },
          {
            "result": {
              "duration": 771513600,
              "status": "passed"
            },
            "line": 13,
            "name": "I input a phone number",
            "match": {
              "location": "Graduate152.inputPhoneNumber()"
            },
            "keyword": "And ",
            "BDD_STEP_UUID": "86816cd3-45ab-4765-9009-109e39a9c2a1"
          },
          {
            "result": {
              "duration": 818662200,
              "status": "passed"
            },
            "line": 14,
            "name": "I select a country",
            "match": {
              "location": "Graduate152.SelectACountry()"
            },
            "keyword": "And ",
            "BDD_STEP_UUID": "3a415f67-6200-4b86-a3b7-3d031fad293f"
          },
          {
            "result": {
              "duration": 858148200,
              "status": "passed"
            },
            "line": 15,
            "name": "I input a state",
            "match": {
              "location": "Graduate152.inputState()"
            },
            "keyword": "And ",
            "BDD_STEP_UUID": "38b86082-e63a-4643-adf8-c1c5dadb7fbd"
          },
          {
            "result": {
              "duration": 883137900,
              "status": "passed"
            },
            "line": 16,
            "name": "I input a city",
            "match": {
              "location": "Graduate152.inputCity()"
            },
            "keyword": "And ",
            "BDD_STEP_UUID": "8a7652ac-1c96-46e3-b002-0b1dd405b8ef"
          },
          {
            "result": {
              "duration": 999442900,
              "status": "passed"
            },
            "line": 17,
            "name": "I input the postal code",
            "match": {
              "location": "Graduate152.inputPostalZode()"
            },
            "keyword": "And ",
            "BDD_STEP_UUID": "b7d0bc24-efda-4818-95ed-a8d1abe6d47a"
          },
          {
            "result": {
              "duration": 5602720600,
              "status": "passed"
            },
            "line": 18,
            "name": "I click the submit button",
            "match": {
              "location": "Graduate152.clickSubmit()"
            },
            "keyword": "And ",
            "BDD_STEP_UUID": "d80779a4-8daf-4db8-ad5c-16c4ecc9b35e"
          },
          {
            "result": {
              "duration": 1366716500,
              "status": "passed"
            },
            "line": 19,
            "name": "I am on the correct \"https://www.babson.edu/graduate/admissions/thank-you/\" page",
            "match": {
              "arguments": [
                {
                  "val": "\"https://www.babson.edu/graduate/admissions/thank-you/\"",
                  "offset": 20
                }
              ],
              "location": "Graduate152.thankYouPage(String)"
            },
            "keyword": "And ",
            "BDD_STEP_UUID": "d22c9838-238f-4a05-b74e-a41b84f73e9c"
          },
          {
            "result": {
              "duration": 3565822300,
              "status": "passed"
            },
            "line": 20,
            "name": "I get the submit request",
            "match": {
              "location": "Graduate152.submitRequest()"
            },
            "keyword": "And ",
            "BDD_STEP_UUID": "0157180f-c754-4b83-868b-68ebc442edf9"
          },
          {
            "result": {
              "duration": 4658923100,
              "status": "passed"
            },
            "line": 21,
            "name": "I delete the form record",
            "match": {
              "location": "Graduate152.deleteRequest()"
            },
            "keyword": "Then ",
            "BDD_STEP_UUID": "38abacc3-8db4-4ef7-9d2c-135f4e757596"
          }
        ],
        "tags": [
          {
            "name": "@Form"
          },
          {
            "name": "@152"
          },
          {
            "name": "@Graduate"
          },
          {
            "name": "@Grad"
          },
          {
            "name": "@152"
          },
          {
            "name": "@smoke"
          }
        ]
      },
      {
        "BDD_TESTRUN_UUID": "b9f1711d-0858-4215-a567-ddd28455a965",
        "line": 28,
        "name": "Submit Certificate Management Form",
        "description": "",
        "id": "admission/graduate-school/;submit-certificate-management-form;;5",
        "type": "scenario",
        "keyword": "Scenario Outline",
        "steps": [
          {
            "result": {
              "duration": 5110622300,
              "status": "passed"
            },
            "line": 7,
            "name": "I am on the homepage",
            "match": {
              "location": "Graduate152.Homepage()"
            },
            "keyword": "Given ",
            "BDD_STEP_UUID": "46a11bd9-fa26-4e57-997f-0ea3f0a2e2bb"
          },
          {
            "result": {
              "duration": 1975410700,
              "status": "passed"
            },
            "line": 8,
            "name": "I am on the form \"https://www.babson.edu/academics/graduate-school/mba/mba-miami/\" page",
            "match": {
              "arguments": [
                {
                  "val": "\"https://www.babson.edu/academics/graduate-school/mba/mba-miami/\"",
                  "offset": 17
                }
              ],
              "location": "Graduate152.FormPage(String)"
            },
            "keyword": "When ",
            "BDD_STEP_UUID": "ec37bf81-53da-48b0-b5a7-98c2a4f68b6a"
          },
          {
            "result": {
              "duration": 2202940100,
              "status": "passed"
            },
            "line": 9,
            "name": "I input the first and last name on the form",
            "match": {
              "location": "Graduate152.FirstLastName()"
            },
            "keyword": "And ",
            "BDD_STEP_UUID": "09abf38a-753e-459a-af45-818af176afb3"
          },
          {
            "result": {
              "duration": 991284200,
              "status": "passed"
            },
            "line": 10,
            "name": "I input an email address",
            "match": {
              "location": "Graduate152.inputEmail()"
            },
            "keyword": "And ",
            "BDD_STEP_UUID": "48ac74d0-a75c-4c41-9c36-239e9e992317"
          },
          {
            "result": {
              "duration": 811993700,
              "status": "passed"
            },
            "line": 11,
            "name": "I select a program \"tfa_1208\"",
            "match": {
              "arguments": [
                {
                  "val": "\"tfa_1208\"",
                  "offset": 19
                }
              ],
              "location": "Graduate152.SelectAProgramOfInterest(String)"
            },
            "keyword": "And ",
            "BDD_STEP_UUID": "38cf74aa-276d-4976-a50d-45f18e8915b9"
          },
          {
            "result": {
              "duration": 943609800,
              "status": "passed"
            },
            "line": 12,
            "name": "I select a term \"tfa_1226\"",
            "match": {
              "arguments": [
                {
                  "val": "\"tfa_1226\"",
                  "offset": 16
                }
              ],
              "location": "Graduate152.SelectATermOfEnrollment(String)"
            },
            "keyword": "And ",
            "BDD_STEP_UUID": "5229eace-c6b8-40d8-9979-bda292f64a80"
          },
          {
            "result": {
              "duration": 768340900,
              "status": "passed"
            },
            "line": 13,
            "name": "I input a phone number",
            "match": {
              "location": "Graduate152.inputPhoneNumber()"
            },
            "keyword": "And ",
            "BDD_STEP_UUID": "4a9edcba-b808-4ae1-a0c2-fb15b5d99257"
          },
          {
            "result": {
              "duration": 823011100,
              "status": "passed"
            },
            "line": 14,
            "name": "I select a country",
            "match": {
              "location": "Graduate152.SelectACountry()"
            },
            "keyword": "And ",
            "BDD_STEP_UUID": "97fff91f-1a79-45fd-8c30-9696ac7aa687"
          },
          {
            "result": {
              "duration": 772661900,
              "status": "passed"
            },
            "line": 15,
            "name": "I input a state",
            "match": {
              "location": "Graduate152.inputState()"
            },
            "keyword": "And ",
            "BDD_STEP_UUID": "64ec28f7-4789-4674-b871-3ab07fc2419f"
          },
          {
            "result": {
              "duration": 933574800,
              "status": "passed"
            },
            "line": 16,
            "name": "I input a city",
            "match": {
              "location": "Graduate152.inputCity()"
            },
            "keyword": "And ",
            "BDD_STEP_UUID": "276f2512-4ae6-4ed4-b3dc-f35c87659639"
          },
          {
            "result": {
              "duration": 921362400,
              "status": "passed"
            },
            "line": 17,
            "name": "I input the postal code",
            "match": {
              "location": "Graduate152.inputPostalZode()"
            },
            "keyword": "And ",
            "BDD_STEP_UUID": "c873ef6a-7920-4f53-8e57-d8f1599db05d"
          },
          {
            "result": {
              "duration": 5592008800,
              "status": "passed"
            },
            "line": 18,
            "name": "I click the submit button",
            "match": {
              "location": "Graduate152.clickSubmit()"
            },
            "keyword": "And ",
            "BDD_STEP_UUID": "db927215-76f4-4866-a302-3ba612867589"
          },
          {
            "result": {
              "duration": 1432229300,
              "status": "passed"
            },
            "line": 19,
            "name": "I am on the correct \"https://www.babson.edu/graduate/admissions/thank-you/\" page",
            "match": {
              "arguments": [
                {
                  "val": "\"https://www.babson.edu/graduate/admissions/thank-you/\"",
                  "offset": 20
                }
              ],
              "location": "Graduate152.thankYouPage(String)"
            },
            "keyword": "And ",
            "BDD_STEP_UUID": "13c41e15-7157-4572-88a1-a03eb847e54d"
          },
          {
            "result": {
              "duration": 3362955000,
              "status": "passed"
            },
            "line": 20,
            "name": "I get the submit request",
            "match": {
              "location": "Graduate152.submitRequest()"
            },
            "keyword": "And ",
            "BDD_STEP_UUID": "9cfed73f-4ea0-403e-8496-c69d99cdf7fc"
          },
          {
            "result": {
              "duration": 8767884400,
              "status": "passed"
            },
            "line": 21,
            "name": "I delete the form record",
            "match": {
              "location": "Graduate152.deleteRequest()"
            },
            "keyword": "Then ",
            "BDD_STEP_UUID": "2ae18508-2fdf-4e2e-bd7a-48fb065e1dc7"
          }
        ],
        "tags": [
          {
            "name": "@Form"
          },
          {
            "name": "@152"
          },
          {
            "name": "@Graduate"
          },
          {
            "name": "@Grad"
          },
          {
            "name": "@152"
          },
          {
            "name": "@smoke"
          }
        ]
      },
      {
        "BDD_TESTRUN_UUID": "018fbe6c-8b8b-46c0-860c-883b169f4bcb",
        "line": 29,
        "name": "Submit Certificate Management Form",
        "description": "",
        "id": "admission/graduate-school/;submit-certificate-management-form;;6",
        "type": "scenario",
        "keyword": "Scenario Outline",
        "steps": [
          {
            "result": {
              "duration": 4930988600,
              "status": "passed"
            },
            "line": 7,
            "name": "I am on the homepage",
            "match": {
              "location": "Graduate152.Homepage()"
            },
            "keyword": "Given ",
            "BDD_STEP_UUID": "0581dd8f-7331-4dc9-aa10-c9aef0740534"
          },
          {
            "result": {
              "duration": 2756851000,
              "status": "passed"
            },
            "line": 8,
            "name": "I am on the form \"https://www.babson.edu/academics/graduate-school/ms-business-analytics/\" page",
            "match": {
              "arguments": [
                {
                  "val": "\"https://www.babson.edu/academics/graduate-school/ms-business-analytics/\"",
                  "offset": 17
                }
              ],
              "location": "Graduate152.FormPage(String)"
            },
            "keyword": "When ",
            "BDD_STEP_UUID": "9a304560-8db3-4c9f-9ee2-82407c7dfec4"
          },
          {
            "result": {
              "duration": 2319187600,
              "status": "passed"
            },
            "line": 9,
            "name": "I input the first and last name on the form",
            "match": {
              "location": "Graduate152.FirstLastName()"
            },
            "keyword": "And ",
            "BDD_STEP_UUID": "0dd9c1d1-cf64-463b-bcb7-f33835685a7e"
          },
          {
            "result": {
              "duration": 980176600,
              "status": "passed"
            },
            "line": 10,
            "name": "I input an email address",
            "match": {
              "location": "Graduate152.inputEmail()"
            },
            "keyword": "And ",
            "BDD_STEP_UUID": "4e3e44c4-1585-41e7-9031-52621109af9c"
          },
          {
            "result": {
              "duration": 1010778600,
              "status": "passed"
            },
            "line": 11,
            "name": "I select a program \"tfa_1208\"",
            "match": {
              "arguments": [
                {
                  "val": "\"tfa_1208\"",
                  "offset": 19
                }
              ],
              "location": "Graduate152.SelectAProgramOfInterest(String)"
            },
            "keyword": "And ",
            "BDD_STEP_UUID": "0ed3591d-4572-401a-81ac-3de9ea05bb83"
          },
          {
            "result": {
              "duration": 899818900,
              "status": "passed"
            },
            "line": 12,
            "name": "I select a term \"tfa_1269\"",
            "match": {
              "arguments": [
                {
                  "val": "\"tfa_1269\"",
                  "offset": 16
                }
              ],
              "location": "Graduate152.SelectATermOfEnrollment(String)"
            },
            "keyword": "And ",
            "BDD_STEP_UUID": "bb63ee6c-80c0-4237-adaa-59362947b51f"
          },
          {
            "result": {
              "duration": 763446700,
              "status": "passed"
            },
            "line": 13,
            "name": "I input a phone number",
            "match": {
              "location": "Graduate152.inputPhoneNumber()"
            },
            "keyword": "And ",
            "BDD_STEP_UUID": "c0e80260-17dc-4fb4-8432-d8659f446847"
          },
          {
            "result": {
              "duration": 727591400,
              "status": "passed"
            },
            "line": 14,
            "name": "I select a country",
            "match": {
              "location": "Graduate152.SelectACountry()"
            },
            "keyword": "And ",
            "BDD_STEP_UUID": "a265aae0-a0e1-4387-ac2d-79af63d65654"
          },
          {
            "result": {
              "duration": 861942500,
              "status": "passed"
            },
            "line": 15,
            "name": "I input a state",
            "match": {
              "location": "Graduate152.inputState()"
            },
            "keyword": "And ",
            "BDD_STEP_UUID": "fec6c404-56ac-42be-9918-0091815764dc"
          },
          {
            "result": {
              "duration": 908376900,
              "status": "passed"
            },
            "line": 16,
            "name": "I input a city",
            "match": {
              "location": "Graduate152.inputCity()"
            },
            "keyword": "And ",
            "BDD_STEP_UUID": "2886bcec-4801-4f47-83b6-bb6d7be00bca"
          },
          {
            "result": {
              "duration": 966783200,
              "status": "passed"
            },
            "line": 17,
            "name": "I input the postal code",
            "match": {
              "location": "Graduate152.inputPostalZode()"
            },
            "keyword": "And ",
            "BDD_STEP_UUID": "c10129a0-7252-4336-b554-4349513b0b3e"
          },
          {
            "result": {
              "duration": 6254949500,
              "status": "passed"
            },
            "line": 18,
            "name": "I click the submit button",
            "match": {
              "location": "Graduate152.clickSubmit()"
            },
            "keyword": "And ",
            "BDD_STEP_UUID": "708bc657-6b53-4d9d-9d6b-a8a669ae0e0c"
          },
          {
            "result": {
              "duration": 1407323800,
              "status": "passed"
            },
            "line": 19,
            "name": "I am on the correct \"https://www.babson.edu/graduate/admissions/thank-you/\" page",
            "match": {
              "arguments": [
                {
                  "val": "\"https://www.babson.edu/graduate/admissions/thank-you/\"",
                  "offset": 20
                }
              ],
              "location": "Graduate152.thankYouPage(String)"
            },
            "keyword": "And ",
            "BDD_STEP_UUID": "587a04f9-bebf-447b-9a74-f11e0876a74e"
          },
          {
            "result": {
              "duration": 3401575000,
              "status": "passed"
            },
            "line": 20,
            "name": "I get the submit request",
            "match": {
              "location": "Graduate152.submitRequest()"
            },
            "keyword": "And ",
            "BDD_STEP_UUID": "569be707-fef2-4b00-b548-4c8b52de82ec"
          },
          {
            "result": {
              "duration": 4006279200,
              "status": "passed"
            },
            "line": 21,
            "name": "I delete the form record",
            "match": {
              "location": "Graduate152.deleteRequest()"
            },
            "keyword": "Then ",
            "BDD_STEP_UUID": "38a433c6-cab1-4865-bced-273683d2f3af"
          }
        ],
        "tags": [
          {
            "name": "@Form"
          },
          {
            "name": "@152"
          },
          {
            "name": "@Graduate"
          },
          {
            "name": "@Grad"
          },
          {
            "name": "@152"
          },
          {
            "name": "@smoke"
          }
        ]
      },
      {
        "BDD_TESTRUN_UUID": "37233515-0004-4576-b853-ae17f944e0a9",
        "line": 30,
        "name": "Submit Certificate Management Form",
        "description": "",
        "id": "admission/graduate-school/;submit-certificate-management-form;;7",
        "type": "scenario",
        "keyword": "Scenario Outline",
        "steps": [
          {
            "result": {
              "duration": 5089008300,
              "status": "passed"
            },
            "line": 7,
            "name": "I am on the homepage",
            "match": {
              "location": "Graduate152.Homepage()"
            },
            "keyword": "Given ",
            "BDD_STEP_UUID": "b2e9e134-6a8b-4e46-8f33-3911618be20b"
          },
          {
            "result": {
              "duration": 2012786100,
              "status": "passed"
            },
            "line": 8,
            "name": "I am on the form \"https://www.babson.edu/academics/graduate-school/ms-in-entrepreneurial-leadership/\" page",
            "match": {
              "arguments": [
                {
                  "val": "\"https://www.babson.edu/academics/graduate-school/ms-in-entrepreneurial-leadership/\"",
                  "offset": 17
                }
              ],
              "location": "Graduate152.FormPage(String)"
            },
            "keyword": "When ",
            "BDD_STEP_UUID": "587d74f1-732b-4c41-9d3b-4123c5928bd6"
          },
          {
            "result": {
              "duration": 2316268700,
              "status": "passed"
            },
            "line": 9,
            "name": "I input the first and last name on the form",
            "match": {
              "location": "Graduate152.FirstLastName()"
            },
            "keyword": "And ",
            "BDD_STEP_UUID": "e2a0c2f8-fd31-447a-b650-aec5cf710e24"
          },
          {
            "result": {
              "duration": 868842700,
              "status": "passed"
            },
            "line": 10,
            "name": "I input an email address",
            "match": {
              "location": "Graduate152.inputEmail()"
            },
            "keyword": "And ",
            "BDD_STEP_UUID": "7436ee5c-c042-464b-b4e6-88866cf5822f"
          },
          {
            "result": {
              "duration": 796888300,
              "status": "passed"
            },
            "line": 11,
            "name": "I select a program \"tfa_1122\"",
            "match": {
              "arguments": [
                {
                  "val": "\"tfa_1122\"",
                  "offset": 19
                }
              ],
              "location": "Graduate152.SelectAProgramOfInterest(String)"
            },
            "keyword": "And ",
            "BDD_STEP_UUID": "555aec70-c85d-4ac0-8a42-45b40dabc363"
          },
          {
            "result": {
              "duration": 884075600,
              "status": "passed"
            },
            "line": 12,
            "name": "I select a term \"tfa_1277\"",
            "match": {
              "arguments": [
                {
                  "val": "\"tfa_1277\"",
                  "offset": 16
                }
              ],
              "location": "Graduate152.SelectATermOfEnrollment(String)"
            },
            "keyword": "And ",
            "BDD_STEP_UUID": "66daf49e-ce89-48eb-b149-7beb0323c814"
          },
          {
            "result": {
              "duration": 1001864800,
              "status": "passed"
            },
            "line": 13,
            "name": "I input a phone number",
            "match": {
              "location": "Graduate152.inputPhoneNumber()"
            },
            "keyword": "And ",
            "BDD_STEP_UUID": "629d9e08-8887-4fb7-810a-77f4f4575666"
          },
          {
            "result": {
              "duration": 731542100,
              "status": "passed"
            },
            "line": 14,
            "name": "I select a country",
            "match": {
              "location": "Graduate152.SelectACountry()"
            },
            "keyword": "And ",
            "BDD_STEP_UUID": "8bc54310-68ec-4aca-9a74-aa9eeaa041f2"
          },
          {
            "result": {
              "duration": 891431600,
              "status": "passed"
            },
            "line": 15,
            "name": "I input a state",
            "match": {
              "location": "Graduate152.inputState()"
            },
            "keyword": "And ",
            "BDD_STEP_UUID": "7f99c05f-ff22-4729-8953-41a883e0fd29"
          },
          {
            "result": {
              "duration": 849896800,
              "status": "passed"
            },
            "line": 16,
            "name": "I input a city",
            "match": {
              "location": "Graduate152.inputCity()"
            },
            "keyword": "And ",
            "BDD_STEP_UUID": "ced4e8f6-77b3-4b91-82ce-34bd8be8afb9"
          },
          {
            "result": {
              "duration": 999204600,
              "status": "passed"
            },
            "line": 17,
            "name": "I input the postal code",
            "match": {
              "location": "Graduate152.inputPostalZode()"
            },
            "keyword": "And ",
            "BDD_STEP_UUID": "9f27e6e6-8226-4187-a054-0ae7dd434408"
          },
          {
            "result": {
              "duration": 5460105300,
              "status": "passed"
            },
            "line": 18,
            "name": "I click the submit button",
            "match": {
              "location": "Graduate152.clickSubmit()"
            },
            "keyword": "And ",
            "BDD_STEP_UUID": "34c5b689-6fb6-45ce-9a6c-04a6f9cd04a9"
          },
          {
            "result": {
              "duration": 1415068500,
              "status": "passed"
            },
            "line": 19,
            "name": "I am on the correct \"https://www.babson.edu/graduate/admissions/thank-you/\" page",
            "match": {
              "arguments": [
                {
                  "val": "\"https://www.babson.edu/graduate/admissions/thank-you/\"",
                  "offset": 20
                }
              ],
              "location": "Graduate152.thankYouPage(String)"
            },
            "keyword": "And ",
            "BDD_STEP_UUID": "6e477f60-1a64-4e3f-b84e-97e34a3c2c66"
          },
          {
            "result": {
              "duration": 3364830600,
              "status": "passed"
            },
            "line": 20,
            "name": "I get the submit request",
            "match": {
              "location": "Graduate152.submitRequest()"
            },
            "keyword": "And ",
            "BDD_STEP_UUID": "c9a955af-1f30-4244-ae7a-dbd9f40a4c7f"
          },
          {
            "result": {
              "duration": 3951055100,
              "status": "passed"
            },
            "line": 21,
            "name": "I delete the form record",
            "match": {
              "location": "Graduate152.deleteRequest()"
            },
            "keyword": "Then ",
            "BDD_STEP_UUID": "577e4679-d14d-4bfc-9cbb-32b8eb5fad10"
          }
        ],
        "tags": [
          {
            "name": "@Form"
          },
          {
            "name": "@152"
          },
          {
            "name": "@Graduate"
          },
          {
            "name": "@Grad"
          },
          {
            "name": "@152"
          },
          {
            "name": "@smoke"
          }
        ]
      },
      {
        "BDD_TESTRUN_UUID": "7e19c4e8-d8a9-4f20-b09a-a7bd8d3846d7",
        "line": 31,
        "name": "Submit Certificate Management Form",
        "description": "",
        "id": "admission/graduate-school/;submit-certificate-management-form;;8",
        "type": "scenario",
        "keyword": "Scenario Outline",
        "steps": [
          {
            "result": {
              "duration": 4674099400,
              "status": "passed"
            },
            "line": 7,
            "name": "I am on the homepage",
            "match": {
              "location": "Graduate152.Homepage()"
            },
            "keyword": "Given ",
            "BDD_STEP_UUID": "aa9a2613-4dab-469c-998e-171f9bfc2acf"
          },
          {
            "result": {
              "duration": 1789130800,
              "status": "passed"
            },
            "line": 8,
            "name": "I am on the form \"https://www.babson.edu/academics/graduate-school/mba/part-time-mba/\" page",
            "match": {
              "arguments": [
                {
                  "val": "\"https://www.babson.edu/academics/graduate-school/mba/part-time-mba/\"",
                  "offset": 17
                }
              ],
              "location": "Graduate152.FormPage(String)"
            },
            "keyword": "When ",
            "BDD_STEP_UUID": "163a0240-89a2-42e3-a13e-74672cee60a2"
          },
          {
            "result": {
              "duration": 2432658700,
              "status": "passed"
            },
            "line": 9,
            "name": "I input the first and last name on the form",
            "match": {
              "location": "Graduate152.FirstLastName()"
            },
            "keyword": "And ",
            "BDD_STEP_UUID": "573d9407-3a2d-4100-aa8b-a4d89a6a06cf"
          },
          {
            "result": {
              "duration": 1021773200,
              "status": "passed"
            },
            "line": 10,
            "name": "I input an email address",
            "match": {
              "location": "Graduate152.inputEmail()"
            },
            "keyword": "And ",
            "BDD_STEP_UUID": "79d6025f-2277-41c1-9610-f30d31f4672f"
          },
          {
            "result": {
              "duration": 993810300,
              "status": "passed"
            },
            "line": 11,
            "name": "I select a program \"tfa_1063\"",
            "match": {
              "arguments": [
                {
                  "val": "\"tfa_1063\"",
                  "offset": 19
                }
              ],
              "location": "Graduate152.SelectAProgramOfInterest(String)"
            },
            "keyword": "And ",
            "BDD_STEP_UUID": "de7bf0e8-0c7c-4e36-a03b-d5e9974a7c28"
          },
          {
            "result": {
              "duration": 964514500,
              "status": "passed"
            },
            "line": 12,
            "name": "I select a term \"tfa_1281\"",
            "match": {
              "arguments": [
                {
                  "val": "\"tfa_1281\"",
                  "offset": 16
                }
              ],
              "location": "Graduate152.SelectATermOfEnrollment(String)"
            },
            "keyword": "And ",
            "BDD_STEP_UUID": "7e83595e-83c2-4a99-be95-88765edadcb0"
          },
          {
            "result": {
              "duration": 812833800,
              "status": "passed"
            },
            "line": 13,
            "name": "I input a phone number",
            "match": {
              "location": "Graduate152.inputPhoneNumber()"
            },
            "keyword": "And ",
            "BDD_STEP_UUID": "be79244c-99e8-4402-baa7-40a24d6037f6"
          },
          {
            "result": {
              "duration": 744921300,
              "status": "passed"
            },
            "line": 14,
            "name": "I select a country",
            "match": {
              "location": "Graduate152.SelectACountry()"
            },
            "keyword": "And ",
            "BDD_STEP_UUID": "ef7248ec-ca84-4e22-8137-7abfecbb15d1"
          },
          {
            "result": {
              "duration": 766266800,
              "status": "passed"
            },
            "line": 15,
            "name": "I input a state",
            "match": {
              "location": "Graduate152.inputState()"
            },
            "keyword": "And ",
            "BDD_STEP_UUID": "949d59be-4c8c-42c4-8c38-3d66f55fa618"
          },
          {
            "result": {
              "duration": 823687300,
              "status": "passed"
            },
            "line": 16,
            "name": "I input a city",
            "match": {
              "location": "Graduate152.inputCity()"
            },
            "keyword": "And ",
            "BDD_STEP_UUID": "5d028e9f-0239-4c7a-b8fb-ac39a739b6b1"
          },
          {
            "result": {
              "duration": 858075000,
              "status": "passed"
            },
            "line": 17,
            "name": "I input the postal code",
            "match": {
              "location": "Graduate152.inputPostalZode()"
            },
            "keyword": "And ",
            "BDD_STEP_UUID": "344283ec-9dd5-4332-96da-edf8310c3108"
          },
          {
            "result": {
              "duration": 5008827600,
              "status": "passed"
            },
            "line": 18,
            "name": "I click the submit button",
            "match": {
              "location": "Graduate152.clickSubmit()"
            },
            "keyword": "And ",
            "BDD_STEP_UUID": "dd3a5404-ac16-409b-abfe-22e7a96eaca9"
          },
          {
            "result": {
              "duration": 2068039100,
              "status": "passed"
            },
            "line": 19,
            "name": "I am on the correct \"https://www.babson.edu/graduate/admissions/thank-you/\" page",
            "match": {
              "arguments": [
                {
                  "val": "\"https://www.babson.edu/graduate/admissions/thank-you/\"",
                  "offset": 20
                }
              ],
              "location": "Graduate152.thankYouPage(String)"
            },
            "keyword": "And ",
            "BDD_STEP_UUID": "501d0831-98f7-44ac-9adf-d5fbbed4fb63"
          },
          {
            "result": {
              "duration": 3364856200,
              "status": "passed"
            },
            "line": 20,
            "name": "I get the submit request",
            "match": {
              "location": "Graduate152.submitRequest()"
            },
            "keyword": "And ",
            "BDD_STEP_UUID": "d2716c45-f701-44ea-ac70-cf237f2644dc"
          },
          {
            "result": {
              "duration": 3999710900,
              "status": "passed"
            },
            "line": 21,
            "name": "I delete the form record",
            "match": {
              "location": "Graduate152.deleteRequest()"
            },
            "keyword": "Then ",
            "BDD_STEP_UUID": "c600134a-e52f-4ebd-9166-e20c650d9032"
          }
        ],
        "tags": [
          {
            "name": "@Form"
          },
          {
            "name": "@152"
          },
          {
            "name": "@Graduate"
          },
          {
            "name": "@Grad"
          },
          {
            "name": "@152"
          },
          {
            "name": "@smoke"
          }
        ]
      },
      {
        "BDD_TESTRUN_UUID": "ad217766-a020-41c5-b5ae-0eb4678321fd",
        "line": 32,
        "name": "Submit Certificate Management Form",
        "description": "",
        "id": "admission/graduate-school/;submit-certificate-management-form;;9",
        "type": "scenario",
        "keyword": "Scenario Outline",
        "steps": [
          {
            "result": {
              "duration": 5227152700,
              "status": "passed"
            },
            "line": 7,
            "name": "I am on the homepage",
            "match": {
              "location": "Graduate152.Homepage()"
            },
            "keyword": "Given ",
            "BDD_STEP_UUID": "8562f127-56cb-42f9-97d1-0d2b60490d58"
          },
          {
            "result": {
              "duration": 2538807700,
              "status": "passed"
            },
            "line": 8,
            "name": "I am on the form \"https://www.babson.edu/admission/graduate-school/request-information/\" page",
            "match": {
              "arguments": [
                {
                  "val": "\"https://www.babson.edu/admission/graduate-school/request-information/\"",
                  "offset": 17
                }
              ],
              "location": "Graduate152.FormPage(String)"
            },
            "keyword": "When ",
            "BDD_STEP_UUID": "ff479077-3ae7-4093-a850-f1db1d26bb2f"
          },
          {
            "result": {
              "duration": 1811017300,
              "status": "passed"
            },
            "line": 9,
            "name": "I input the first and last name on the form",
            "match": {
              "location": "Graduate152.FirstLastName()"
            },
            "keyword": "And ",
            "BDD_STEP_UUID": "bd3f6606-325a-483f-9c56-cc50b6d32a66"
          },
          {
            "result": {
              "duration": 908691200,
              "status": "passed"
            },
            "line": 10,
            "name": "I input an email address",
            "match": {
              "location": "Graduate152.inputEmail()"
            },
            "keyword": "And ",
            "BDD_STEP_UUID": "82074b86-280b-42e4-89c8-61b414d715c1"
          },
          {
            "result": {
              "duration": 1055394700,
              "status": "passed"
            },
            "line": 11,
            "name": "I select a program \"tfa_1075\"",
            "match": {
              "arguments": [
                {
                  "val": "\"tfa_1075\"",
                  "offset": 19
                }
              ],
              "location": "Graduate152.SelectAProgramOfInterest(String)"
            },
            "keyword": "And ",
            "BDD_STEP_UUID": "a2cb0ba4-0243-40ce-b72e-7aded7ef9aae"
          },
          {
            "result": {
              "duration": 912403800,
              "status": "passed"
            },
            "line": 12,
            "name": "I select a term \"tfa_1251\"",
            "match": {
              "arguments": [
                {
                  "val": "\"tfa_1251\"",
                  "offset": 16
                }
              ],
              "location": "Graduate152.SelectATermOfEnrollment(String)"
            },
            "keyword": "And ",
            "BDD_STEP_UUID": "17f929a1-be16-4ca2-bda5-6aebf7b654d7"
          },
          {
            "result": {
              "duration": 865628200,
              "status": "passed"
            },
            "line": 13,
            "name": "I input a phone number",
            "match": {
              "location": "Graduate152.inputPhoneNumber()"
            },
            "keyword": "And ",
            "BDD_STEP_UUID": "57de72c5-fd4b-43b1-9976-3d15b9ef6d66"
          },
          {
            "result": {
              "duration": 849894400,
              "status": "passed"
            },
            "line": 14,
            "name": "I select a country",
            "match": {
              "location": "Graduate152.SelectACountry()"
            },
            "keyword": "And ",
            "BDD_STEP_UUID": "832aa619-9d97-465e-bf33-c0a80da3de2e"
          },
          {
            "result": {
              "duration": 787206800,
              "status": "passed"
            },
            "line": 15,
            "name": "I input a state",
            "match": {
              "location": "Graduate152.inputState()"
            },
            "keyword": "And ",
            "BDD_STEP_UUID": "570987ea-0977-4c59-a996-b8ffe0de564e"
          },
          {
            "result": {
              "duration": 788430000,
              "status": "passed"
            },
            "line": 16,
            "name": "I input a city",
            "match": {
              "location": "Graduate152.inputCity()"
            },
            "keyword": "And ",
            "BDD_STEP_UUID": "c53773c6-fcbb-4a24-a111-bc50151e226c"
          },
          {
            "result": {
              "duration": 935451300,
              "status": "passed"
            },
            "line": 17,
            "name": "I input the postal code",
            "match": {
              "location": "Graduate152.inputPostalZode()"
            },
            "keyword": "And ",
            "BDD_STEP_UUID": "eb2fdb82-862f-4f9c-9cc7-e724cd6a0056"
          },
          {
            "result": {
              "duration": 5264251600,
              "status": "passed"
            },
            "line": 18,
            "name": "I click the submit button",
            "match": {
              "location": "Graduate152.clickSubmit()"
            },
            "keyword": "And ",
            "BDD_STEP_UUID": "e1afaf6a-e094-4ede-a0a3-3a25154bb810"
          },
          {
            "result": {
              "duration": 2787255900,
              "status": "passed"
            },
            "line": 19,
            "name": "I am on the correct \"https://www.babson.edu/graduate/admissions/thank-you/\" page",
            "match": {
              "arguments": [
                {
                  "val": "\"https://www.babson.edu/graduate/admissions/thank-you/\"",
                  "offset": 20
                }
              ],
              "location": "Graduate152.thankYouPage(String)"
            },
            "keyword": "And ",
            "BDD_STEP_UUID": "e6929cf8-0fa8-47db-b2af-4eede42befe6"
          },
          {
            "result": {
              "duration": 3559128300,
              "status": "passed"
            },
            "line": 20,
            "name": "I get the submit request",
            "match": {
              "location": "Graduate152.submitRequest()"
            },
            "keyword": "And ",
            "BDD_STEP_UUID": "33f155b1-361e-40fd-a091-cbdb894c08ee"
          },
          {
            "result": {
              "duration": 4360837500,
              "status": "passed"
            },
            "line": 21,
            "name": "I delete the form record",
            "match": {
              "location": "Graduate152.deleteRequest()"
            },
            "keyword": "Then ",
            "BDD_STEP_UUID": "f78bda52-86d2-4dd1-923b-c7d4bdf5f20d"
          }
        ],
        "tags": [
          {
            "name": "@Form"
          },
          {
            "name": "@152"
          },
          {
            "name": "@Graduate"
          },
          {
            "name": "@Grad"
          },
          {
            "name": "@152"
          },
          {
            "name": "@smoke"
          }
        ]
      },
      {
        "BDD_TESTRUN_UUID": "f59e7ba8-f700-48bf-93c8-2799e830778c",
        "line": 33,
        "name": "Submit Certificate Management Form",
        "description": "",
        "id": "admission/graduate-school/;submit-certificate-management-form;;10",
        "type": "scenario",
        "keyword": "Scenario Outline",
        "steps": [
          {
            "result": {
              "duration": 4960359000,
              "status": "passed"
            },
            "line": 7,
            "name": "I am on the homepage",
            "match": {
              "location": "Graduate152.Homepage()"
            },
            "keyword": "Given ",
            "BDD_STEP_UUID": "5441afee-38c9-42de-be1a-9689af65e8d0"
          },
          {
            "result": {
              "duration": 2596616500,
              "status": "passed"
            },
            "line": 8,
            "name": "I am on the form \"https://www.babson.edu/graduate/academics/part-time-business-programs/certificate-in-advanced-management/\" page",
            "match": {
              "arguments": [
                {
                  "val": "\"https://www.babson.edu/graduate/academics/part-time-business-programs/certificate-in-advanced-management/\"",
                  "offset": 17
                }
              ],
              "location": "Graduate152.FormPage(String)"
            },
            "keyword": "When ",
            "BDD_STEP_UUID": "c85d4717-05eb-408c-8cf6-3f0ca238f56e"
          },
          {
            "result": {
              "duration": 2486572000,
              "status": "passed"
            },
            "line": 9,
            "name": "I input the first and last name on the form",
            "match": {
              "location": "Graduate152.FirstLastName()"
            },
            "keyword": "And ",
            "BDD_STEP_UUID": "72d473b9-1616-49dd-bbba-c338e16768ca"
          },
          {
            "result": {
              "duration": 1108965500,
              "status": "passed"
            },
            "line": 10,
            "name": "I input an email address",
            "match": {
              "location": "Graduate152.inputEmail()"
            },
            "keyword": "And ",
            "BDD_STEP_UUID": "ec869713-8015-43be-9f8c-cc7460d14555"
          },
          {
            "result": {
              "duration": 870688800,
              "status": "passed"
            },
            "line": 11,
            "name": "I select a program \"tfa_1156\"",
            "match": {
              "arguments": [
                {
                  "val": "\"tfa_1156\"",
                  "offset": 19
                }
              ],
              "location": "Graduate152.SelectAProgramOfInterest(String)"
            },
            "keyword": "And ",
            "BDD_STEP_UUID": "218e0ca8-ed0b-446d-aa97-666f88c8c34f"
          },
          {
            "result": {
              "duration": 972724300,
              "status": "passed"
            },
            "line": 12,
            "name": "I select a term \"tfa_1246\"",
            "match": {
              "arguments": [
                {
                  "val": "\"tfa_1246\"",
                  "offset": 16
                }
              ],
              "location": "Graduate152.SelectATermOfEnrollment(String)"
            },
            "keyword": "And ",
            "BDD_STEP_UUID": "7bddc3bc-95fb-4861-a64a-0bd8a88c37f2"
          },
          {
            "result": {
              "duration": 927385700,
              "status": "passed"
            },
            "line": 13,
            "name": "I input a phone number",
            "match": {
              "location": "Graduate152.inputPhoneNumber()"
            },
            "keyword": "And ",
            "BDD_STEP_UUID": "bd1bb9ee-bf56-4dbe-9c67-82e9fc5c2cf9"
          },
          {
            "result": {
              "duration": 1096141900,
              "status": "passed"
            },
            "line": 14,
            "name": "I select a country",
            "match": {
              "location": "Graduate152.SelectACountry()"
            },
            "keyword": "And ",
            "BDD_STEP_UUID": "632c964c-047a-424b-93f5-f3bae7f1fd2a"
          },
          {
            "result": {
              "duration": 900520100,
              "status": "passed"
            },
            "line": 15,
            "name": "I input a state",
            "match": {
              "location": "Graduate152.inputState()"
            },
            "keyword": "And ",
            "BDD_STEP_UUID": "f28f361b-2cce-4565-a874-ba911becd6cb"
          },
          {
            "result": {
              "duration": 815812800,
              "status": "passed"
            },
            "line": 16,
            "name": "I input a city",
            "match": {
              "location": "Graduate152.inputCity()"
            },
            "keyword": "And ",
            "BDD_STEP_UUID": "5ecd3b43-13c6-467b-afcd-b826fbb9a461"
          },
          {
            "result": {
              "duration": 1021854000,
              "status": "passed"
            },
            "line": 17,
            "name": "I input the postal code",
            "match": {
              "location": "Graduate152.inputPostalZode()"
            },
            "keyword": "And ",
            "BDD_STEP_UUID": "885efabb-b776-4e2c-b889-d8c260789a47"
          },
          {
            "result": {
              "duration": 5777790400,
              "status": "passed"
            },
            "line": 18,
            "name": "I click the submit button",
            "match": {
              "location": "Graduate152.clickSubmit()"
            },
            "keyword": "And ",
            "BDD_STEP_UUID": "7b637202-dbed-434e-9fa1-628863f47be0"
          },
          {
            "result": {
              "duration": 1704820900,
              "status": "passed"
            },
            "line": 19,
            "name": "I am on the correct \"https://www.babson.edu/graduate/admissions/thank-you/\" page",
            "match": {
              "arguments": [
                {
                  "val": "\"https://www.babson.edu/graduate/admissions/thank-you/\"",
                  "offset": 20
                }
              ],
              "location": "Graduate152.thankYouPage(String)"
            },
            "keyword": "And ",
            "BDD_STEP_UUID": "c4c59fc4-288d-472e-ae14-cc004e00ca2b"
          },
          {
            "result": {
              "duration": 3489354200,
              "status": "passed"
            },
            "line": 20,
            "name": "I get the submit request",
            "match": {
              "location": "Graduate152.submitRequest()"
            },
            "keyword": "And ",
            "BDD_STEP_UUID": "c69078d2-9c3c-46dc-9982-f4e32b5a72f0"
          },
          {
            "result": {
              "duration": 4074870600,
              "status": "passed"
            },
            "line": 21,
            "name": "I delete the form record",
            "match": {
              "location": "Graduate152.deleteRequest()"
            },
            "keyword": "Then ",
            "BDD_STEP_UUID": "442748e4-acfb-470c-8efe-ad780c1ade0a"
          }
        ],
        "tags": [
          {
            "name": "@Form"
          },
          {
            "name": "@152"
          },
          {
            "name": "@Graduate"
          },
          {
            "name": "@Grad"
          },
          {
            "name": "@152"
          },
          {
            "name": "@smoke"
          }
        ]
      }
    ],
    "name": "admission/graduate-school/",
    "description": "  I want to submit and verify form submits with the correct data",
    "id": "admission/graduate-school/",
    "keyword": "Feature",
    "uri": "C:/Users/rkeough/git/babson-automation/Include/features/Forms/152Graduate/Graduate152.feature",
    "tags": [
      {
        "name": "@Form",
        "type": "Tag",
        "location": {
          "line": 1,
          "column": 1
        }
      },
      {
        "name": "@152",
        "type": "Tag",
        "location": {
          "line": 1,
          "column": 7
        }
      },
      {
        "name": "@Graduate",
        "type": "Tag",
        "location": {
          "line": 1,
          "column": 12
        }
      }
    ]
  }
]