Suite/Test/Step Name,Browser,Description,Tag,Start time,End time,Duration,Status
Grad152,Chrome 121.0.0.0,,,2024-02-16 09:11:00,2024-02-16 09:11:09,8.983s,ERROR
,,,,,,,
Test Cases/GradForms/Grad152,Chrome 121.0.0.0,,,2024-02-16 09:11:00,2024-02-16 09:11:09,8.799s,ERROR
"openBrowser(""https://www.babson.edu"")",Chrome 121.0.0.0,,,2024-02-16 09:11:01,2024-02-16 09:11:08,7.045s,PASSED
"setViewPortSize(1536, 960)",Chrome 121.0.0.0,,,2024-02-16 09:11:08,2024-02-16 09:11:08,0.166s,PASSED
navigateToUrl(form),Chrome 121.0.0.0,,,2024-02-16 09:11:08,2024-02-16 09:11:08,0.052s,ERROR
Start listener action : sampleAfterTestCase,Chrome 121.0.0.0,,,2024-02-16 09:11:08,2024-02-16 09:11:09,0.644s,PASSED
