{
  "log" : {
    "version" : "1.2",
    "pages" : [ ],
    "entries" : [ {
      "startedDateTime" : "2023-02-17T17:51:24.655Z",
      "request" : {
        "method" : "GET",
        "url" : "https://fusionmx.babson.edu/Services/ERXGetContact.cfm?getContactInfoEmail=larry21%40babson-test.com&PPP=COVID2020%21UA",
        "httpVersion" : "",
        "cookies" : [ ],
        "headers" : [ ],
        "queryString" : [ {
          "name" : "getContactInfoEmail",
          "value" : "larry21@babson-test.com"
        }, {
          "name" : "PPP",
          "value" : "COVID2020!UA"
        } ],
        "headersSize" : 0,
        "bodySize" : 0,
        "comment" : ""
      },
      "response" : {
        "status" : 200,
        "statusText" : "",
        "httpVersion" : "",
        "cookies" : [ ],
        "headers" : [ {
          "name" : "Vary",
          "value" : "Accept-Encoding"
        }, {
          "name" : "Set-Cookie",
          "value" : "JSESSIONID=0B784B223400094E351356C79256576E.cfusion; Path=/; Secure; HttpOnly"
        }, {
          "name" : "#status#",
          "value" : "HTTP/1.1 200 OK"
        }, {
          "name" : "Date",
          "value" : "Fri, 17 Feb 2023 17:51:24 GMT"
        }, {
          "name" : "Content-Type",
          "value" : "text/html;charset=UTF-8"
        } ],
        "content" : {
          "size" : 364,
          "mimeType" : "text/html;charset=UTF-8",
          "text" : "<formassemblysubmission>\n<first_name>Test</first_name>\n<last_name>erxtest</last_name>\n<email>larry21@babson-test.com</email>\n<program_of_interest>Full-Time MBA</program_of_interest>\n<term>Fall 2024</term>\n<phone>1011010111</phone>\n<country>Barbados</country>\n<state>TestState</state>\n<city>TestCity</city>\n<postalcode>11111</postalcode>\n</formassemblysubmission>\r\n",
          "comment" : ""
        },
        "redirectURL" : "",
        "headersSize" : 174,
        "bodySize" : -1,
        "comment" : ""
      },
      "cache" : { },
      "timings" : {
        "comment" : "",
        "dns" : -1,
        "send" : 0,
        "connect" : 0,
        "blocked" : -1,
        "receive" : 0,
        "wait" : 0,
        "ssl" : -1
      },
      "comment" : "",
      "_katalonRequestInformation" : {
        "name" : "3",
        "testObjectId" : "Object Repository/FormFields/SubmitForm",
        "harId" : "fe663758-4bb5-4517-bee9-306b6287f576",
        "reportFolder" : null
      },
      "time" : 0
    } ],
    "comment" : ""
  }
}