Suite/Test/Step Name,Browser,Description,Tag,Start time,End time,Duration,Status
Grad152,Chrome 121.0.0.0,,,2024-02-16 09:11:57,2024-02-16 09:12:05,8.247s,ERROR
,,,,,,,
Test Cases/GradForms/Grad152,Chrome 121.0.0.0,,,2024-02-16 09:11:57,2024-02-16 09:12:05,8.078s,ERROR
"openBrowser(""https://www.babson.edu"")",Chrome 121.0.0.0,,,2024-02-16 09:11:58,2024-02-16 09:12:04,6.337s,PASSED
"setViewPortSize(1536, 960)",Chrome 121.0.0.0,,,2024-02-16 09:12:04,2024-02-16 09:12:04,0.168s,PASSED
navigateToUrl(form),Chrome 121.0.0.0,,,2024-02-16 09:12:04,2024-02-16 09:12:04,0.055s,ERROR
Start listener action : sampleAfterTestCase,Chrome 121.0.0.0,,,2024-02-16 09:12:04,2024-02-16 09:12:05,0.648s,PASSED
