[
  {
    "line": 2,
    "elements": [
      {
        "BDD_TESTRUN_UUID": "4988767c-cfd4-4710-81e8-1ba822b98b54",
        "line": 6,
        "name": "Check the third party spam box",
        "description": "",
        "id": "update-third-party-spam-on-form-assembly;check-the-third-party-spam-box",
        "type": "scenario",
        "keyword": "Scenario",
        "steps": [
          {
            "result": {
              "duration": 8481428000,
              "status": "passed"
            },
            "line": 7,
            "name": "I log into Form Assembly",
            "match": {
              "location": "FormAssemblySpam.LogIntoFormAssembly()"
            },
            "keyword": "Given ",
            "BDD_STEP_UUID": "d5770eac-b142-4833-b537-8ce89ced88f8"
          },
          {
            "result": {
              "duration": 1681379000,
              "status": "passed"
            },
            "line": 8,
            "name": "I click the spam box",
            "match": {
              "location": "FormAssemblySpam.ClickSpamBox()"
            },
            "keyword": "And ",
            "BDD_STEP_UUID": "fdfda4a1-ec43-475a-b040-b040cf80e428"
          },
          {
            "result": {
              "duration": 4862972800,
              "status": "passed"
            },
            "line": 9,
            "name": "I click the Apply button",
            "match": {
              "location": "FormAssemblySpam.ClickApplyButton()"
            },
            "keyword": "Then ",
            "BDD_STEP_UUID": "0aa3baf4-0a26-4500-90fd-cfc6beadbaa3"
          }
        ],
        "tags": [
          {
            "name": "@FormAssembly"
          },
          {
            "name": "@FormAssembly"
          }
        ]
      }
    ],
    "name": "Update third party spam on Form Assembly",
    "description": "  I want to change the third party spam box so automation can run",
    "id": "update-third-party-spam-on-form-assembly",
    "keyword": "Feature",
    "uri": "C:/Users/rkeough/git/babson-automation/Include/features/Forms/FormAssemblySpam.feature",
    "tags": [
      {
        "name": "@FormAssembly",
        "type": "Tag",
        "location": {
          "line": 1,
          "column": 1
        }
      }
    ]
  }
]