{
  "log" : {
    "version" : "1.2",
    "pages" : [ ],
    "entries" : [ {
      "startedDateTime" : "2022-10-14T19:51:26.120Z",
      "request" : {
        "method" : "DELETE",
        "url" : "https://fusionmx.babson.edu/Services/ERXDeleteContact.cfm?deleteContactInfoEmail=larry21%40babson-test.com&PPP=COVID2020%21UA",
        "httpVersion" : "",
        "cookies" : [ ],
        "headers" : [ ],
        "queryString" : [ {
          "name" : "deleteContactInfoEmail",
          "value" : "larry21@babson-test.com"
        }, {
          "name" : "PPP",
          "value" : "COVID2020!UA"
        } ],
        "headersSize" : 0,
        "bodySize" : 0,
        "comment" : ""
      },
      "response" : {
        "status" : 200,
        "statusText" : "",
        "httpVersion" : "",
        "cookies" : [ ],
        "headers" : [ {
          "name" : "Vary",
          "value" : "Accept-Encoding"
        }, {
          "name" : "Set-Cookie",
          "value" : "CFID=20285605; Expires=Sat, 15-Oct-2022 19:51:25 GMT; Path=/; HttpOnly"
        }, {
          "name" : "Set-Cookie",
          "value" : "CFTOKEN=d6379e4cf8890c66-7075FC57-04DD-68A4-C5EA64F04A96BBE7; Expires=Sat, 15-Oct-2022 19:51:25 GMT; Path=/; HttpOnly"
        }, {
          "name" : "Set-Cookie",
          "value" : "JSESSIONID=EE2141E70D09022492334AAC925CC4EC.cfusion; Path=/; Secure; HttpOnly"
        }, {
          "name" : "#status#",
          "value" : "HTTP/1.1 200 OK"
        }, {
          "name" : "Date",
          "value" : "Fri, 14 Oct 2022 19:51:26 GMT"
        }, {
          "name" : "Content-Type",
          "value" : "text/html;charset=UTF-8"
        } ],
        "content" : {
          "size" : 56,
          "mimeType" : "text/html;charset=UTF-8",
          "text" : "\r\n\r\n!--- Check the PPP --->\r\n<deleted>failed</deleted>\r\n",
          "comment" : ""
        },
        "redirectURL" : "",
        "headersSize" : 381,
        "bodySize" : -1,
        "comment" : ""
      },
      "cache" : { },
      "timings" : {
        "comment" : "",
        "ssl" : -1,
        "connect" : 0,
        "blocked" : -1,
        "receive" : 0,
        "send" : 0,
        "dns" : -1,
        "wait" : 0
      },
      "comment" : "",
      "_katalonRequestInformation" : {
        "name" : "177",
        "testObjectId" : "Object Repository/FormFields/DeleteForm",
        "harId" : "b132b88b-1115-4100-874f-a1e604e906c1",
        "reportFolder" : null
      },
      "time" : 0
    } ],
    "comment" : ""
  }
}