{
  "log" : {
    "version" : "1.2",
    "pages" : [ ],
    "entries" : [ {
      "startedDateTime" : "2022-10-14T20:06:00.152Z",
      "request" : {
        "method" : "GET",
        "url" : "https://fusionmx.babson.edu/Services/ERXGetContact.cfm?getContactInfoEmail=larry21%40babson-test.com",
        "httpVersion" : "",
        "cookies" : [ ],
        "headers" : [ ],
        "queryString" : [ {
          "name" : "getContactInfoEmail",
          "value" : "larry21@babson-test.com"
        } ],
        "headersSize" : 0,
        "bodySize" : 0,
        "comment" : ""
      },
      "response" : {
        "status" : 200,
        "statusText" : "",
        "httpVersion" : "",
        "cookies" : [ ],
        "headers" : [ {
          "name" : "Vary",
          "value" : "Accept-Encoding"
        }, {
          "name" : "Set-Cookie",
          "value" : "CFID=20285806; Expires=Sat, 15-Oct-2022 20:06:00 GMT; Path=/; HttpOnly"
        }, {
          "name" : "Set-Cookie",
          "value" : "CFTOKEN=4e5c658780268686-70FB811A-0319-1824-1DA4A70C54F39D08; Expires=Sat, 15-Oct-2022 20:06:00 GMT; Path=/; HttpOnly"
        }, {
          "name" : "Set-Cookie",
          "value" : "JSESSIONID=C4F8FD95BAB3CBE2455D9BFF7FE2B083.cfusion; Path=/; Secure; HttpOnly"
        }, {
          "name" : "#status#",
          "value" : "HTTP/1.1 200 OK"
        }, {
          "name" : "Date",
          "value" : "Fri, 14 Oct 2022 20:06:00 GMT"
        }, {
          "name" : "Content-Type",
          "value" : "text/html;charset=UTF-8"
        } ],
        "content" : {
          "size" : 33,
          "mimeType" : "text/html;charset=UTF-8",
          "text" : "\r\n<formassemblysubmission/>\r\n    ",
          "comment" : ""
        },
        "redirectURL" : "",
        "headersSize" : 381,
        "bodySize" : -1,
        "comment" : ""
      },
      "cache" : { },
      "timings" : {
        "comment" : "",
        "ssl" : -1,
        "connect" : 0,
        "blocked" : -1,
        "receive" : 0,
        "send" : 0,
        "dns" : -1,
        "wait" : 0
      },
      "comment" : "",
      "_katalonRequestInformation" : {
        "name" : "232",
        "testObjectId" : "Object Repository/FormFields/SubmitForm",
        "harId" : "20604feb-fedb-4b64-8c62-415add000a4d",
        "reportFolder" : null
      },
      "time" : 0
    } ],
    "comment" : ""
  }
}