{
  "log" : {
    "version" : "1.2",
    "pages" : [ ],
    "entries" : [ {
      "startedDateTime" : "2022-10-14T20:08:43.343Z",
      "request" : {
        "method" : "DELETE",
        "url" : "https://fusionmx.babson.edu/Services/ERXDeleteContact.cfm?deleteContactInfoEmail=larry21%40babson-test.com&PPP=COVID2020%21UA",
        "httpVersion" : "",
        "cookies" : [ ],
        "headers" : [ ],
        "queryString" : [ {
          "name" : "deleteContactInfoEmail",
          "value" : "larry21@babson-test.com"
        }, {
          "name" : "PPP",
          "value" : "COVID2020!UA"
        } ],
        "headersSize" : 0,
        "bodySize" : 0,
        "comment" : ""
      },
      "response" : {
        "status" : 200,
        "statusText" : "",
        "httpVersion" : "",
        "cookies" : [ ],
        "headers" : [ {
          "name" : "Vary",
          "value" : "Accept-Encoding"
        }, {
          "name" : "Set-Cookie",
          "value" : "CFID=20285835; Expires=Sat, 15-Oct-2022 20:08:41 GMT; Path=/; HttpOnly"
        }, {
          "name" : "Set-Cookie",
          "value" : "CFTOKEN=2b24ce8a5de78df7-711423B1-F92D-84DC-A3C2A5ACBD8AD60C; Expires=Sat, 15-Oct-2022 20:08:41 GMT; Path=/; HttpOnly"
        }, {
          "name" : "Set-Cookie",
          "value" : "JSESSIONID=832C7F2B2ECFA3E53F05872D1906CD45.cfusion; Path=/; Secure; HttpOnly"
        }, {
          "name" : "#status#",
          "value" : "HTTP/1.1 200 OK"
        }, {
          "name" : "Date",
          "value" : "Fri, 14 Oct 2022 20:08:43 GMT"
        }, {
          "name" : "Content-Type",
          "value" : "text/html;charset=UTF-8"
        } ],
        "content" : {
          "size" : 57,
          "mimeType" : "text/html;charset=UTF-8",
          "text" : "\r\n\r\n!--- Check the PPP --->\r\n<deleted>deleted</deleted>\r\n",
          "comment" : ""
        },
        "redirectURL" : "",
        "headersSize" : 381,
        "bodySize" : -1,
        "comment" : ""
      },
      "cache" : { },
      "timings" : {
        "comment" : "",
        "ssl" : -1,
        "connect" : 0,
        "blocked" : -1,
        "receive" : 0,
        "send" : 0,
        "dns" : -1,
        "wait" : 0
      },
      "comment" : "",
      "_katalonRequestInformation" : {
        "name" : "243",
        "testObjectId" : "Object Repository/FormFields/DeleteForm",
        "harId" : "6d225f81-d5d9-48d2-ba2c-0f97d3049a24",
        "reportFolder" : null
      },
      "time" : 0
    } ],
    "comment" : ""
  }
}