{
  "log" : {
    "version" : "1.2",
    "pages" : [ ],
    "entries" : [ {
      "startedDateTime" : "2022-10-14T20:13:21.655Z",
      "request" : {
        "method" : "DELETE",
        "url" : "https://fusionmx.babson.edu/Services/ERXDeleteContact.cfm?deleteContactInfoEmail=larry21%40babson-test.com&PPP=COVID2020%21UA",
        "httpVersion" : "",
        "cookies" : [ ],
        "headers" : [ ],
        "queryString" : [ {
          "name" : "deleteContactInfoEmail",
          "value" : "larry21@babson-test.com"
        }, {
          "name" : "PPP",
          "value" : "COVID2020!UA"
        } ],
        "headersSize" : 0,
        "bodySize" : 0,
        "comment" : ""
      },
      "response" : {
        "status" : 200,
        "statusText" : "",
        "httpVersion" : "",
        "cookies" : [ ],
        "headers" : [ {
          "name" : "Vary",
          "value" : "Accept-Encoding"
        }, {
          "name" : "Set-Cookie",
          "value" : "CFID=20285908; Expires=Sat, 15-Oct-2022 20:13:19 GMT; Path=/; HttpOnly"
        }, {
          "name" : "Set-Cookie",
          "value" : "CFTOKEN=5e04efb88a4f50f7-713E9AEF-DF56-DE2D-68B8E028085E1CF3; Expires=Sat, 15-Oct-2022 20:13:19 GMT; Path=/; HttpOnly"
        }, {
          "name" : "Set-Cookie",
          "value" : "JSESSIONID=37D65B3EA48BE0C0A731C7772CB9FE56.cfusion; Path=/; Secure; HttpOnly"
        }, {
          "name" : "#status#",
          "value" : "HTTP/1.1 200 OK"
        }, {
          "name" : "Date",
          "value" : "Fri, 14 Oct 2022 20:13:21 GMT"
        }, {
          "name" : "Content-Type",
          "value" : "text/html;charset=UTF-8"
        } ],
        "content" : {
          "size" : 57,
          "mimeType" : "text/html;charset=UTF-8",
          "text" : "\r\n\r\n!--- Check the PPP --->\r\n<deleted>deleted</deleted>\r\n",
          "comment" : ""
        },
        "redirectURL" : "",
        "headersSize" : 381,
        "bodySize" : -1,
        "comment" : ""
      },
      "cache" : { },
      "timings" : {
        "comment" : "",
        "ssl" : -1,
        "connect" : 0,
        "blocked" : -1,
        "receive" : 0,
        "send" : 0,
        "dns" : -1,
        "wait" : 0
      },
      "comment" : "",
      "_katalonRequestInformation" : {
        "name" : "261",
        "testObjectId" : "Object Repository/FormFields/DeleteForm",
        "harId" : "b8545051-9a0d-47d5-b1a5-5cedff43f8ce",
        "reportFolder" : null
      },
      "time" : 0
    } ],
    "comment" : ""
  }
}