{
  "log" : {
    "version" : "1.2",
    "pages" : [ ],
    "entries" : [ {
      "startedDateTime" : "2022-10-14T20:16:26.895Z",
      "request" : {
        "method" : "GET",
        "url" : "https://fusionmx.babson.edu/Services/ERXGetContact.cfm?getContactInfoEmail=larry21%40babson-test.com",
        "httpVersion" : "",
        "cookies" : [ ],
        "headers" : [ ],
        "queryString" : [ {
          "name" : "getContactInfoEmail",
          "value" : "larry21@babson-test.com"
        } ],
        "headersSize" : 0,
        "bodySize" : 0,
        "comment" : ""
      },
      "response" : {
        "status" : 200,
        "statusText" : "",
        "httpVersion" : "",
        "cookies" : [ ],
        "headers" : [ {
          "name" : "Vary",
          "value" : "Accept-Encoding"
        }, {
          "name" : "Set-Cookie",
          "value" : "CFID=20286007; Expires=Sat, 15-Oct-2022 20:16:26 GMT; Path=/; HttpOnly"
        }, {
          "name" : "Set-Cookie",
          "value" : "CFTOKEN=3dfa5df009e2a770-715B2274-975F-A625-6CC66B7E795E0DF3; Expires=Sat, 15-Oct-2022 20:16:26 GMT; Path=/; HttpOnly"
        }, {
          "name" : "Set-Cookie",
          "value" : "JSESSIONID=03D18DEFE285E90474B57F237D1A1ED4.cfusion; Path=/; Secure; HttpOnly"
        }, {
          "name" : "#status#",
          "value" : "HTTP/1.1 200 OK"
        }, {
          "name" : "Date",
          "value" : "Fri, 14 Oct 2022 20:16:26 GMT"
        }, {
          "name" : "Content-Type",
          "value" : "text/html;charset=UTF-8"
        } ],
        "content" : {
          "size" : 33,
          "mimeType" : "text/html;charset=UTF-8",
          "text" : "\r\n<formassemblysubmission/>\r\n    ",
          "comment" : ""
        },
        "redirectURL" : "",
        "headersSize" : 381,
        "bodySize" : -1,
        "comment" : ""
      },
      "cache" : { },
      "timings" : {
        "comment" : "",
        "ssl" : -1,
        "connect" : 0,
        "blocked" : -1,
        "receive" : 0,
        "send" : 0,
        "dns" : -1,
        "wait" : 0
      },
      "comment" : "",
      "_katalonRequestInformation" : {
        "name" : "272",
        "testObjectId" : "Object Repository/FormFields/SubmitForm",
        "harId" : "cc2c2831-04e6-4567-8f48-3be6993087f0",
        "reportFolder" : null
      },
      "time" : 0
    } ],
    "comment" : ""
  }
}