{
  "log" : {
    "version" : "1.2",
    "pages" : [ ],
    "entries" : [ {
      "startedDateTime" : "2022-10-14T20:21:42.390Z",
      "request" : {
        "method" : "DELETE",
        "url" : "https://fusionmx.babson.edu/Services/ERXDeleteContact.cfm?deleteContactInfoEmail=larry21%40babson-test.com&PPP=COVID2020%21UA",
        "httpVersion" : "",
        "cookies" : [ ],
        "headers" : [ ],
        "queryString" : [ {
          "name" : "deleteContactInfoEmail",
          "value" : "larry21@babson-test.com"
        }, {
          "name" : "PPP",
          "value" : "COVID2020!UA"
        } ],
        "headersSize" : 0,
        "bodySize" : 0,
        "comment" : ""
      },
      "response" : {
        "status" : 200,
        "statusText" : "",
        "httpVersion" : "",
        "cookies" : [ ],
        "headers" : [ {
          "name" : "Vary",
          "value" : "Accept-Encoding"
        }, {
          "name" : "Set-Cookie",
          "value" : "CFID=20286072; Expires=Sat, 15-Oct-2022 20:21:40 GMT; Path=/; HttpOnly"
        }, {
          "name" : "Set-Cookie",
          "value" : "CFTOKEN=7d4e751edbb4021a-718B007A-D234-3D07-059943DACB405BF0; Expires=Sat, 15-Oct-2022 20:21:40 GMT; Path=/; HttpOnly"
        }, {
          "name" : "Set-Cookie",
          "value" : "JSESSIONID=51B87FF61752516A9DA7C2C4D3A71399.cfusion; Path=/; Secure; HttpOnly"
        }, {
          "name" : "#status#",
          "value" : "HTTP/1.1 200 OK"
        }, {
          "name" : "Date",
          "value" : "Fri, 14 Oct 2022 20:21:42 GMT"
        }, {
          "name" : "Content-Type",
          "value" : "text/html;charset=UTF-8"
        } ],
        "content" : {
          "size" : 57,
          "mimeType" : "text/html;charset=UTF-8",
          "text" : "\r\n\r\n!--- Check the PPP --->\r\n<deleted>deleted</deleted>\r\n",
          "comment" : ""
        },
        "redirectURL" : "",
        "headersSize" : 381,
        "bodySize" : -1,
        "comment" : ""
      },
      "cache" : { },
      "timings" : {
        "comment" : "",
        "ssl" : -1,
        "connect" : 0,
        "blocked" : -1,
        "receive" : 0,
        "send" : 0,
        "dns" : -1,
        "wait" : 0
      },
      "comment" : "",
      "_katalonRequestInformation" : {
        "name" : "293",
        "testObjectId" : "Object Repository/FormFields/DeleteForm",
        "harId" : "874bd136-a40b-4d30-a9b0-4b39a156aeae",
        "reportFolder" : null
      },
      "time" : 0
    } ],
    "comment" : ""
  }
}