{
  "log" : {
    "version" : "1.2",
    "pages" : [ ],
    "entries" : [ {
      "startedDateTime" : "2022-10-14T20:28:40.698Z",
      "request" : {
        "method" : "GET",
        "url" : "https://fusionmx.babson.edu/Services/ERXGetContact.cfm?getContactInfoEmail=larry21%40babson-test.com",
        "httpVersion" : "",
        "cookies" : [ ],
        "headers" : [ ],
        "queryString" : [ {
          "name" : "getContactInfoEmail",
          "value" : "larry21@babson-test.com"
        } ],
        "headersSize" : 0,
        "bodySize" : 0,
        "comment" : ""
      },
      "response" : {
        "status" : 200,
        "statusText" : "",
        "httpVersion" : "",
        "cookies" : [ ],
        "headers" : [ {
          "name" : "Vary",
          "value" : "Accept-Encoding"
        }, {
          "name" : "Set-Cookie",
          "value" : "CFID=20286145; Expires=Sat, 15-Oct-2022 20:28:40 GMT; Path=/; HttpOnly"
        }, {
          "name" : "Set-Cookie",
          "value" : "CFTOKEN=30d847d499cfc8d6-71CB19A8-D130-322D-C4A1D191D48FBE7E; Expires=Sat, 15-Oct-2022 20:28:40 GMT; Path=/; HttpOnly"
        }, {
          "name" : "Set-Cookie",
          "value" : "JSESSIONID=0693FCFC5452E8CA95BB7275C52F75EB.cfusion; Path=/; Secure; HttpOnly"
        }, {
          "name" : "#status#",
          "value" : "HTTP/1.1 200 OK"
        }, {
          "name" : "Date",
          "value" : "Fri, 14 Oct 2022 20:28:40 GMT"
        }, {
          "name" : "Content-Type",
          "value" : "text/html;charset=UTF-8"
        } ],
        "content" : {
          "size" : 33,
          "mimeType" : "text/html;charset=UTF-8",
          "text" : "\r\n<formassemblysubmission/>\r\n    ",
          "comment" : ""
        },
        "redirectURL" : "",
        "headersSize" : 381,
        "bodySize" : -1,
        "comment" : ""
      },
      "cache" : { },
      "timings" : {
        "comment" : "",
        "ssl" : -1,
        "connect" : 0,
        "blocked" : -1,
        "receive" : 0,
        "send" : 0,
        "dns" : -1,
        "wait" : 0
      },
      "comment" : "",
      "_katalonRequestInformation" : {
        "name" : "314",
        "testObjectId" : "Object Repository/FormFields/SubmitForm",
        "harId" : "cf790955-098e-4046-ab3c-1d8547a161c9",
        "reportFolder" : null
      },
      "time" : 0
    } ],
    "comment" : ""
  }
}