{
  "log" : {
    "version" : "1.2",
    "pages" : [ ],
    "entries" : [ {
      "startedDateTime" : "2022-10-14T19:05:00.738Z",
      "request" : {
        "method" : "GET",
        "url" : "https://fusionmx.babson.edu/Services/ERXGetContact.cfm?getContactInfoEmail=larry21%40babson-test.com",
        "httpVersion" : "",
        "cookies" : [ ],
        "headers" : [ ],
        "queryString" : [ {
          "name" : "getContactInfoEmail",
          "value" : "larry21@babson-test.com"
        } ],
        "headersSize" : 0,
        "bodySize" : 0,
        "comment" : ""
      },
      "response" : {
        "status" : 200,
        "statusText" : "",
        "httpVersion" : "",
        "cookies" : [ ],
        "headers" : [ {
          "name" : "Vary",
          "value" : "Accept-Encoding"
        }, {
          "name" : "Set-Cookie",
          "value" : "CFID=20285029; Expires=Sat, 15-Oct-2022 19:05:00 GMT; Path=/; HttpOnly"
        }, {
          "name" : "Set-Cookie",
          "value" : "CFTOKEN=16459cf0b94581c6-6ECD2441-D721-1CC5-C8758041C59BFE81; Expires=Sat, 15-Oct-2022 19:05:00 GMT; Path=/; HttpOnly"
        }, {
          "name" : "Set-Cookie",
          "value" : "JSESSIONID=4F2E57EFFF1CA935836BB4B76351E770.cfusion; Path=/; Secure; HttpOnly"
        }, {
          "name" : "#status#",
          "value" : "HTTP/1.1 200 OK"
        }, {
          "name" : "Date",
          "value" : "Fri, 14 Oct 2022 19:05:00 GMT"
        }, {
          "name" : "Content-Type",
          "value" : "text/html;charset=UTF-8"
        } ],
        "content" : {
          "size" : 33,
          "mimeType" : "text/html;charset=UTF-8",
          "text" : "\r\n<formassemblysubmission/>\r\n    ",
          "comment" : ""
        },
        "redirectURL" : "",
        "headersSize" : 381,
        "bodySize" : -1,
        "comment" : ""
      },
      "cache" : { },
      "timings" : {
        "comment" : "",
        "ssl" : -1,
        "connect" : 0,
        "blocked" : -1,
        "receive" : 0,
        "send" : 0,
        "dns" : -1,
        "wait" : 0
      },
      "comment" : "",
      "_katalonRequestInformation" : {
        "name" : "4",
        "testObjectId" : "Object Repository/FormFields/SubmitForm",
        "harId" : "42655f18-2237-4764-ac00-f2d9c73354c2",
        "reportFolder" : null
      },
      "time" : 0
    } ],
    "comment" : ""
  }
}