{
  "log" : {
    "version" : "1.2",
    "pages" : [ ],
    "entries" : [ {
      "startedDateTime" : "2022-10-14T21:24:26.082Z",
      "request" : {
        "method" : "DELETE",
        "url" : "https://fusionmx.babson.edu/Services/ERXDeleteContact.cfm?deleteContactInfoEmail=larry21%40babson-test.com&PPP=COVID2020%21UA",
        "httpVersion" : "",
        "cookies" : [ ],
        "headers" : [ ],
        "queryString" : [ {
          "name" : "deleteContactInfoEmail",
          "value" : "larry21@babson-test.com"
        }, {
          "name" : "PPP",
          "value" : "COVID2020!UA"
        } ],
        "headersSize" : 0,
        "bodySize" : 0,
        "comment" : ""
      },
      "response" : {
        "status" : 200,
        "statusText" : "",
        "httpVersion" : "",
        "cookies" : [ ],
        "headers" : [ {
          "name" : "Vary",
          "value" : "Accept-Encoding"
        }, {
          "name" : "Set-Cookie",
          "value" : "CFID=20286911; Expires=Sat, 15-Oct-2022 21:24:24 GMT; Path=/; HttpOnly"
        }, {
          "name" : "Set-Cookie",
          "value" : "CFTOKEN=7f807181c8b95f19-73C94616-F91E-A233-0E7F721F1624CE4F; Expires=Sat, 15-Oct-2022 21:24:24 GMT; Path=/; HttpOnly"
        }, {
          "name" : "Set-Cookie",
          "value" : "JSESSIONID=151CAE6D00D94FA02632C9772D0CC5E4.cfusion; Path=/; Secure; HttpOnly"
        }, {
          "name" : "#status#",
          "value" : "HTTP/1.1 200 OK"
        }, {
          "name" : "Date",
          "value" : "Fri, 14 Oct 2022 21:24:26 GMT"
        }, {
          "name" : "Content-Type",
          "value" : "text/html;charset=UTF-8"
        } ],
        "content" : {
          "size" : 57,
          "mimeType" : "text/html;charset=UTF-8",
          "text" : "\r\n\r\n!--- Check the PPP --->\r\n<deleted>deleted</deleted>\r\n",
          "comment" : ""
        },
        "redirectURL" : "",
        "headersSize" : 381,
        "bodySize" : -1,
        "comment" : ""
      },
      "cache" : { },
      "timings" : {
        "comment" : "",
        "ssl" : -1,
        "connect" : 0,
        "blocked" : -1,
        "receive" : 0,
        "send" : 0,
        "dns" : -1,
        "wait" : 0
      },
      "comment" : "",
      "_katalonRequestInformation" : {
        "name" : "521",
        "testObjectId" : "Object Repository/FormFields/DeleteForm",
        "harId" : "166a8e3e-d5bb-47ee-9bac-c6f86cd05c82",
        "reportFolder" : null
      },
      "time" : 0
    } ],
    "comment" : ""
  }
}