{
  "log" : {
    "version" : "1.2",
    "pages" : [ ],
    "entries" : [ {
      "startedDateTime" : "2022-10-14T19:25:15.736Z",
      "request" : {
        "method" : "GET",
        "url" : "https://fusionmx.babson.edu/Services/ERXGetContact.cfm?getContactInfoEmail=larry21%40babson-test.com",
        "httpVersion" : "",
        "cookies" : [ ],
        "headers" : [ ],
        "queryString" : [ {
          "name" : "getContactInfoEmail",
          "value" : "larry21@babson-test.com"
        } ],
        "headersSize" : 0,
        "bodySize" : 0,
        "comment" : ""
      },
      "response" : {
        "status" : 200,
        "statusText" : "",
        "httpVersion" : "",
        "cookies" : [ ],
        "headers" : [ {
          "name" : "Vary",
          "value" : "Accept-Encoding"
        }, {
          "name" : "Set-Cookie",
          "value" : "CFID=20285268; Expires=Sat, 15-Oct-2022 19:25:15 GMT; Path=/; HttpOnly"
        }, {
          "name" : "Set-Cookie",
          "value" : "CFTOKEN=e3771c2f7e93e925-6F868808-9F25-A2AA-4BEDA22E2D2CCF75; Expires=Sat, 15-Oct-2022 19:25:15 GMT; Path=/; HttpOnly"
        }, {
          "name" : "Set-Cookie",
          "value" : "JSESSIONID=1FA20DE62F7D0DF1F9193EDACEB934A1.cfusion; Path=/; Secure; HttpOnly"
        }, {
          "name" : "#status#",
          "value" : "HTTP/1.1 200 OK"
        }, {
          "name" : "Date",
          "value" : "Fri, 14 Oct 2022 19:25:15 GMT"
        }, {
          "name" : "Content-Type",
          "value" : "text/html;charset=UTF-8"
        } ],
        "content" : {
          "size" : 33,
          "mimeType" : "text/html;charset=UTF-8",
          "text" : "\r\n<formassemblysubmission/>\r\n    ",
          "comment" : ""
        },
        "redirectURL" : "",
        "headersSize" : 381,
        "bodySize" : -1,
        "comment" : ""
      },
      "cache" : { },
      "timings" : {
        "comment" : "",
        "ssl" : -1,
        "connect" : 0,
        "blocked" : -1,
        "receive" : 0,
        "send" : 0,
        "dns" : -1,
        "wait" : 0
      },
      "comment" : "",
      "_katalonRequestInformation" : {
        "name" : "78",
        "testObjectId" : "Object Repository/FormFields/SubmitForm",
        "harId" : "7ea99b22-7226-4264-bba4-f3d121ac2f56",
        "reportFolder" : null
      },
      "time" : 0
    } ],
    "comment" : ""
  }
}